d,mu,weight_set,opinion_set,sim_seed
0.1,0.3,0,0,1754574613612411053
0.1,0.3,1,5,2544383134165323996
0.1,0.3,3,5,6579676777387722295
0.1,0.3,9,0,4893555057471221321
0.1,0.5,0,0,1313761230697730443
0.1,0.5,4,0,61753616961791382
0.1,0.5,5,0,8318313098555253138
0.1,0.3,1,0,3175511265237207836
0.1,0.3,2,0,2739516555225282791
0.1,0.3,2,5,2388751859491281944
0.1,0.3,4,0,8233393432773348175
0.1,0.3,4,5,1867754966525088078
0.1,0.3,5,5,3057089880601841262
0.1,0.3,6,0,8904187549354573047
0.1,0.3,6,5,7598659681903439592
0.1,0.3,7,0,5804231657196211651
0.1,0.3,7,5,1554361807054934386
0.1,0.3,8,0,3307570159204091360
0.1,0.3,8,5,196787318126693322
0.1,0.3,9,5,8513763100996228864
0.1,0.5,1,5,6760193367998363040
0.1,0.5,2,0,4117732850534199051
0.1,0.5,1,0,4864866790412939691
0.1,0.5,2,5,2056015480027019465
0.1,0.5,3,0,1875559417137289728
0.1,0.5,3,5,565369242780242509
0.1,0.5,6,0,1052390074459330475
0.1,0.5,6,5,4583330486836322344
0.1,0.5,7,0,7279262289734049614
0.1,0.3,0,5,7401996789157102960
0.1,0.3,5,0,4730152339090422528
0.1,0.3,3,0,8283898878268539987
0.1,0.5,0,5,2969976032733933438
0.1,0.5,4,5,7562586879054013830
0.1,0.5,5,5,2549479057587114914
0.1,0.3,2,1,4431148709006465601
0.1,0.3,0,1,4679421980297768792
0.1,0.3,1,6,4167825535424065124
0.1,0.3,7,1,1456400248430787804
0.1,0.3,5,6,2139830762893660246
0.1,0.5,2,1,8915657350221061734
0.1,0.5,0,1,2827810957416613436
0.1,0.3,8,6,3871479327406002243
0.1,0.3,9,6,887577644848428652
0.1,0.3,3,6,3828769031681905711
0.1,0.5,1,6,5010563076681534907
0.1,0.5,2,6,1825352928080589203
0.1,0.5,4,1,1732042610518765440
0.1,0.3,4,1,4700500502038744877
0.1,0.3,7,6,470370699897733672
0.1,0.3,8,1,2799222243105518485
0.1,0.3,2,6,7007174502578915173
0.1,0.3,6,6,1408316434524262004
0.1,0.5,5,1,685461649069576761
0.1,0.5,6,1,1260012267298843283
0.1,0.3,4,6,7385878421239262531
0.1,0.5,1,1,6116152647610991642
0.1,0.3,9,1,5472814561459332988
0.1,0.5,4,6,183632280557602452
0.1,0.5,6,6,2731183611460552738
0.1,0.3,1,1,687368706918575539
0.1,0.5,5,6,7211514134377766535
0.1,0.3,6,1,7018273805926659258
0.1,0.5,0,6,6609419340105316071
0.1,0.5,3,1,7227352727985628766
0.1,0.3,0,6,154663568670734570
0.1,0.5,1,7,9004360141324797883
0.1,0.3,8,7,6520209379442143824
0.1,0.3,5,1,4169369060434376562
0.1,0.5,3,6,115639655664845413
0.1,0.3,9,7,2467953115532471378
0.1,0.3,1,7,8197973352523016420
0.1,0.3,2,2,7128165978452896186
0.1,0.3,3,7,7746227789112347430
0.1,0.3,6,7,5549206172245427327
0.1,0.3,3,1,6446420891305596373
0.1,0.5,7,1,8104813013483615391
0.1,0.3,4,2,7510797254615098128
0.1,0.3,7,7,2173168677897286308
0.1,0.3,7,2,6338393102012299669
0.1,0.3,0,2,192503015921757853
0.1,0.3,5,7,7370212880148606413
0.1,0.5,2,7,8358640351623920235
0.1,0.5,6,7,4807264031630579575
0.1,0.3,9,2,2022582505983277603
0.1,0.5,2,2,8160306525796383976
0.1,0.5,4,2,3366772851986727352
0.1,0.5,5,7,6337850564620319514
0.1,0.5,3,2,4424248069501775631
0.1,0.5,5,2,1797756895256674352
0.1,0.3,6,2,7498771177284310608
0.1,0.5,0,7,6693793711017277210
0.1,0.3,4,7,96489913013167173
0.1,0.3,2,7,1626595408498234268
0.1,0.5,0,2,7852843541575607783
0.1,0.5,4,7,7028629185276579680
0.1,0.5,6,2,7381565130892543394
0.1,0.3,8,2,8389937214255197811
0.1,0.5,1,2,8401196935575853822
0.1,0.3,1,2,7997991110175863737
0.1,0.5,1,8,2875565816564009156
0.1,0.3,9,8,68258319058437016
0.1,0.3,0,7,7280735708115436372
0.1,0.3,3,2,2076427081062336821
0.1,0.3,6,8,8370124962572080793
0.1,0.3,4,3,2559504528585141939
0.1,0.3,0,3,8033373381997734733
0.1,0.5,2,8,4450666865101654340
0.1,0.3,8,8,4012355857192937778
0.1,0.5,3,7,945527457681033190
0.1,0.3,5,2,3962405751553925733
0.1,0.5,4,3,7329777809669307339
0.1,0.5,2,3,6730491368954566581
0.1,0.3,1,8,8481426154516862924
0.1,0.5,0,8,6158864287087545972
0.1,0.5,7,2,8168503657849155179
0.1,0.3,6,3,4690943470239609088
0.1,0.3,3,8,732041815370993137
0.1,0.3,5,8,6097525870525254289
0.1,0.3,7,8,5881653906983235121
0.1,0.5,6,8,6523045115180619646
0.1,0.5,0,3,93092816839059259
0.1,0.3,2,3,435639727187093492
0.1,0.5,3,3,1235571540874188803
0.1,0.5,4,8,4877363863726991581
0.1,0.3,7,3,8968451923251532324
0.1,0.5,5,3,1404625116414171417
0.1,0.3,8,3,6854738669763832379
0.1,0.3,3,3,5474323884453052313
0.1,0.3,0,8,6200379540536453965
0.1,0.5,5,8,4883028518062762761
0.1,0.3,6,9,4979063030299547255
0.1,0.3,1,3,5565737005423105872
0.1,0.5,6,3,1576787559599138487
0.1,0.3,9,3,5108312681341567360
0.1,0.3,4,4,1740136380620835863
0.1,0.5,3,8,6973436984807925461
0.1,0.5,1,9,3763616581431254048
0.1,0.3,8,9,5119879451953924416
0.1,0.3,9,9,8133479017788292017
0.1,0.5,2,9,2869193314747822308
0.1,0.5,7,3,6014131506753617964
0.1,0.3,5,3,4292120509840823700
0.1,0.5,1,3,2027333477859248632
0.1,0.5,2,4,3042083872248947569
0.1,0.5,6,9,7787473206571782501
0.1,0.3,4,8,8189171358346552631
0.1,0.3,0,4,8267946161447681843
0.1,0.5,3,4,1024777866399579142
0.1,0.3,6,4,4834488589017173876
0.1,0.5,4,9,1244143288483233373
0.1,0.5,0,4,7041579069622740769
0.1,0.5,5,4,1604254504485005498
0.1,0.3,3,9,3953940994346856963
0.1,0.3,2,4,1764407154373569841
0.1,0.5,4,4,3845165706201287142
0.1,0.5,0,9,8811049067161893323
0.1,0.3,2,8,1224605280939943882
0.1,0.3,3,4,2371326523008476676
0.1,0.5,7,5,3303543585713692036
0.1,0.3,7,9,7315972654310103811
0.1,0.3,8,4,5347079690502036450
0.1,0.5,8,0,7282227341008267478
0.1,0.3,7,4,6196992093024050156
0.1,0.3,1,9,7015572525879228157
0.1,0.5,1,4,2707484431799962894
0.1,0.5,7,4,333933675545318824
0.1,0.3,1,4,4956385138678756710
0.1,0.3,9,4,2580775110720209469
0.1,0.5,3,9,3092615734612521930
0.1,0.5,5,9,1842844364760794049
0.1,0.5,6,4,3798333831363295771
0.3,0.3,1,0,3097551394432730188
0.3,0.3,1,5,4614957430287958145
0.1,0.3,4,9,7833274386624811971
0.1,0.3,5,4,6549038304413132720
0.1,0.3,5,9,4845936588354573833
0.3,0.3,2,0,7597393101323351511
0.3,0.3,2,5,5597402603775507998
0.1,0.5,8,5,548215810858625906
0.1,0.5,9,0,3317779770217906000
0.3,0.3,3,0,2116602227098568624
0.1,0.3,0,9,810169707246970214
0.3,0.3,0,0,6077276387162267442
0.3,0.3,0,5,3024588529471645127
0.3,0.3,3,5,7203480408327061697
0.3,0.3,4,0,8540737673737626182
0.3,0.3,4,5,8659014103668575593
0.3,0.3,5,0,3637114685169361081
0.1,0.5,8,1,7509811958884535947
0.1,0.3,2,9,7782128120226532524
0.3,0.3,5,5,1655182837929734660
0.3,0.3,1,1,8803085662721485937
0.3,0.5,1,0,7044242323901325567
0.1,0.5,9,5,5677246569748750755
0.3,0.3,7,0,3813814758015091670
0.3,0.3,8,0,6603684256120055120
0.3,0.3,9,0,5728473137210139970
0.3,0.3,6,5,3048121797847120557
0.3,0.5,0,5,8303524423888617555
0.3,0.5,2,0,4661765711350837260
0.3,0.3,8,5,7603830178028917023
0.3,0.3,6,0,1202215009450469889
0.3,0.3,2,6,8872404038877651425
0.1,0.5,7,6,4976547449673399392
0.3,0.3,9,5,5210330376867897682
0.3,0.5,1,5,3457887230763391717
0.3,0.3,7,5,9052427832371324166
0.3,0.5,0,0,5671168506711275136
0.3,0.3,2,1,4831996078863299423
0.3,0.5,2,5,5916976209680072326
0.3,0.3,5,1,815168717590141901
0.3,0.3,0,6,6421210257394169122
0.3,0.5,4,0,465716950545824987
0.1,0.5,8,6,8143548663026281485
0.3,0.3,4,6,3253327162404448152
0.3,0.3,1,2,3562387744793847913
0.3,0.3,1,6,7923217226739628626
0.3,0.5,3,5,6554348358379846273
0.3,0.5,3,0,4102217899065694955
0.1,0.5,9,1,427649925695626071
0.3,0.3,7,1,4915988796710307321
0.1,0.5,8,2,1198920730202255614
0.3,0.3,5,6,7940691649576920786
0.3,0.3,3,6,1645901818979467207
0.3,0.3,4,1,3742310628653542834
0.1,0.5,9,6,594301036879642220
0.1,0.5,7,7,8002894013161566214
0.3,0.3,8,1,7062740094609632337
0.3,0.5,2,1,4388082896022342321
0.3,0.5,4,5,1727830375509264766
0.3,0.3,9,6,8081875420534442331
0.3,0.3,6,6,7088050438561856723
0.3,0.3,2,7,8273509529103383381
0.3,0.5,0,6,8668117988508443009
0.3,0.3,3,1,8911787995483473752
0.3,0.5,0,1,4049805456246563835
0.3,0.5,4,1,4222291918115182496
0.1,0.5,8,7,6532298522824669040
0.3,0.5,2,6,636726502701232341
0.3,0.3,0,1,8472552007544323039
0.1,0.5,9,2,48930915631275613
0.3,0.3,1,3,3848266187803632894
0.3,0.3,0,7,7380642002844325741
0.3,0.3,6,1,2146896663806630925
0.3,0.3,7,2,1188288270814565576
0.3,0.3,9,1,6713545758267262979
0.3,0.3,8,6,3434667963408838047
0.1,0.5,7,8,1485616564990184461
0.3,0.3,2,2,2628163144044982188
0.3,0.3,4,2,5805484158294657075
0.3,0.5,1,1,8333138711908303055
0.3,0.3,3,7,7816237946009302233
0.3,0.3,4,7,3988199413729674653
0.3,0.3,1,7,7237107811053284211
0.1,0.5,9,7,7364326063413192557
0.3,0.3,5,7,7845996755865885601
0.3,0.5,3,6,1852418486584955068
0.3,0.3,7,6,4483720104656001980
0.3,0.3,9,7,9059707523310519537
0.1,0.5,8,3,5780004326362438322
0.3,0.3,5,2,4087201005021084688
0.3,0.3,2,8,8117679388769194066
0.3,0.5,3,1,1800688303077155515
0.3,0.5,1,6,2135718779434839117
0.3,0.5,2,7,8449002897883957694
0.3,0.5,4,2,2624814168659554551
0.3,0.5,4,6,6469470159729261759
0.3,0.3,3,2,8410317473772156253
0.3,0.3,7,3,2315739199719897484
0.1,0.5,8,8,5271661117686060743
0.3,0.3,8,2,7773708460298627845
0.3,0.3,0,8,5291177941521362676
0.3,0.5,2,2,9020310598718902254
0.1,0.5,7,9,4594224508209667591
0.3,0.5,1,2,8177318513365031510
0.3,0.3,2,3,5591878249774523548
0.3,0.5,0,2,6479901399763965732
0.3,0.3,8,7,5196011182878573894
0.3,0.3,6,7,2755368757277555846
0.3,0.3,4,8,6449707042426158319
0.3,0.3,9,2,1355266183652252487
0.3,0.3,4,3,298027194381212812
0.3,0.3,1,8,2385777587425327025
0.3,0.5,3,7,4772581455528799834
0.1,0.5,8,4,7940822530103324778
0.3,0.3,7,7,4134137943691087768
0.3,0.5,1,7,8070524601504686881
0.3,0.5,0,7,2718109239865633400
0.3,0.3,1,4,7215633076850605069
0.1,0.5,9,3,188307166742246198
0.1,0.5,9,8,3668666490482312555
0.3,0.3,6,2,2914947890782463103
0.3,0.5,4,3,7180438638435874806
0.3,0.3,3,3,7111992968149453585
0.3,0.3,7,4,1540152153712831174
0.3,0.3,3,8,5072419918381366804
0.3,0.3,5,3,872580014011520672
0.3,0.5,3,2,3377067029635928270
0.3,0.5,2,3,636169837675027270
0.3,0.3,0,2,6646106964300125474
0.3,0.3,8,3,1482860273363704024
0.3,0.3,9,8,5002738783790004024
0.3,0.3,2,9,620116006639559586
0.3,0.5,0,3,8020789391713960885
0.1,0.5,8,9,4504696599621854497
0.3,0.3,4,4,2537640535549007713
0.3,0.5,2,8,4573059012213664689
0.3,0.5,5,0,8859552689426466113
0.3,0.3,8,8,4480059183228504816
0.3,0.5,1,8,3438325104227628829
0.3,0.5,5,5,4487697097824700695
0.3,0.5,0,8,6032489476331953461
0.3,0.3,6,8,5505077790049322017
0.3,0.5,1,3,8487760181663613910
0.1,0.5,9,4,8446033447591149378
0.3,0.3,0,9,6415833617455296892
0.3,0.3,1,9,6006211694969286883
0.1,0.5,9,9,612647116512295289
0.3,0.3,2,4,8881126185510449717
0.3,0.5,3,8,8909993859140797421
0.3,0.5,4,7,3907925169575565906
0.3,0.3,5,8,1368750695860334380
0.3,0.3,4,9,4711217917036003872
0.3,0.3,3,9,6956684206629464993
0.3,0.5,2,4,9200204779236143224
0.3,0.3,3,4,6366130150887816370
0.3,0.5,6,5,7082412283439616431
0.3,0.5,4,4,2594781191329322403
0.3,0.3,6,3,7306911909769362523
0.3,0.3,0,3,8961675657378404280
0.3,0.3,9,9,8257657693428312984
0.3,0.5,0,4,744719378506133858
0.3,0.5,7,5,6417803463000204267
0.3,0.5,3,3,7774537885977816472
0.3,0.5,5,1,7043668285343257016
0.3,0.3,9,3,2567923772642901915
0.3,0.3,8,4,8930842562028821071
0.3,0.3,7,8,8825609886655746772
0.3,0.5,7,0,4700093839283157746
0.3,0.5,2,9,2619155991765762839
0.3,0.5,1,9,618876545588216103
0.3,0.3,8,9,3986678138947845515
0.3,0.5,1,4,149725391108962543
0.3,0.3,5,4,2038531762743242632
0.3,0.5,6,0,5496675186733049036
0.3,0.5,0,9,8408178695411052798
0.3,0.5,4,8,5680713216286189329
0.3,0.5,9,0,1245549769329327106
0.3,0.5,8,0,5493228287863519613
0.5,0.3,0,5,4728279620333322153
0.5,0.3,1,0,2055601975093270059
0.3,0.5,8,5,6158282910571187788
0.3,0.5,3,9,6071090715940039025
0.3,0.5,9,5,6941508825310956223
0.5,0.3,2,0,9178386834197903362
0.5,0.3,2,5,2415676292581293057
0.3,0.5,5,6,6439511687176460573
0.3,0.3,5,9,2107318500738770285
0.5,0.3,3,0,9033672366973318520
0.5,0.3,0,0,6861829129236084858
0.3,0.3,6,4,1308867910766375357
0.3,0.5,3,4,5713592273193624382
0.3,0.3,9,4,6654668209122341699
0.5,0.3,4,0,557632841728741142
0.3,0.5,5,2,6881433901362686511
0.5,0.3,4,5,282078757223583372
0.3,0.5,7,6,1918618590710268063
0.3,0.5,6,6,1242308863779370309
0.5,0.3,5,0,3988363592454242088
0.5,0.3,6,0,7705856439902680959
0.5,0.3,3,5,7443661524040997661
0.5,0.3,1,5,2244105614182823526
0.5,0.3,7,0,3776022518656349740
0.3,0.3,6,9,2269907624724005824
0.5,0.3,5,5,5956791482389304506
0.3,0.5,7,1,1085785748263245297
0.3,0.3,7,9,8171339369203856052
0.5,0.3,0,6,7974216044016142287
0.5,0.3,2,1,3133721302271355970
0.5,0.3,7,5,9046436923044292447
0.3,0.5,8,1,5416220519868014355
0.3,0.5,5,7,899940356072263331
0.3,0.3,0,4,1776523711822924038
0.3,0.5,6,1,2475675017887926630
0.5,0.3,2,6,1159007487551572477
0.5,0.3,1,1,654518872280097229
0.3,0.5,4,9,198028681029003110
0.5,0.3,3,1,9155874087147694257
0.5,0.3,4,1,6586789091858083503
0.3,0.5,8,6,6499622786807582799
0.5,0.3,4,6,4532768842926297561
0.3,0.5,6,7,8051179714524575000
0.3,0.5,9,6,338123460096539602
0.3,0.5,5,3,2471951315738237046
0.5,0.3,5,1,5377311676415421437
0.3,0.5,7,7,2999819864773182261
0.5,0.3,6,5,1913774443883897832
0.5,0.3,1,6,3253513052097861722
0.3,0.5,7,2,4808990371850157803
0.5,0.3,9,0,6483582958137497459
0.3,0.5,9,1,2842826052047744092
0.5,0.3,8,0,2934175656390200090
0.5,0.3,2,2,8379647473167553866
0.5,0.3,0,7,9129906893177988853
0.5,0.3,8,5,1259216125881666948
0.3,0.5,5,8,4632096188385262758
0.5,0.5,0,0,2976126370481293799
0.5,0.3,5,6,6803721964233323029
0.5,0.3,6,1,9097077659295207867
0.5,0.3,7,6,313852894598853071
0.5,0.3,7,1,4041627719999073416
0.5,0.3,2,7,3978065721107995851
0.5,0.3,9,5,3317096963782958308
0.5,0.3,0,1,2584307193351243337
0.5,0.3,3,6,6821092202264712056
0.5,0.3,4,7,5274361260534201827
0.5,0.5,0,5,1781862470340732496
0.5,0.3,3,2,7243112319297132332
0.3,0.5,8,2,8360322022439256563
0.3,0.5,6,2,816577978133267105
0.3,0.5,9,2,8748790453062019195
0.5,0.3,5,2,3023375701669616174
0.5,0.5,1,0,7223576177539644440
0.5,0.5,1,5,2924635601649063100
0.3,0.5,8,7,9168582258751608680
0.5,0.3,1,2,6491202494962414447
0.5,0.3,4,2,7143056859401345530
0.5,0.3,6,6,9147249311957853165
0.3,0.5,9,7,5814194752771720028
0.3,0.5,5,4,3506077750135000760
0.3,0.5,7,8,3041465144365662342
0.3,0.5,6,8,1130989567746875124
0.5,0.3,2,3,1169784824509593629
0.5,0.3,8,6,5622678705286755342
0.5,0.5,0,1,8947274819672846471
0.5,0.3,9,1,2497469082109268192
0.5,0.3,6,2,3989348566851997100
0.5,0.3,5,7,2492288746906516574
0.3,0.5,5,9,4714141794632591721
0.5,0.3,1,7,1376154423689063954
0.5,0.3,3,3,7627158589680288533
0.5,0.3,5,3,110586687497364450
0.5,0.3,9,6,4869544962240482676
0.5,0.3,3,7,4397217488977438135
0.5,0.5,2,0,7507734615268272264
0.5,0.3,7,7,7282682848447747492
0.5,0.3,8,1,9135352766128009264
0.5,0.5,0,6,6469651702528831764
0.3,0.5,7,3,6341069743091612667
0.5,0.3,4,3,8863503559429993998
0.3,0.5,6,3,6224726713559196052
0.5,0.3,0,8,1092733811849618738
0.5,0.5,0,2,4649732789321702349
0.5,0.5,1,1,1839301839444961331
0.3,0.5,9,3,4870724793348465643
0.5,0.3,0,2,563660324910890193
0.5,0.3,4,8,5145791377247599035
0.5,0.5,2,5,825612800761985396
0.5,0.3,1,3,2205047437059077249
0.5,0.3,2,4,3577312976103214466
0.5,0.3,7,2,8191741519067238583
0.5,0.5,1,6,7940297695149866830
0.5,0.3,2,8,3651383603422942284
0.3,0.5,8,3,7043476599466655577
0.3,0.5,6,9,8047676510298098833
0.3,0.5,8,8,7754418201470158637
0.5,0.3,6,7,7326264895137008900
0.5,0.3,8,7,3049161892559991872
0.5,0.3,9,7,5173112581010055022
0.5,0.3,3,4,8976994020833353257
0.5,0.3,6,3,1769819217928639854
0.5,0.3,8,2,1389302591710765054
0.3,0.5,9,8,7054622576465071981
0.3,0.5,7,4,8006707050841982667
0.5,0.3,9,2,881944743770015188
0.5,0.5,0,3,1199764138128576776
0.5,0.3,1,8,5641103651708990527
0.3,0.5,6,4,3320037752772635328
0.5,0.5,1,2,963182886481010852
0.3,0.5,9,4,1915096262096000681
0.5,0.3,5,4,6782253351450202656
0.5,0.3,3,8,8655028381900160881
0.5,0.3,4,4,6474595462851183090
0.3,0.5,7,9,2252164658612471275
0.5,0.3,0,9,7621241155287324692
0.5,0.5,1,7,2827035942510364559
0.5,0.5,2,6,1785664540759993996
0.5,0.5,3,0,8773302035211536750
0.5,0.3,7,8,3830901353794655459
0.5,0.3,4,9,2479444282660588595
0.5,0.3,5,8,7419523829060842374
0.5,0.3,2,9,5803873173353619098
0.5,0.5,2,1,7660241240223720541
0.5,0.3,0,3,7828853669796963327
0.5,0.3,6,8,5250444492070977863
0.5,0.3,7,3,6070226364880717239
0.3,0.5,8,4,186924400420366988
0.5,0.3,8,8,5542963681571670068
0.5,0.3,1,4,4910809042167297407
0.5,0.5,4,0,4285235632635270325
0.5,0.3,8,3,9068581081960365376
0.3,0.5,9,9,1994485492498605186
0.5,0.3,9,3,5397840732377173666
0.5,0.5,4,5,8783446978000668705
0.5,0.5,1,3,4827537065344290791
0.5,0.5,0,7,1723687689503946215
0.5,0.5,5,0,3376679768202106978
0.5,0.5,5,5,8401530484651372205
0.5,0.5,3,5,5921719238311099616
0.5,0.5,6,0,4417826098976281332
0.5,0.5,0,4,8257039230769001760
0.5,0.3,1,9,712499613176729515
0.5,0.3,7,9,6013888885425366109
0.5,0.5,8,0,7471480401930136686
0.5,0.5,8,5,5514031790586713068
0.5,0.5,1,8,7267033560919069579
0.5,0.5,6,5,1041966811678567589
0.5,0.5,7,0,6794970980806331974
0.5,0.5,2,2,9067045873587360091
0.5,0.5,2,7,4096165897584873368
0.5,0.3,6,4,518389534317158632
0.5,0.3,7,4,748025567897994518
0.5,0.5,7,5,607103367842415879
0.5,0.3,0,4,3565222396493995432
0.3,0.5,8,9,4781789816926813940
0.5,0.5,9,0,580774643603064223
0.5,0.5,9,5,8495311901113479713
0.5,0.5,4,6,1938514125851281962
0.5,0.3,9,8,4637591448256322135
0.5,0.3,8,4,8778056128605894863
0.5,0.3,8,9,8817003965746969566
0.5,0.5,5,6,8275352759599041652
0.5,0.3,3,9,653676755049483986
0.5,0.5,0,8,7939665983970169136
0.5,0.5,4,1,1580430539846147364
0.5,0.5,3,1,3113818032310608471
0.5,0.3,6,9,609424819574461208
0.5,0.5,6,1,2800882585084779725
0.5,0.5,1,4,6354212919235756714
0.5,0.5,3,6,1822204146400407756
0.5,0.3,9,4,5584950813983633538
0.5,0.5,8,1,2299188444557059983
0.5,0.5,8,6,4054672878965444305
0.5,0.5,2,8,8326824476296199869
0.5,0.5,5,1,2282853098008044863
0.5,0.5,6,6,308190626168142480
0.5,0.5,2,3,2788960213336696122
0.5,0.5,7,6,4712838122852805144
0.5,0.5,4,7,505453262060466602
0.5,0.5,9,1,6854968124260023844
0.5,0.5,1,9,6742020633635483372
0.5,0.3,5,9,8687843232387650615
0.5,0.5,7,1,7033171208063686582
0.5,0.5,4,2,6461880482441037185
0.5,0.5,5,7,1653886617056820351
0.5,0.5,3,2,2166874519669612546
0.5,0.5,0,9,1511821795074767784
0.5,0.5,9,6,1846452791500650747
0.5,0.3,9,9,5302671943754715933
0.5,0.5,8,2,2447778712823513098
0.5,0.5,5,2,3635170882228069185
0.5,0.5,6,7,5820316733393196192
0.5,0.5,8,7,601170454279640395
0.5,0.5,3,7,3703174396270856217
0.5,0.5,2,9,6187224151397595699
0.5,0.5,2,4,7740205145763379791
0.5,0.5,6,2,2463672271988826095
0.5,0.5,4,8,373979698502784113
0.5,0.5,7,7,3035939753560284598
0.5,0.5,4,3,7109208292395088875
0.5,0.5,9,2,7912644359321044346
0.5,0.5,8,3,2208076846250832621
0.5,0.5,5,8,7017337488140764765
0.5,0.5,9,7,8492704050540055683
0.5,0.5,3,3,407893595871034061
0.5,0.5,7,2,1366041698010820530
0.5,0.5,8,8,8118241083629112126
0.5,0.5,5,3,5598112054647650524
0.5,0.5,6,8,7643390776510171484
0.5,0.5,6,3,1717929964322630364
0.5,0.5,3,8,8346776477221506280
0.5,0.5,9,3,8013699294759212564
0.5,0.5,7,8,8921587072313613651
0.5,0.5,8,4,8054930523520455904
0.5,0.5,4,9,5425080950958753303
0.5,0.5,4,4,1176106143653475889
0.5,0.5,9,8,5671066051944595038
0.5,0.5,5,9,4854007529811060153
0.5,0.5,6,9,5710039477643060318
0.5,0.5,7,3,2136101001488255357
0.5,0.5,5,4,2387540503524510313
0.5,0.5,8,9,7577096057964803068
0.5,0.5,6,4,890217391353285455
0.5,0.5,3,4,787867456350074957
0.5,0.5,9,4,3441116280061912424
0.5,0.5,7,9,2635710775687637492
0.5,0.5,3,9,1154601996158621489
0.5,0.5,9,9,2023208680932634035
0.5,0.5,7,4,3157047974523660559
