,key,c,m,N,distribution,mean,std,min,max
0,entropy,0.1,0.3,10,Constant,1.3963460652146436,0.22454838914743563,0.8018185525433372,1.9730014063936128
1,entropy,0.1,0.3,10,Uniform-80-43,1.3953535285918712,0.21393192957840768,0.8018185525433372,1.9730014063936128
2,entropy,0.1,0.3,10,Exp-80-43,1.3980232729227935,0.21568136606425456,0.8018185525433372,1.9730014063936128
3,entropy,0.1,0.3,10,Pareto-80-43,1.3982311755486612,0.21700028750187894,0.8018185525433372,1.9730014063936128
4,entropy,0.1,0.3,20,Constant,1.5078082270550874,0.14869979385490584,0.9672604429127742,1.8648907041886047
5,entropy,0.1,0.3,20,Uniform-80-43,1.5173693973726399,0.16712516276121428,0.9672604429127742,1.9137544451129629
6,entropy,0.1,0.3,20,Exp-80-43,1.5156417092676895,0.1661309833934022,0.9502705392332348,1.9137544451129629
7,entropy,0.1,0.3,20,Pareto-80-43,1.5188672893692683,0.1639448292904351,0.9502705392332348,1.9137544451129629
8,entropy,0.1,0.3,30,Constant,1.5303879166235692,0.11722691940457476,1.1855930776799193,1.7834839946421497
9,entropy,0.1,0.3,30,Uniform-80-43,1.5309506785072775,0.12369361187386864,1.0568575845740762,1.833564825716553
10,entropy,0.1,0.3,30,Exp-80-43,1.5341913558957023,0.12467852995764916,1.0568575845740762,1.8651738517748877
11,entropy,0.1,0.3,30,Pareto-80-43,1.5381854862823412,0.12725710214409677,1.0568575845740762,1.8651738517748877
12,entropy,0.1,0.3,45,Constant,1.529187615970446,0.1328439089481681,1.0926686783816797,1.8157696407369155
13,entropy,0.1,0.3,45,Uniform-80-43,1.5343913481338802,0.12739392373695743,1.0926686783816797,1.8157696407369155
14,entropy,0.1,0.3,45,Exp-80-43,1.543224559942461,0.11937672350124157,1.0926686783816797,1.8157696407369155
15,entropy,0.1,0.3,45,Pareto-80-43,1.5465035424132325,0.11552529261338972,1.0926686783816797,1.8157696407369155
16,entropy,0.1,0.3,65,Constant,1.5070043829470727,0.12544516130288574,1.2078938810874975,1.7737506996506829
17,entropy,0.1,0.3,65,Uniform-80-43,1.5163919987960628,0.11683472767175314,1.2078938810874975,1.7737506996506829
18,entropy,0.1,0.3,65,Exp-80-43,1.5201267950230306,0.11388055140764068,1.2078938810874975,1.7737506996506829
19,entropy,0.1,0.3,65,Pareto-80-43,1.5272004735175302,0.1120262727961188,1.2078938810874975,1.8778804247647904
20,entropy,0.1,0.3,100,Constant,1.4905373828437436,0.11749560725406162,1.2091161551071914,1.7248455327811791
21,entropy,0.1,0.3,100,Uniform-80-43,1.5012218398432304,0.10657768259975782,1.135662715000236,1.7345630634781593
22,entropy,0.1,0.3,100,Exp-80-43,1.5142858762659372,0.10670820562494956,1.135662715000236,1.8190429882113324
23,entropy,0.1,0.3,100,Pareto-80-43,1.523894344785277,0.10294430932457896,1.135662715000236,1.8190429882113324
24,entropy,0.1,0.3,150,Constant,1.4904915754371932,0.1160514448522307,1.0676103840028226,1.7636415116827364
25,entropy,0.1,0.3,150,Uniform-80-43,1.5016763594687494,0.10604883964686625,1.0676103840028226,1.7636415116827364
26,entropy,0.1,0.3,150,Exp-80-43,1.5128131920809218,0.10086980265121966,1.0676103840028226,1.8033493712598736
27,entropy,0.1,0.3,150,Pareto-80-43,1.522946950272079,0.09788426787685638,1.0676103840028226,1.8033493712598736
28,entropy,0.1,0.3,200,Constant,1.4711398998211425,0.1158282377206502,1.0957815752757505,1.7013306983944303
29,entropy,0.1,0.3,200,Uniform-80-43,1.4903454962277924,0.10789596467890795,1.0957815752757505,1.7132519891651197
30,entropy,0.1,0.3,200,Exp-80-43,1.4994119196363138,0.1065539760477245,1.0957815752757505,1.7748930246574983
31,entropy,0.1,0.3,200,Pareto-80-43,1.5150685902083023,0.10516653768677495,1.0957815752757505,1.7748930246574983
32,entropy,0.1,0.3,300,Constant,1.459710479281858,0.0942703888709189,1.1938671729658938,1.6369487716787368
33,entropy,0.1,0.3,300,Uniform-80-43,1.4758428830689718,0.09156631981556612,1.1938671729658938,1.678238070775449
34,entropy,0.1,0.3,300,Exp-80-43,1.4908771077958916,0.09107763396678421,1.1938671729658938,1.76793390251272
35,entropy,0.1,0.3,300,Pareto-80-43,1.5062554078563317,0.09103832779569482,1.1938671729658938,1.76793390251272
36,entropy,0.1,0.3,400,Constant,1.4768720735439265,0.09826613680944088,1.257827337201307,1.6496357974014926
37,entropy,0.1,0.3,400,Uniform-80-43,1.489063766756395,0.09237377409156175,1.257827337201307,1.6496357974014926
38,entropy,0.1,0.3,400,Exp-80-43,1.4996624205811417,0.0895471273568603,1.2337973991539162,1.661031897192099
39,entropy,0.1,0.3,400,Pareto-80-43,1.5150598942606004,0.08649107767262425,1.2337973991539162,1.6835533848046866
40,entropy,0.1,0.3,500,Constant,1.4582084401007172,0.10620354610183208,1.110160552191643,1.669372769572219
41,entropy,0.1,0.3,500,Uniform-80-43,1.4755457280130573,0.10088327851839432,1.110160552191643,1.669372769572219
42,entropy,0.1,0.3,500,Exp-80-43,1.488827113609808,0.09582936265721849,1.110160552191643,1.750072067000475
43,entropy,0.1,0.3,500,Pareto-80-43,1.504810191847094,0.0938601203517304,1.110160552191643,1.750072067000475
44,entropy,0.1,0.3,600,Constant,1.4830895786903764,0.09325244024029351,1.1199703942189203,1.6318190969408972
45,entropy,0.1,0.3,600,Uniform-80-43,1.4813768913175844,0.09128047067300307,1.1199703942189203,1.6334943237827364
46,entropy,0.1,0.3,600,Exp-80-43,1.4898943212613,0.08591655511036263,1.1199703942189203,1.6461185421215712
47,entropy,0.1,0.3,600,Pareto-80-43,1.504452278190853,0.08544593379674491,1.1199703942189203,1.6556876643097536
48,entropy,0.1,0.3,700,Constant,1.462916802540142,0.1091789974954043,1.0924655897516231,1.6162449397179866
49,entropy,0.1,0.3,700,Uniform-80-43,1.4766859079059176,0.0984107665074197,1.0924655897516231,1.6306909979580957
50,entropy,0.1,0.3,700,Exp-80-43,1.4847893793347147,0.09345858048047556,1.0924655897516231,1.635399634518349
51,entropy,0.1,0.3,700,Pareto-80-43,1.5010878277292852,0.09095140058574891,1.0924655897516231,1.6806649122555768
52,entropy,0.1,0.3,800,Constant,1.4626527141280152,0.10187718563309678,1.1591032102036032,1.619593375159418
53,entropy,0.1,0.3,800,Uniform-80-43,1.472577833937051,0.09296057198257893,1.1591032102036032,1.619593375159418
54,entropy,0.1,0.3,800,Exp-80-43,1.4839621198373938,0.08747258554799164,1.1591032102036032,1.656185002677658
55,entropy,0.1,0.3,800,Pareto-80-43,1.501242585767288,0.08648864239317022,1.1591032102036032,1.686438297559232
56,entropy,0.1,0.3,900,Constant,1.4533828274241327,0.09912129212592329,1.1352143953675742,1.625935725337402
57,entropy,0.1,0.3,900,Uniform-80-43,1.4768567071096887,0.09223703921338802,1.1352143953675742,1.647393070208685
58,entropy,0.1,0.3,900,Exp-80-43,1.4881555615931368,0.08532705402344767,1.1352143953675742,1.647393070208685
59,entropy,0.1,0.3,900,Pareto-80-43,1.5041989904809645,0.08463167070596732,1.1352143953675742,1.7483654873274723
60,entropy,0.1,0.3,1000,Constant,1.488315982490368,0.09637812275460104,1.1801973787520792,1.6200527848100088
61,entropy,0.1,0.3,1000,Uniform-80-43,1.483798294234872,0.0920795757355315,1.1801973787520792,1.6218042422901455
62,entropy,0.1,0.3,1000,Exp-80-43,1.4925413133595486,0.08651263815878679,1.1801973787520792,1.6300028868965422
63,entropy,0.1,0.3,1000,Pareto-80-43,1.50746411527539,0.08429030587029726,1.1801973787520792,1.6639775430491586
64,entropy,0.3,0.3,10,Constant,0.5656074501433895,0.21068516896813122,-0.0,1.0888999753452238
65,entropy,0.3,0.3,10,Uniform-80-43,0.5639687326542091,0.218439308377855,-0.0,1.0888999753452238
66,entropy,0.3,0.3,10,Exp-80-43,0.5636373307201998,0.21940687873770867,-0.0,1.0888999753452238
67,entropy,0.3,0.3,10,Pareto-80-43,0.5692957080307767,0.2178352809346535,-0.0,1.0888999753452238
68,entropy,0.3,0.3,20,Constant,0.5001822380339082,0.24827729836890308,-0.0,0.9745701894462542
69,entropy,0.3,0.3,20,Uniform-80-43,0.5178222036500221,0.22886071681121092,-0.0,0.9745701894462542
70,entropy,0.3,0.3,20,Exp-80-43,0.5304497689490715,0.22258205197309133,-0.0,1.067093894875751
71,entropy,0.3,0.3,20,Pareto-80-43,0.5361167834823144,0.21659130492393439,-0.0,1.067093894875751
72,entropy,0.3,0.3,30,Constant,0.47404446358713004,0.24505283991073218,-0.0,0.8918673953172509
73,entropy,0.3,0.3,30,Uniform-80-43,0.4806127117717288,0.23469542710267066,-0.0,0.8918673953172509
74,entropy,0.3,0.3,30,Exp-80-43,0.4963985579431915,0.22017576043978826,-0.0,0.8918673953172509
75,entropy,0.3,0.3,30,Pareto-80-43,0.5052652673001191,0.21750809528028497,-0.0,0.8918673953172509
76,entropy,0.3,0.3,45,Constant,0.4417914062020549,0.26260472714917393,-0.0,0.7474814710871596
77,entropy,0.3,0.3,45,Uniform-80-43,0.4637730678686245,0.24934158230224113,-0.0,0.7802638808940862
78,entropy,0.3,0.3,45,Exp-80-43,0.4852147983449479,0.23606740660676848,-0.0,0.7802638808940862
79,entropy,0.3,0.3,45,Pareto-80-43,0.49711636347314875,0.22774707441415737,-0.0,0.7998008528245697
80,entropy,0.3,0.3,65,Constant,0.43523635654856074,0.28220116273404156,-0.0,0.6964910875978483
81,entropy,0.3,0.3,65,Uniform-80-43,0.45814021069599065,0.26417955349813305,-0.0,0.730872345389358
82,entropy,0.3,0.3,65,Exp-80-43,0.46276969394651163,0.2556996384795974,-0.0,0.730872345389358
83,entropy,0.3,0.3,65,Pareto-80-43,0.4743132226429749,0.24398178050385616,-0.0,0.730872345389358
84,entropy,0.3,0.3,100,Constant,0.36503948989116336,0.2878092344610552,-0.0,0.6929471672244782
85,entropy,0.3,0.3,100,Uniform-80-43,0.3784929961336569,0.27772399676669723,-0.0,0.6931471805599453
86,entropy,0.3,0.3,100,Exp-80-43,0.39794782987096133,0.26752000318732044,-0.0,0.7049284905172262
87,entropy,0.3,0.3,100,Pareto-80-43,0.4373641170607442,0.25523503397412695,-0.0,0.8366039520330351
88,entropy,0.3,0.3,150,Constant,0.2690561430071001,0.290282454878456,-0.0,0.6927915828524811
89,entropy,0.3,0.3,150,Uniform-80-43,0.27590084372969187,0.27085937669750704,-0.0,0.6930582890371242
90,entropy,0.3,0.3,150,Exp-80-43,0.3101734933606563,0.2592327484382011,-0.0,0.6931471805599453
91,entropy,0.3,0.3,150,Pareto-80-43,0.3653304331636658,0.26024317356522847,-0.0,0.8548761629091571
92,entropy,0.3,0.3,200,Constant,0.21396247337616,0.2783790200159234,-0.0,0.6931471805599453
93,entropy,0.3,0.3,200,Uniform-80-43,0.2511376411685219,0.26711213879155155,-0.0,0.6931471805599453
94,entropy,0.3,0.3,200,Exp-80-43,0.26709653850682835,0.253791097138792,-0.0,0.712834473612284
95,entropy,0.3,0.3,200,Pareto-80-43,0.3244986699001394,0.26121028460752155,-0.0,0.7754451545758172
96,entropy,0.3,0.3,300,Constant,0.09998342955419381,0.18911199163886427,-0.0,0.6931249581731111
97,entropy,0.3,0.3,300,Uniform-80-43,0.12865529227682088,0.16872642744004943,-0.0,0.6931249581731111
98,entropy,0.3,0.3,300,Exp-80-43,0.171380760290578,0.17996364922396954,-0.0,0.6931249581731111
99,entropy,0.3,0.3,300,Pareto-80-43,0.22327804502768903,0.19779921184999594,-0.0,0.6931249581731111
100,entropy,0.3,0.3,400,Constant,0.10773573741004151,0.1997191567636935,-0.0,0.6930971797265786
101,entropy,0.3,0.3,400,Uniform-80-43,0.13187116251069575,0.17895895587923893,-0.0,0.6930971797265786
102,entropy,0.3,0.3,400,Exp-80-43,0.17232714042921546,0.1778447342974871,-0.0,0.6930971797265786
103,entropy,0.3,0.3,400,Pareto-80-43,0.24722633324368848,0.21421962731434396,-0.0,0.6930971797265786
104,entropy,0.3,0.3,500,Constant,0.08747723350422903,0.19094928350939278,-0.0,0.691994737783755
105,entropy,0.3,0.3,500,Uniform-80-43,0.1308508833362895,0.19441673849270907,-0.0,0.6930751788318458
106,entropy,0.3,0.3,500,Exp-80-43,0.16804333049537254,0.19410296564908208,-0.0,0.6930751788318458
107,entropy,0.3,0.3,500,Pareto-80-43,0.2329237893939787,0.21781651806068397,-0.0,0.6930751788318458
108,entropy,0.3,0.3,600,Constant,0.03890537090828297,0.09674329818738057,-0.0,0.6846732173608203
109,entropy,0.3,0.3,600,Uniform-80-43,0.0874662947833834,0.1294118419532239,-0.0,0.6931416249941016
110,entropy,0.3,0.3,600,Exp-80-43,0.11953389318740153,0.12836259780731665,-0.0,0.6931416249941016
111,entropy,0.3,0.3,600,Pareto-80-43,0.2032799140170468,0.1970531063219807,-0.0,0.6931416249941016
112,entropy,0.3,0.3,700,Constant,0.049535686895801456,0.1151489007215925,-0.0,0.6930002345865878
113,entropy,0.3,0.3,700,Uniform-80-43,0.08443221982864561,0.11184107150327287,-0.0,0.6930002345865878
114,entropy,0.3,0.3,700,Exp-80-43,0.12172257513620281,0.1208033728716517,-0.0,0.6930002345865878
115,entropy,0.3,0.3,700,Pareto-80-43,0.1941211745733619,0.1747777609970794,-0.0,0.6930002345865878
116,entropy,0.3,0.3,800,Constant,0.042999015485484765,0.1154424937086424,-0.0,0.6929940477432325
117,entropy,0.3,0.3,800,Uniform-80-43,0.09306078459297717,0.14599742833666152,-0.0,0.6930971797265786
118,entropy,0.3,0.3,800,Exp-80-43,0.12476724967673486,0.14173504016066624,-0.0,0.6931346805078614
119,entropy,0.3,0.3,800,Pareto-80-43,0.19686637479196498,0.19317942980592284,-0.0,0.7551125146100914
120,entropy,0.3,0.3,900,Constant,0.02604671619085487,0.024744623230537034,-0.0,0.11693627379571
121,entropy,0.3,0.3,900,Uniform-80-43,0.07500447969383986,0.08392198470763086,-0.0,0.6902901376359383
122,entropy,0.3,0.3,900,Exp-80-43,0.11568408493669378,0.09782010851754719,-0.0,0.6902901376359383
123,entropy,0.3,0.3,900,Pareto-80-43,0.1979717041702845,0.17782215003075041,-0.0,0.6902901376359383
124,entropy,0.3,0.3,1000,Constant,0.03225259327880187,0.0697857994760788,-0.0,0.6830310220484359
125,entropy,0.3,0.3,1000,Uniform-80-43,0.07664920973688095,0.08203138398381937,-0.0,0.6856866086439042
126,entropy,0.3,0.3,1000,Exp-80-43,0.11701260596811343,0.09722720355369878,-0.0,0.6856866086439042
127,entropy,0.3,0.3,1000,Pareto-80-43,0.19315882823664698,0.1619758317764901,-0.0,0.6856866086439042
128,entropy,0.5,0.3,10,Constant,0.08583529398170807,0.18118916350260852,-0.0,0.6730116670092565
129,entropy,0.5,0.3,10,Uniform-80-43,0.08519200084510484,0.1885878711673295,-0.0,0.6931471805599453
130,entropy,0.5,0.3,10,Exp-80-43,0.08542744076450148,0.1881894299328517,-0.0,0.6931471805599453
131,entropy,0.5,0.3,10,Pareto-80-43,0.09584361946966784,0.19657433567132115,-0.0,0.6931471805599453
132,entropy,0.5,0.3,20,Constant,0.01317659190120811,0.053688043115093134,-0.0,0.3250829733914482
133,entropy,0.5,0.3,20,Uniform-80-43,0.012543753250980233,0.05051001745074861,-0.0,0.3250829733914482
134,entropy,0.5,0.3,20,Exp-80-43,0.01540156937900116,0.05572151893908052,-0.0,0.3250829733914482
135,entropy,0.5,0.3,20,Pareto-80-43,0.02202675138822535,0.06944383473621754,-0.0,0.5623351446188083
136,entropy,0.5,0.3,30,Constant,0.008311087052532435,0.0462055880973404,-0.0,0.3926744672275521
137,entropy,0.5,0.3,30,Uniform-80-43,0.012120674637496366,0.0503287489873924,-0.0,0.3926744672275521
138,entropy,0.5,0.3,30,Exp-80-43,0.011819778101150973,0.047677640199366565,-0.0,0.3926744672275521
139,entropy,0.5,0.3,30,Pareto-80-43,0.013578122861521123,0.05020594858209152,-0.0,0.3926744672275521
140,entropy,0.5,0.3,45,Constant,0.003196978764840597,0.018270372169093524,-0.0,0.1065659588280199
141,entropy,0.5,0.3,45,Uniform-80-43,0.0042626383531207965,0.020934980884420896,-0.0,0.1065659588280199
142,entropy,0.5,0.3,45,Exp-80-43,0.0075033422065018205,0.032282758786546975,-0.0,0.2449300267946353
143,entropy,0.5,0.3,45,Pareto-80-43,0.00794696164012901,0.03228134006446587,-0.0,0.2449300267946353
144,entropy,0.5,0.3,65,Constant,0.00079487003203037,0.0079487003203037,-0.0,0.079487003203037
145,entropy,0.5,0.3,65,Uniform-80-43,0.0023846100960911104,0.013593493308833282,-0.0,0.079487003203037
146,entropy,0.5,0.3,65,Exp-80-43,0.00317948012812148,0.015602233350644337,-0.0,0.079487003203037
147,entropy,0.5,0.3,65,Pareto-80-43,0.002782045112106295,0.014626396768763154,-0.0,0.079487003203037
148,entropy,0.5,0.3,100,Constant,0.0022400613741938922,0.011029299777389567,-0.0,0.0560015343548473
149,entropy,0.5,0.3,100,Uniform-80-43,0.003080084389516602,0.012799282796678326,-0.0,0.0560015343548473
150,entropy,0.5,0.3,100,Exp-80-43,0.003920107404839311,0.014312498482703216,-0.0,0.0560015343548473
151,entropy,0.5,0.3,100,Pareto-80-43,0.004690310643012207,0.016184159881513425,-0.0,0.098039113279732
152,entropy,0.5,0.3,150,Constant,0.000708105549081962,0.007081055490819619,-0.0,0.0708105549081962
153,entropy,0.5,0.3,150,Uniform-80-43,0.000908348700034127,0.007591036330218477,-0.0,0.0708105549081962
154,entropy,0.5,0.3,150,Exp-80-43,0.001108591850986292,0.008072702595617223,-0.0,0.0708105549081962
155,entropy,0.5,0.3,150,Pareto-80-43,0.0024708881522022114,0.01230399583418191,-0.0,0.1229569993369445
156,entropy,0.5,0.3,200,Constant,0.000314790659471667,0.00314790659471667,-0.0,0.0314790659471667
157,entropy,0.5,0.3,200,Uniform-80-43,0.0007869766486791676,0.0049270005326087695,-0.0,0.0314790659471667
158,entropy,0.5,0.3,200,Exp-80-43,0.00104930219823889,0.0056601066554861235,-0.0,0.0314790659471667
159,entropy,0.5,0.3,200,Pareto-80-43,0.001180464973018751,0.005987994436778535,-0.0,0.0314790659471667
160,entropy,0.5,0.3,300,Constant,0.0,0.0,-0.0,-0.0
161,entropy,0.5,0.3,300,Uniform-80-43,0.0005585094960870874,0.003496643247682908,-0.0,0.0223403798434835
162,entropy,0.5,0.3,300,Exp-80-43,0.0008191472609277283,0.0042057126369265665,-0.0,0.0223403798434835
163,entropy,0.5,0.3,300,Pareto-80-43,0.00110543866843284,0.005030922228242624,-0.0,0.040048630190433
164,entropy,0.5,0.3,400,Constant,0.0,0.0,-0.0,-0.0
165,entropy,0.5,0.3,400,Uniform-80-43,0.00017475533760343099,0.0017431570083751096,-0.0,0.0174755337603431
166,entropy,0.5,0.3,400,Exp-80-43,0.00039618911582960727,0.002874645971687943,-0.0,0.0314790659471667
167,entropy,0.5,0.3,400,Pareto-80-43,0.0005856036698106122,0.0036373088860735306,-0.0,0.0314790659471667
168,entropy,0.5,0.3,500,Constant,0.0,0.0,-0.0,-0.0
169,entropy,0.5,0.3,500,Uniform-80-43,0.000288544297243522,0.0020248786208714965,-0.0,0.0144272148621761
170,entropy,0.5,0.3,500,Exp-80-43,0.0005069855254918096,0.003132159823848082,-0.0,0.0366779387501341
171,entropy,0.5,0.3,500,Pareto-80-43,0.0005897058751991123,0.0033147190918619038,-0.0,0.0366779387501341
172,entropy,0.5,0.3,600,Constant,0.0,0.0,-0.0,-0.0
173,entropy,0.5,0.3,600,Uniform-80-43,6.1634132154447e-05,0.0008716382559791463,-0.0,0.0123268264308894
174,entropy,0.5,0.3,600,Exp-80-43,0.000123268264308894,0.0012285530413886732,-0.0,0.0123268264308894
175,entropy,0.5,0.3,600,Pareto-80-43,0.00032163817921224374,0.0023564822964657027,-0.0,0.0223403798434835
176,entropy,0.5,0.3,700,Constant,0.0,0.0,-0.0,-0.0
177,entropy,0.5,0.3,700,Uniform-80-43,5.39311836353565e-05,0.0007627021133195509,-0.0,0.0107862367270713
178,entropy,0.5,0.3,700,Exp-80-43,0.000143816489694284,0.0012392233193314623,-0.0,0.0107862367270713
179,entropy,0.5,0.3,700,Pareto-80-43,0.00026965591817678254,0.001686109625224133,-0.0,0.0107862367270713
180,entropy,0.5,0.3,800,Constant,0.0,0.0,-0.0,-0.0
181,entropy,0.5,0.3,800,Uniform-80-43,4.8024915419302e-05,0.0006791748671779766,-0.0,0.0096049830838604
182,entropy,0.5,0.3,800,Exp-80-43,0.00019209966167720803,0.0013469444129759831,-0.0,0.0096049830838604
183,entropy,0.5,0.3,800,Pareto-80-43,0.000288149492515812,0.001640539330353376,-0.0,0.0096049830838604
184,entropy,0.5,0.3,900,Constant,0.0,0.0,-0.0,-0.0
185,entropy,0.5,0.3,900,Uniform-80-43,0.00012232283498487498,0.0012713761311628953,-0.0,0.0157958569948717
186,entropy,0.5,0.3,900,Exp-80-43,0.00013933995667060533,0.0012525879703906525,-0.0,0.0157958569948717
187,entropy,0.5,0.3,900,Pareto-80-43,0.00021286384252924525,0.0014445099218582615,-0.0,0.0157958569948717
188,entropy,0.5,0.3,1000,Constant,0.0,0.0,-0.0,-0.0
189,entropy,0.5,0.3,1000,Uniform-80-43,0.0,0.0,-0.0,-0.0
190,entropy,0.5,0.3,1000,Exp-80-43,2.6357517040773333e-05,0.0004565255867598193,-0.0,0.007907255112232
191,entropy,0.5,0.3,1000,Pareto-80-43,0.00017791324002522,0.0011741374504837497,-0.0,0.007907255112232
192,entropy,0.1,0.5,10,Constant,1.417507380771789,0.2123895276920724,0.8018185525433372,1.8343719702816237
193,entropy,0.1,0.5,10,Uniform-80-43,1.4230300546502241,0.21228898412914043,0.8018185525433372,1.9730014063936128
194,entropy,0.1,0.5,10,Exp-80-43,1.4179067323021768,0.21411634885555295,0.8018185525433372,1.9730014063936128
195,entropy,0.1,0.5,10,Pareto-80-43,1.4171959220145667,0.21176597302119002,0.8018185525433372,1.9730014063936128
196,entropy,0.1,0.5,20,Constant,1.541869862254555,0.176950574620976,0.9672604429127742,1.825199466772936
197,entropy,0.1,0.5,20,Uniform-80-43,1.5533914491086125,0.16637255346337637,0.9672604429127742,1.8740632076972927
198,entropy,0.1,0.5,20,Exp-80-43,1.5450443604744957,0.1643128620115028,0.9672604429127742,1.8740632076972927
199,entropy,0.1,0.5,20,Pareto-80-43,1.5455398088282397,0.1595862159864866,0.9672604429127742,1.8740632076972927
200,entropy,0.1,0.5,30,Constant,1.5513989589912756,0.13663704861352483,1.185593077679919,1.869788616377684
201,entropy,0.1,0.5,30,Uniform-80-43,1.5570556900498493,0.13425825350658813,1.185593077679919,1.869788616377684
202,entropy,0.1,0.5,30,Exp-80-43,1.5579947986593943,0.13133163115893945,1.185593077679919,1.9056386271865584
203,entropy,0.1,0.5,30,Pareto-80-43,1.5594844188258157,0.13264780878488527,1.152551392174705,1.9056386271865584
204,entropy,0.1,0.5,45,Constant,1.5458900840751102,0.12738604761780806,1.1750050638459746,1.891439892807747
205,entropy,0.1,0.5,45,Uniform-80-43,1.547318587288716,0.13528465719769042,1.0926686783816797,1.891439892807747
206,entropy,0.1,0.5,45,Exp-80-43,1.5555861511695153,0.12694416794350027,1.0926686783816797,1.891439892807747
207,entropy,0.1,0.5,45,Pareto-80-43,1.5563499500729718,0.12691219158073147,1.0926686783816797,1.891439892807747
208,entropy,0.1,0.5,65,Constant,1.5351406483370473,0.10768125429498855,1.2702539042359466,1.7364776991221085
209,entropy,0.1,0.5,65,Uniform-80-43,1.5400466657439187,0.1126368713949974,1.187969759413209,1.7991036054882128
210,entropy,0.1,0.5,65,Exp-80-43,1.5469495877695834,0.10938158225199507,1.187969759413209,1.7991036054882128
211,entropy,0.1,0.5,65,Pareto-80-43,1.5495412141350027,0.11172554579209171,1.1592723538195628,1.8352066345388909
212,entropy,0.1,0.5,100,Constant,1.5047777249968564,0.10801662534321774,1.263661858268411,1.721770965915297
213,entropy,0.1,0.5,100,Uniform-80-43,1.5171545862163844,0.10295974932345373,1.263661858268411,1.745756438831957
214,entropy,0.1,0.5,100,Exp-80-43,1.523175312909091,0.10130136269700203,1.1493802133741708,1.7761372329513108
215,entropy,0.1,0.5,100,Pareto-80-43,1.5338506969257872,0.09995438663150397,1.1493802133741708,1.7936030656947886
216,entropy,0.1,0.5,150,Constant,1.5060882619311489,0.1284568630255859,1.0509334378853128,1.7476879525173237
217,entropy,0.1,0.5,150,Uniform-80-43,1.5127385463071576,0.11191103568362255,1.0509334378853128,1.7476879525173237
218,entropy,0.1,0.5,150,Exp-80-43,1.5230848967980102,0.1065250144738408,1.0509334378853128,1.802982735976291
219,entropy,0.1,0.5,150,Pareto-80-43,1.5301500201861409,0.1034801556137549,1.0509334378853128,1.802982735976291
220,entropy,0.1,0.5,200,Constant,1.4927858283887496,0.10539901588173009,1.2685358616187594,1.7234255899407636
221,entropy,0.1,0.5,200,Uniform-80-43,1.4970480639122385,0.10533401676358015,1.182361872994766,1.7234255899407636
222,entropy,0.1,0.5,200,Exp-80-43,1.508464927306935,0.10048595591504937,1.182361872994766,1.751470535023428
223,entropy,0.1,0.5,200,Pareto-80-43,1.5232666235476204,0.09900689359539952,1.182361872994766,1.751470535023428
224,entropy,0.1,0.5,300,Constant,1.4699534441269422,0.10176280460660739,1.166680829149922,1.7650256706666727
225,entropy,0.1,0.5,300,Uniform-80-43,1.4880963528865505,0.09638362148776444,1.166680829149922,1.7650256706666727
226,entropy,0.1,0.5,300,Exp-80-43,1.4979871435028813,0.09193355616223647,1.166680829149922,1.7650256706666727
227,entropy,0.1,0.5,300,Pareto-80-43,1.50688967103705,0.0905235433965649,1.166680829149922,1.7650256706666727
228,entropy,0.1,0.5,400,Constant,1.470753102447898,0.0927812775739456,1.320298000564129,1.650616593310099
229,entropy,0.1,0.5,400,Uniform-80-43,1.486822860188439,0.08586519829921141,1.320298000564129,1.650616593310099
230,entropy,0.1,0.5,400,Exp-80-43,1.4940877158925254,0.08674516397395145,1.2631334402861465,1.7049655522616138
231,entropy,0.1,0.5,400,Pareto-80-43,1.5098940781897696,0.08748361530885587,1.2631334402861465,1.7049655522616138
232,entropy,0.1,0.5,500,Constant,1.4732114967753296,0.10167845453073707,1.2050414885235887,1.643975484626147
233,entropy,0.1,0.5,500,Uniform-80-43,1.4771003330203911,0.09970501400406906,1.1651742188348249,1.643975484626147
234,entropy,0.1,0.5,500,Exp-80-43,1.4834016925671438,0.09340698236179071,1.1651742188348249,1.643975484626147
235,entropy,0.1,0.5,500,Pareto-80-43,1.497209213041328,0.08985836728101376,1.1651742188348249,1.657230644874328
236,entropy,0.1,0.5,600,Constant,1.4721479017110621,0.09194272562251421,1.1797758795510744,1.6267398276997616
237,entropy,0.1,0.5,600,Uniform-80-43,1.4829285136920751,0.09289283536526086,1.1797758795510744,1.6596800479753235
238,entropy,0.1,0.5,600,Exp-80-43,1.4919165113134352,0.08957673856188272,1.1797758795510744,1.7765393339963793
239,entropy,0.1,0.5,600,Pareto-80-43,1.5083785822501137,0.09029258192959712,1.1797758795510744,1.7765393339963793
240,entropy,0.1,0.5,700,Constant,1.4941455579281953,0.09486822501293184,1.2726098519172837,1.6241127237741886
241,entropy,0.1,0.5,700,Uniform-80-43,1.4942121497071699,0.09302566563148362,1.1176315593002133,1.6241127237741886
242,entropy,0.1,0.5,700,Exp-80-43,1.4981714234538779,0.08806176814261724,1.1176315593002133,1.6431528876218848
243,entropy,0.1,0.5,700,Pareto-80-43,1.5109017587956675,0.08730674058328008,1.1176315593002133,1.67529664209192
244,entropy,0.1,0.5,800,Constant,1.4698079713641048,0.10166513583679118,1.1906534960386044,1.6438697771807078
245,entropy,0.1,0.5,800,Uniform-80-43,1.4775942821785955,0.09980981965812412,1.1837428842954687,1.6851606150954432
246,entropy,0.1,0.5,800,Exp-80-43,1.4862834315165008,0.09415016382250843,1.1837428842954687,1.6851606150954432
247,entropy,0.1,0.5,800,Pareto-80-43,1.5014161133387893,0.09096576481128006,1.1837428842954687,1.6851606150954432
248,entropy,0.1,0.5,900,Constant,1.4679981210024275,0.11157140125822075,1.107612790334643,1.6208986114345107
249,entropy,0.1,0.5,900,Uniform-80-43,1.4833144666892644,0.10021522098802453,1.107612790334643,1.6381572143712448
250,entropy,0.1,0.5,900,Exp-80-43,1.493312275747527,0.09217385221459434,1.107612790334643,1.6381572143712448
251,entropy,0.1,0.5,900,Pareto-80-43,1.5075331279701374,0.08825660079523585,1.107612790334643,1.6458587297777594
252,entropy,0.1,0.5,1000,Constant,1.4798689104177598,0.10402357837278799,1.2006251021989016,1.657345648111462
253,entropy,0.1,0.5,1000,Uniform-80-43,1.4887011489559316,0.09875982502567618,1.1272038527626542,1.657345648111462
254,entropy,0.1,0.5,1000,Exp-80-43,1.4979287957535945,0.09173058323542399,1.1272038527626542,1.657345648111462
255,entropy,0.1,0.5,1000,Pareto-80-43,1.5097871826261804,0.08709673247585756,1.1272038527626542,1.7063460502296663
256,entropy,0.3,0.5,10,Constant,0.592102589222092,0.17845371936546295,-0.0,0.9502705392332348
257,entropy,0.3,0.5,10,Uniform-80-43,0.5968647964209052,0.19439369483950497,-0.0,1.0888999753452238
258,entropy,0.3,0.5,10,Exp-80-43,0.5888474919824876,0.21614989807950055,-0.0,1.0888999753452238
259,entropy,0.3,0.5,10,Pareto-80-43,0.5911318552329509,0.21309895277323881,-0.0,1.0888999753452238
260,entropy,0.3,0.5,20,Constant,0.5364669409658598,0.2149456920834953,-0.0,0.9502705392332348
261,entropy,0.3,0.5,20,Uniform-80-43,0.540273792130864,0.22189724765552638,-0.0,1.067093894875751
262,entropy,0.3,0.5,20,Exp-80-43,0.5447040732051324,0.20910203357326065,-0.0,1.067093894875751
263,entropy,0.3,0.5,20,Pareto-80-43,0.5567710206968053,0.20575170892648278,-0.0,1.067093894875751
264,entropy,0.3,0.5,30,Constant,0.5000043250166768,0.22332737581808892,-0.0,0.8017471601150995
265,entropy,0.3,0.5,30,Uniform-80-43,0.4987184165195507,0.2261098729960886,-0.0,0.8018185525433372
266,entropy,0.3,0.5,30,Exp-80-43,0.5147918290972248,0.21381820005262703,-0.0,0.815612193957263
267,entropy,0.3,0.5,30,Pareto-80-43,0.5245176143609274,0.2067763249313362,-0.0,0.8823109245150755
268,entropy,0.3,0.5,45,Constant,0.47403393568133523,0.2508585874133758,-0.0,0.7474814710871596
269,entropy,0.3,0.5,45,Uniform-80-43,0.47651749669605464,0.2520593899203518,-0.0,0.8230751298006731
270,entropy,0.3,0.5,45,Exp-80-43,0.4881516686645192,0.240381302363588,-0.0,0.8230751298006732
271,entropy,0.3,0.5,45,Pareto-80-43,0.4976333815817719,0.2345160599838046,-0.0,0.8230751298006732
272,entropy,0.3,0.5,65,Constant,0.4753293615575296,0.2663935961941076,-0.0,0.7382211188070028
273,entropy,0.3,0.5,65,Uniform-80-43,0.479186839431289,0.2563274835741066,-0.0,0.7616661560411941
274,entropy,0.3,0.5,65,Exp-80-43,0.4867125114689159,0.24372262830527106,-0.0,0.7814874162259942
275,entropy,0.3,0.5,65,Pareto-80-43,0.4951741769053102,0.23435172027329843,-0.0,0.8061698657775274
276,entropy,0.3,0.5,100,Constant,0.37959714077509865,0.29091875449302435,-0.0,0.7377746288050957
277,entropy,0.3,0.5,100,Uniform-80-43,0.40666886055718676,0.2737628979052565,-0.0,0.7377746288050957
278,entropy,0.3,0.5,100,Exp-80-43,0.41574603921294845,0.2630459843315474,-0.0,0.7377746288050957
279,entropy,0.3,0.5,100,Pareto-80-43,0.4456765936181452,0.250006441850001,-0.0,0.9023953381067208
280,entropy,0.3,0.5,150,Constant,0.24823197247141698,0.28862638563262494,-0.0,0.6931471805599453
281,entropy,0.3,0.5,150,Uniform-80-43,0.2869992436972692,0.28377297913854355,-0.0,0.7121756581718949
282,entropy,0.3,0.5,150,Exp-80-43,0.32683230343440844,0.275117392048525,-0.0,0.7121756581718949
283,entropy,0.3,0.5,150,Pareto-80-43,0.3750117671822021,0.26708824109469764,-0.0,0.7621480795776072
284,entropy,0.3,0.5,200,Constant,0.2266539270129645,0.27607227680191515,-0.0,0.6931471805599453
285,entropy,0.3,0.5,200,Uniform-80-43,0.249888592157153,0.2593410229475167,-0.0,0.6931471805599453
286,entropy,0.3,0.5,200,Exp-80-43,0.2738705929697241,0.2525451926379987,-0.0,0.6931471805599453
287,entropy,0.3,0.5,200,Pareto-80-43,0.3236871406911084,0.2539999911713905,-0.0,0.7076582087048837
288,entropy,0.3,0.5,300,Constant,0.12488038137968947,0.2038240598305279,-0.0,0.6909233093138181
289,entropy,0.3,0.5,300,Uniform-80-43,0.1537421694905927,0.19174546639039777,-0.0,0.6931249581731111
290,entropy,0.3,0.5,300,Exp-80-43,0.18695623799152125,0.19084405592819242,-0.0,0.6931249581731111
291,entropy,0.3,0.5,300,Pareto-80-43,0.22845122709134327,0.19705005287019348,-0.0,0.6931249581731111
292,entropy,0.3,0.5,400,Constant,0.07122537755317959,0.12314136154648071,-0.0,0.6921343385641024
293,entropy,0.3,0.5,400,Uniform-80-43,0.11866891116732664,0.1505564504161452,-0.0,0.6930346763408155
294,entropy,0.3,0.5,400,Exp-80-43,0.1595019379404463,0.1587583558467008,-0.0,0.6930971797265786
295,entropy,0.3,0.5,400,Pareto-80-43,0.23127055153587342,0.19783306800434547,-0.0,0.7365543043526378
296,entropy,0.3,0.5,500,Constant,0.09985868608547856,0.19481930759925303,-0.0,0.6928591529055732
297,entropy,0.3,0.5,500,Uniform-80-43,0.12037860293521714,0.17247034605764616,-0.0,0.6930751788318458
298,entropy,0.3,0.5,500,Exp-80-43,0.16317641591829674,0.1808506583181211,-0.0,0.6930751788318458
299,entropy,0.3,0.5,500,Pareto-80-43,0.2265277093136362,0.20472596416398728,-0.0,0.6930751788318458
300,entropy,0.3,0.5,600,Constant,0.06998065646818144,0.1476145463472059,-0.0,0.6930971797265786
301,entropy,0.3,0.5,600,Uniform-80-43,0.10525043420380778,0.1470943838795842,-0.0,0.6931471805599453
302,entropy,0.3,0.5,600,Exp-80-43,0.13375813663010572,0.14367524682901198,-0.0,0.6931471805599453
303,entropy,0.3,0.5,600,Pareto-80-43,0.19804637802184188,0.18510462410282427,-0.0,0.6931471805599453
304,entropy,0.3,0.5,700,Constant,0.048952435024952966,0.07475218760349807,-0.0,0.6919671244726688
305,entropy,0.3,0.5,700,Uniform-80-43,0.09700980047144438,0.11889363382193585,-0.0,0.6930818730157922
306,entropy,0.3,0.5,700,Exp-80-43,0.12747773418587666,0.12013963068146383,-0.0,0.6930818730157922
307,entropy,0.3,0.5,700,Pareto-80-43,0.19090356873237796,0.1619026753913371,-0.0,0.6930818730157922
308,entropy,0.3,0.5,800,Constant,0.04557939582779788,0.09710814593175496,-0.0,0.6930346763408155
309,entropy,0.3,0.5,800,Uniform-80-43,0.0794429751040779,0.10164976783192751,-0.0,0.693069053525313
310,entropy,0.3,0.5,800,Exp-80-43,0.11458218909385778,0.10804790719623554,-0.0,0.693069053525313
311,entropy,0.3,0.5,800,Pareto-80-43,0.17980773262405728,0.16830163653004337,-0.0,0.7440257753437571
312,entropy,0.3,0.5,900,Constant,0.03239194492419319,0.025338226308824263,-0.0,0.1003013400636114
313,entropy,0.3,0.5,900,Uniform-80-43,0.07724054571405142,0.07171983933036127,-0.0,0.6816860433486174
314,entropy,0.3,0.5,900,Exp-80-43,0.11688435525941764,0.09543994019935985,-0.0,0.6924334304838073
315,entropy,0.3,0.5,900,Pareto-80-43,0.18641125906629166,0.15924465816654518,-0.0,0.6924334304838073
316,entropy,0.3,0.5,1000,Constant,0.03496976460544956,0.02608601739690326,-0.0,0.112425881855886
317,entropy,0.3,0.5,1000,Uniform-80-43,0.07850114482001286,0.07142925676583144,-0.0,0.6793051948496998
318,entropy,0.3,0.5,1000,Exp-80-43,0.11695405449925413,0.08622920029875891,-0.0,0.6793051948496998
319,entropy,0.3,0.5,1000,Pareto-80-43,0.18065891518223243,0.14014447806309938,-0.0,0.6793051948496998
320,entropy,0.5,0.5,10,Constant,0.10979641475201415,0.21196144829922556,-0.0,0.6931471805599453
321,entropy,0.5,0.5,10,Uniform-80-43,0.12517440183868309,0.2181173211408071,-0.0,0.6931471805599453
322,entropy,0.5,0.5,10,Exp-80-43,0.12168314005089502,0.21359590199407177,-0.0,0.6931471805599453
323,entropy,0.5,0.5,10,Pareto-80-43,0.12371305950562324,0.2147421762731508,-0.0,0.6931471805599453
324,entropy,0.5,0.5,20,Constant,0.03181332183576401,0.09297471842926568,-0.0,0.4227090878059908
325,entropy,0.5,0.5,20,Uniform-80-43,0.02990977610872543,0.09025147559193397,-0.0,0.5623351446188083
326,entropy,0.5,0.5,20,Exp-80-43,0.03180128371110296,0.09200424128859282,-0.0,0.5623351446188083
327,entropy,0.5,0.5,20,Pareto-80-43,0.03393415375388211,0.09332235628273829,-0.0,0.5623351446188083
328,entropy,0.5,0.5,30,Constant,0.020355268106128088,0.06443221727339332,-0.0,0.3250829733914482
329,entropy,0.5,0.5,30,Uniform-80-43,0.022863040830416077,0.07053228594216257,-0.0,0.3926744672275521
330,entropy,0.5,0.5,30,Exp-80-43,0.02088139889705106,0.06638112936192966,-0.0,0.3926744672275521
331,entropy,0.5,0.5,30,Pareto-80-43,0.02150074148061195,0.06761839297203266,-0.0,0.4505612088663046
332,entropy,0.5,0.5,45,Constant,0.005328297941400995,0.02334251810774769,-0.0,0.1065659588280199
333,entropy,0.5,0.5,45,Uniform-80-43,0.008527709075178962,0.032852694805455926,-0.0,0.2449300267946353
334,entropy,0.5,0.5,45,Exp-80-43,0.01065983904138515,0.036660226706536694,-0.0,0.2449300267946353
335,entropy,0.5,0.5,45,Pareto-80-43,0.010957020780746047,0.0373034864305141,-0.0,0.2449300267946353
336,entropy,0.5,0.5,65,Constant,0.002168930096558056,0.015804413304843903,-0.0,0.1374060064527686
337,entropy,0.5,0.5,65,Uniform-80-43,0.0018793350803093982,0.013659274754153362,-0.0,0.1374060064527686
338,entropy,0.5,0.5,65,Exp-80-43,0.005198605689852916,0.025069837077230737,-0.0,0.1870308277602523
339,entropy,0.5,0.5,65,Pareto-80-43,0.006428361871605127,0.025910926535472372,-0.0,0.1870308277602523
340,entropy,0.5,0.5,100,Constant,0.0039201074048393104,0.014360607856965503,-0.0,0.0560015343548473
341,entropy,0.5,0.5,100,Uniform-80-43,0.004690310643012207,0.016204478985411903,-0.0,0.098039113279732
342,entropy,0.5,0.5,100,Exp-80-43,0.0058160756968012525,0.018496654186989238,-0.0,0.1347421681797667
343,entropy,0.5,0.5,100,Pareto-80-43,0.007162497771930797,0.020710446483201358,-0.0,0.1347421681797667
344,entropy,0.5,0.5,150,Constant,0.00040048630190432996,0.0040048630190433,-0.0,0.040048630190433
345,entropy,0.5,0.5,150,Uniform-80-43,0.0027105370586036123,0.011117868940285863,-0.0,0.0708105549081962
346,entropy,0.5,0.5,150,Exp-80-43,0.004117075462435023,0.01359608706815361,-0.0,0.0708105549081962
347,entropy,0.5,0.5,150,Pareto-80-43,0.005332178099314879,0.016657101224979404,-0.0,0.098039113279732
348,entropy,0.5,0.5,200,Constant,0.000314790659471667,0.00314790659471667,-0.0,0.0314790659471667
349,entropy,0.5,0.5,200,Uniform-80-43,0.000752193660981737,0.00548905149108794,-0.0,0.0560015343548473
350,entropy,0.5,0.5,200,Exp-80-43,0.0010029248813089827,0.0063129573611236224,-0.0,0.0560015343548473
351,entropy,0.5,0.5,200,Pareto-80-43,0.0022325857557179167,0.009577360253330072,-0.0,0.0778825094110963
352,entropy,0.5,0.5,300,Constant,0.0,0.0,-0.0,-0.0
353,entropy,0.5,0.5,300,Uniform-80-43,0.0011360783014609124,0.006202088339233492,-0.0,0.040048630190433
354,entropy,0.5,0.5,300,Exp-80-43,0.0014866244307682782,0.006554751787638003,-0.0,0.040048630190433
355,entropy,0.5,0.5,300,Pareto-80-43,0.0013710624236370824,0.006423725496347993,-0.0,0.040048630190433
356,entropy,0.5,0.5,400,Constant,0.000314790659471667,0.0031479065947166702,-0.0,0.0314790659471667
357,entropy,0.5,0.5,400,Uniform-80-43,0.00041952833614098,0.003067018283053007,-0.0,0.0314790659471667
358,entropy,0.5,0.5,400,Exp-80-43,0.0007923782316592146,0.004026437303065144,-0.0,0.0314790659471667
359,entropy,0.5,0.5,400,Pareto-80-43,0.001141592508655325,0.004884450540881538,-0.0,0.0441681963609346
360,entropy,0.5,0.5,500,Constant,0.000288544297243522,0.002029985510749938,-0.0,0.0144272148621761
361,entropy,0.5,0.5,500,Uniform-80-43,0.000563205610782271,0.00306174354471158,-0.0,0.0260778329833976
362,entropy,0.5,0.5,500,Exp-80-43,0.0008378669243210199,0.0038042786019175556,-0.0,0.0260778329833976
363,entropy,0.5,0.5,500,Pareto-80-43,0.0012902421427507577,0.004699318063440729,-0.0,0.0366779387501341
364,entropy,0.5,0.5,600,Constant,0.000123268264308894,0.0012326826430889399,-0.0,0.0123268264308894
365,entropy,0.5,0.5,600,Uniform-80-43,0.000246536528617788,0.0017300863362436122,-0.0,0.0123268264308894
366,entropy,0.5,0.5,600,Exp-80-43,0.0004853621471745917,0.0025524112450221103,-0.0,0.0223403798434835
367,entropy,0.5,0.5,600,Pareto-80-43,0.0009242259673929601,0.0037091792081592385,-0.0,0.0314790659471667
368,entropy,0.5,0.5,700,Constant,0.000107862367270713,0.0010786236727071301,-0.0,0.0107862367270713
369,entropy,0.5,0.5,700,Uniform-80-43,0.000431449469082852,0.0021189661518505763,-0.0,0.0107862367270713
370,entropy,0.5,0.5,700,Exp-80-43,0.0006967593259031896,0.003031315823003888,-0.0,0.0276442376632769
371,entropy,0.5,0.5,700,Pareto-80-43,0.0007872692519728444,0.003150251774091724,-0.0,0.0276442376632769
372,entropy,0.5,0.5,800,Constant,9.6049830838604e-05,0.0009604983083860404,-0.0,0.0096049830838604
373,entropy,0.5,0.5,800,Uniform-80-43,9.6049830838604e-05,0.0009580819566124035,-0.0,0.0096049830838604
374,entropy,0.5,0.5,800,Exp-80-43,0.000288149492515812,0.0016412250312528493,-0.0,0.0096049830838604
375,entropy,0.5,0.5,800,Pareto-80-43,0.0005239379885938777,0.0022615362150145216,-0.0,0.0174755337603431
376,entropy,0.5,0.5,900,Constant,0.0,0.0,-0.0,-0.0
377,entropy,0.5,0.5,900,Uniform-80-43,0.0001300306500315495,0.0010563471841340795,-0.0,0.0086687100021033
378,entropy,0.5,0.5,900,Exp-80-43,0.000202269900049077,0.0013108140363939362,-0.0,0.0086687100021033
379,entropy,0.5,0.5,900,Pareto-80-43,0.0004907430100742652,0.002141879134526412,-0.0,0.0157958569948717
380,entropy,0.5,0.5,1000,Constant,0.0,0.0,-0.0,-0.0
381,entropy,0.5,0.5,1000,Uniform-80-43,0.0002698174521166805,0.0015949160029482801,-0.0,0.0144272148621761
382,entropy,0.5,0.5,1000,Exp-80-43,0.000386114119863014,0.001882266602053518,-0.0,0.0144272148621761
383,entropy,0.5,0.5,1000,Pareto-80-43,0.0005035668670779207,0.0021082814500569848,-0.0,0.0144272148621761
