weight_set,opinion_seed
0,1245830744177573730
3,4044488658766781246
5,9047894099295239579
7,8326319520267247126
9,4162789818622663955
1,4996400604372832199
2,8628174858407581085
6,4642990586365061326
8,6004744694874057189
4,6728801863237019949
