weight_set,opinion_seed
0,8201643564147857916
1,6498021079084320703
5,824589714662140002
3,4289542696797430154
9,4295347455906531990
7,7476339928241677621
6,3887744071301483814
8,8390662059941191690
2,8774303287719227565
4,5123481525927304346
