d,mu,weight_set,opinion_set,sim_seed
0.1,0.1,0,0,7729740115742644045
0.1,0.1,1,2,5416098872548827145
0.1,0.1,3,6,8672056016547950510
0.1,0.1,4,2,3052727728217032169
0.1,0.1,6,6,1455055707530276746
0.1,0.1,7,2,2589028677579928391
0.1,0.1,7,8,764033125804706562
0.1,0.1,9,0,4582124668557107514
0.1,0.3,0,8,3345733743190540834
0.1,0.3,2,6,6878904769953550130
0.1,0.3,3,2,1608115943856154068
0.1,0.3,7,4,653001619382616830
0.1,0.3,8,0,5234462218071770286
0.1,0.3,8,6,977313423132468582
0.1,0.5,3,4,4386568157607538910
0.1,0.1,0,6,6429938933673838967
0.1,0.1,2,4,8086172883579701357
0.1,0.1,3,0,4113051621086567981
0.1,0.1,9,6,2052932722936463274
0.1,0.3,2,0,7871658221417939389
0.1,0.3,5,6,1398122426835887689
0.1,0.3,5,0,3299011391902856358
0.1,0.3,6,2,328472193447629031
0.1,0.3,6,8,3916556131346626486
0.1,0.5,1,0,5574156514498498108
0.1,0.5,0,4,7005636129557776672
0.1,0.5,1,6,8947911520960975650
0.1,0.5,2,8,9171725126871395574
0.1,0.1,4,8,7810935366008594810
0.1,0.1,5,4,8565028745139866380
0.1,0.1,6,0,4344658344696478604
0.1,0.1,8,4,8473137695512574098
0.1,0.3,0,2,5520940092977102411
0.1,0.3,4,4,1856041154234987470
0.1,0.3,3,8,5843404256342654774
0.1,0.3,9,8,7653839693168167834
0.1,0.5,2,2,6484409067743759440
0.1,0.1,1,8,83317599686303461
0.1,0.3,1,4,8526883664984980042
0.1,0.3,9,2,3764677794453494357
0.1,0.3,8,1,2345372930263933832
0.1,0.3,2,7,7191825444039248146
0.1,0.3,0,9,6232386323931241918
0.1,0.3,3,3,852943432606647436
0.1,0.5,1,7,4294523514825637035
0.1,0.3,8,7,2741914528428780892
0.1,0.1,4,3,5978076654977351198
0.1,0.3,1,0,2664251576308790479
0.1,0.5,2,9,3021750400784491968
0.1,0.5,0,5,633887370446932925
0.1,0.3,5,1,5128280326004158567
0.1,0.3,4,5,4031707953063225960
0.1,0.3,0,3,5034907579231866578
0.1,0.1,6,7,5469794814049624435
0.1,0.3,9,3,1405203316310866649
0.1,0.5,3,5,4007542514606770894
0.1,0.3,7,5,7313717914357780655
0.1,0.1,9,1,5217904002586291127
0.1,0.5,1,8,4600113540243341862
0.1,0.3,9,9,7405815628605395196
0.1,0.3,6,3,8265146319347350588
0.1,0.1,3,7,4791774224906454755
0.1,0.5,2,3,6291331194637297368
0.1,0.3,2,1,3520500673140998143
0.1,0.3,1,1,1244964634217321732
0.1,0.5,3,0,3409508355588028451
0.1,0.5,0,6,7248510365620686881
0.1,0.3,3,4,5028252578038164125
0.1,0.3,6,9,1725504960648052433
0.1,0.3,8,2,6645388499728491768
0.1,0.3,2,8,7348255297579938823
0.1,0.3,8,8,6007721787144218894
0.1,0.1,7,9,6628348957068031351
0.1,0.5,1,9,8141769285468524945
0.1,0.3,1,5,8853841645282717324
0.1,0.5,3,6,523078540044094058
0.1,0.3,5,2,9020936596810900847
0.1,0.5,0,7,4366159417981144493
0.1,0.3,3,9,3006523761714393848
0.1,0.1,1,3,9061693146766598452
0.1,0.3,9,4,2060597752437232575
0.1,0.5,2,4,3087622779457414255
0.1,0.1,4,4,1905106952687863394
0.1,0.3,3,5,9177659489724483206
0.1,0.1,4,9,8762851635504694370
0.1,0.5,3,1,1182089247912064802
0.1,0.3,5,7,7342910343622292644
0.1,0.3,1,2,3673017632835207243
0.1,0.3,6,4,7128026148273416983
0.1,0.1,3,1,1270341330812739984
0.1,0.1,0,1,1991376367074577872
0.1,0.3,2,9,1277640947689824667
0.1,0.1,6,1,5190018781295663007
0.1,0.5,0,8,3228906417189506500
0.1,0.5,1,1,8738701971166665466
0.1,0.3,4,6,3198666516361797932
0.1,0.3,4,0,7701690701944023366
0.1,0.1,9,7,6352540315906273435
0.1,0.3,8,3,5125479554604726863
0.1,0.5,3,7,1698593608579677061
0.1,0.1,6,8,1979659896953256771
0.1,0.3,7,6,2614983031882248799
0.1,0.3,8,9,4378235896498557330
0.1,0.3,3,6,313775495998249644
0.1,0.1,5,5,2604225082444708848
0.1,0.5,2,5,5041648187345815506
0.1,0.3,7,0,3113557123746014859
0.1,0.3,5,3,1127990645955873877
0.1,0.1,7,3,6300738936792390809
0.1,0.5,2,0,6783666774465281061
0.1,0.1,3,8,5497800017592016362
0.1,0.3,1,3,8585945604412784260
0.1,0.3,0,4,4479278445000636067
0.1,0.3,5,8,2057466234402492089
0.1,0.1,4,5,684241803551003269
0.1,0.3,7,7,7764873756555695287
0.1,0.5,0,9,5409157867199688495
0.1,0.1,9,2,3311245981835400670
0.1,0.3,9,5,5762825015647084844
0.1,0.3,4,1,2747436314152594510
0.1,0.5,3,8,4585180104429758940
0.1,0.3,8,4,9048107604850578523
0.1,0.3,9,0,3442963920074937030
0.1,0.5,1,2,2061548088772018204
0.1,0.3,3,0,3482899542399788573
0.1,0.3,5,4,8320960369682850138
0.1,0.3,3,7,2859526459025197133
0.1,0.3,2,2,401753814421681058
0.1,0.5,2,6,37434871515377717
0.1,0.3,7,1,6438979513076520162
0.1,0.5,0,0,5627175484617224733
0.1,0.1,2,5,2051932599104219497
0.1,0.5,4,0,8594286024636805725
0.1,0.5,3,9,3939209267129177695
0.1,0.3,9,1,2816057929606146097
0.1,0.1,0,7,974692616181074218
0.1,0.3,1,6,6740576481013157791
0.1,0.3,5,9,1922708941475232252
0.1,0.3,6,5,967893191681391644
0.1,0.5,1,3,366908724752613670
0.1,0.3,0,5,2542794265992183247
0.1,0.5,2,1,7576618069067736125
0.1,0.5,3,2,8920176783225072607
0.1,0.5,0,1,4318767319698273423
0.1,0.3,7,2,3588360809883084032
0.1,0.3,9,6,5404181209154148428
0.1,0.1,4,6,2083569018196038709
0.1,0.1,7,4,3971706565129463615
0.1,0.5,4,1,8500971506099603285
0.1,0.5,4,6,2868058295112020156
0.1,0.3,4,2,3502347944412124843
0.1,0.5,5,8,991970472201486296
0.1,0.5,5,2,5368878739949821721
0.1,0.1,3,9,1468585469944291391
0.1,0.3,2,3,6205058705936242573
0.1,0.5,2,7,1728674588101581164
0.1,0.3,4,7,7444268201006470515
0.1,0.1,6,2,6523052881406686237
0.1,0.3,3,1,3577973513957466378
0.1,0.3,6,6,1797226276155152954
0.1,0.5,3,3,4041956451551527195
0.1,0.1,9,3,6896603545795430036
0.1,0.3,1,7,5278539709093958452
0.1,0.5,6,4,1184103639309860292
0.1,0.3,0,6,3297651527755876388
0.1,0.5,5,9,6585768583278815095
0.1,0.3,7,3,7103434530710678728
0.1,0.3,9,7,3848384453647797420
0.1,0.5,4,7,141626441281224695
0.1,0.5,7,0,1892158949175025679
0.1,0.3,4,3,2413789075688677971
0.1,0.3,8,5,2882673661193292441
0.1,0.1,0,2,2053796143273117118
0.1,0.5,0,2,848751860919684571
0.1,0.5,4,2,1924069785139639407
0.1,0.1,0,8,8240419750678468912
0.1,0.3,1,8,8011007066534466015
0.1,0.5,1,4,4573373594742935492
0.1,0.1,1,4,7923317986625835213
0.1,0.3,7,8,7644779227417261633
0.1,0.3,4,8,5566486872403951876
0.1,0.5,7,6,7754058946353042198
0.1,0.3,6,7,5421918779065259146
0.1,0.3,5,5,7441820615015517117
0.1,0.5,4,3,5886767033486856761
0.1,0.5,4,8,5268407721081032067
0.1,0.5,8,2,297473271128594918
0.1,0.1,8,0,266968766739896009
0.1,0.3,2,4,619511538463431846
0.1,0.1,4,7,6683068875983840843
0.1,0.5,8,8,3076533854994793765
0.1,0.5,6,0,6365300953571971437
0.1,0.1,2,6,2073936108906903191
0.1,0.5,1,5,1897065800535222414
0.1,0.5,4,4,152660305442441345
0.1,0.5,7,1,4991976246034447961
0.1,0.5,4,9,8504105994629227311
0.1,0.5,0,3,1030767242295925498
0.1,0.3,1,9,5310423820801087602
0.1,0.5,9,4,795359851844132635
0.1,0.3,4,9,8628406108625543502
0.1,0.5,8,3,7214253250241435427
0.3,0.1,0,0,2224422549977271245
0.3,0.1,0,6,1692260387764529770
0.1,0.5,6,1,3557940323635293601
0.1,0.5,7,7,9166410241840773414
0.1,0.5,7,2,8909754828644817834
0.1,0.5,8,9,2454665249675198801
0.1,0.1,6,9,363138614256802412
0.1,0.3,7,9,4030298846265677357
0.1,0.3,2,5,4800787946571335670
0.1,0.5,6,5,1972683046923460344
0.3,0.1,1,2,7672241892917244915
0.1,0.5,5,0,2155310952954827349
0.3,0.1,1,8,1706825476266379324
0.3,0.1,2,4,903936131697753508
0.1,0.5,4,5,1772747520256424914
0.1,0.3,6,0,7236406378969246355
0.1,0.5,9,0,269306577988494741
0.1,0.1,9,8,1106941948693755424
0.1,0.5,6,6,2740344594743961350
0.1,0.1,6,3,6870478709266813971
0.1,0.5,6,2,6120798108476636110
0.1,0.1,1,9,4689022323728796153
0.1,0.1,3,2,7262664853123016148
0.3,0.1,3,0,8635376380298263110
0.1,0.5,7,8,8240572491088875762
0.1,0.5,7,3,4426567209748754254
0.1,0.5,5,1,3428844987658249730
0.1,0.1,9,4,7551018764027443529
0.1,0.1,0,3,3645894979287167659
0.1,0.5,9,1,2333830370661532180
0.1,0.5,6,7,6816306402587828151
0.1,0.1,4,0,6061270354378556825
0.3,0.1,3,6,8605569734334397742
0.1,0.1,7,5,1056088905572377766
0.3,0.1,4,2,791144614825905422
0.3,0.1,4,8,5079719354744755727
0.3,0.1,5,4,6208920136868288165
0.1,0.3,6,1,1096239304880257821
0.3,0.1,6,0,4833246275757132876
0.1,0.5,9,2,6009263557739901606
0.3,0.1,6,6,8602667079250887428
0.1,0.5,7,4,8520748557901228106
0.1,0.5,6,8,884766271765025034
0.1,0.5,9,3,609317791948158666
0.1,0.1,8,1,3071248448945999531
0.3,0.1,7,2,8000285953471377199
0.3,0.1,0,1,5423000460661933071
0.3,0.1,2,5,6170700664325880044
0.3,0.1,1,9,2432946332460155364
0.3,0.1,7,8,9174800521536989824
0.1,0.5,6,3,4613582964603883327
0.1,0.5,7,5,3177949656456891298
0.3,0.1,5,5,2583107667557061594
0.3,0.1,8,4,7283835141279881730
0.1,0.5,6,9,6100274540985280541
0.1,0.5,9,5,8116013629770710526
0.3,0.1,9,0,3486870958652046363
0.1,0.1,0,4,6724956957610801727
0.1,0.1,2,7,4542868171613211669
0.1,0.1,5,6,6533506417871313162
0.3,0.1,7,3,8774322796512795598
0.3,0.1,7,9,5620108446109021620
0.1,0.5,9,6,5937999732459838748
0.3,0.1,9,6,8087821557445684047
0.1,0.1,0,9,8462247022416429141
0.1,0.5,7,9,975095987551309080
0.1,0.1,3,3,1482310482979812600
0.3,0.1,6,1,8555130703865839749
0.3,0.1,4,9,5493796513649861286
0.3,0.1,0,2,9183837863713101576
0.1,0.1,9,9,879300778443365409
0.1,0.1,2,0,7902537752345184360
0.3,0.1,2,0,1282900556809057682
0.1,0.1,9,5,1626142725230194541
0.1,0.1,7,0,2328718391839738095
0.1,0.5,5,3,3938705533485533489
0.3,0.1,2,6,959316758692795749
0.1,0.5,8,4,334379425653547874
0.1,0.5,9,7,7651035733771706491
0.1,0.5,8,0,2951026636386580706
0.3,0.1,8,5,1938911238027984439
0.3,0.1,8,0,5330156793607217649
0.1,0.1,4,1,4335814849560638463
0.1,0.1,8,2,856100894147999218
0.3,0.1,7,4,7611381213010234282
0.1,0.5,8,5,3030182831282998515
0.1,0.5,5,4,8920352546006436843
0.3,0.3,0,2,7762959877953694144
0.3,0.1,5,0,6017309930124940038
0.3,0.1,0,3,4341430058610261320
0.3,0.1,4,3,7504212244498979939
0.1,0.5,9,8,8910127209553382856
0.1,0.1,5,7,6404097179764088662
0.3,0.1,6,2,478920813376896284
0.1,0.5,8,1,326850139554128221
0.3,0.1,3,1,4652338897467280504
0.3,0.3,0,3,3193639851600404361
0.1,0.5,5,5,4611954022357243913
0.1,0.1,8,3,482975823185263554
0.3,0.1,7,5,8751116351313552734
0.3,0.1,1,3,2029599540942959954
0.1,0.1,5,0,6975050351621276343
0.3,0.3,0,8,658060220056294361
0.1,0.5,9,9,5432487395634471611
0.1,0.5,8,6,443601084304001102
0.1,0.1,2,1,2238035255278847188
0.1,0.1,3,4,5752984781980254059
0.1,0.1,1,5,1734740308192223127
0.3,0.3,0,4,4205660975973043908
0.1,0.1,0,5,2068813994652982416
0.1,0.5,8,7,5665065013643700548
0.1,0.1,1,0,6912207194329913415
0.1,0.1,7,1,1559285810016180192
0.1,0.5,5,6,603685451519519317
0.3,0.3,1,4,879921202630963406
0.3,0.1,2,1,8297436403302775615
0.3,0.3,2,0,2380972468175543115
0.3,0.3,2,6,3963271748852355268
0.1,0.1,8,5,266011261483852151
0.3,0.1,6,3,8669252582649808732
0.1,0.1,1,6,6405249577358559671
0.3,0.1,8,6,4510032764625653659
0.3,0.3,3,2,5750973282890253721
0.3,0.3,1,5,6041963759884473628
0.3,0.3,2,1,4761564269980920719
0.1,0.1,3,5,7977201435988552646
0.3,0.3,3,8,1310992538397036376
0.1,0.1,5,1,1445549737734870947
0.1,0.3,0,0,8419565834323744160
0.3,0.3,4,4,1076358073404563756
0.3,0.1,4,4,4497334105096146665
0.3,0.1,6,7,5607344348041971087
0.1,0.5,5,7,2851902402718427686
0.3,0.3,2,2,4677850034199022185
0.3,0.1,3,7,4209665227083437903
0.3,0.3,5,0,8082844731239359272
0.3,0.3,1,6,1129351762312162751
0.1,0.1,2,8,4978173453966518043
0.3,0.1,0,4,9147315985332973352
0.1,0.1,6,4,5147699055036284305
0.1,0.3,0,1,5681248026223932413
0.3,0.3,2,7,2147799622090119099
0.3,0.3,4,5,4400310516583870635
0.3,0.1,2,2,6950934208112865363
0.3,0.3,3,9,7074609454089499094
0.3,0.3,5,6,7094610805380939128
0.1,0.1,1,1,20204479534823539
0.3,0.3,6,2,6029298909222699907
0.3,0.3,0,9,8429464745484663704
0.1,0.1,7,6,8968349374086012480
0.3,0.3,4,6,2690582769587306449
0.1,0.3,0,7,2227808962339631407
0.3,0.1,6,4,8495139892971434065
0.3,0.3,1,7,7110060982600327970
0.3,0.3,6,8,8326085859772393493
0.3,0.1,2,7,5851180014681234820
0.3,0.3,4,0,209060367971848017
0.3,0.3,0,5,2616241537985588789
0.3,0.3,6,3,8287799309969982707
0.1,0.1,2,2,2374837216727359645
0.1,0.1,5,2,113654826795559361
0.3,0.3,1,8,6186070144493681278
0.3,0.3,4,1,6393812663661434293
0.3,0.3,7,4,5909226307316139057
0.3,0.1,4,5,4651014688199716421
0.1,0.1,8,6,429892710783468874
0.3,0.1,8,1,1875302219272477605
0.3,0.1,6,8,7316375510843200504
0.3,0.3,6,4,2471817092172512010
0.3,0.3,8,0,2894417941340511637
0.3,0.3,1,9,1733493974644706384
0.1,0.1,2,9,2117568334805386500
0.3,0.3,4,2,1667136608453447757
0.3,0.3,7,5,5719914538270563787
0.1,0.1,5,8,9080483050459134342
0.3,0.3,5,1,6060012666482894246
0.3,0.3,4,7,8114536934517450936
0.3,0.3,8,6,1484506305459474310
0.3,0.3,2,8,727427442702596163
0.1,0.1,7,7,364894016077152080
0.3,0.1,2,8,8482842415106957296
0.3,0.3,8,7,5174900587508646255
0.3,0.1,4,6,4766082828811638172
0.3,0.3,2,9,5471117128492390119
0.3,0.3,7,6,3358466497660055816
0.3,0.3,4,8,3606512149799010651
0.1,0.1,2,3,1467153108918467974
0.3,0.1,6,5,3043103237024117678
0.3,0.3,2,3,4166362003580624931
0.3,0.3,3,0,1809396786754228082
0.3,0.3,0,6,293750177128615630
0.1,0.1,6,5,9086833402201115199
0.1,0.1,8,7,92286794717478054
0.3,0.1,0,5,145839637842687304
0.3,0.3,4,9,3916018618683169477
0.3,0.3,7,7,9202959322405107316
0.3,0.1,2,9,6711545232298555555
0.3,0.3,6,9,3568503300743557630
0.3,0.3,5,7,2321703126523718605
0.1,0.1,5,9,6072233655306837839
0.3,0.3,9,2,1474707626509990313
0.3,0.3,7,8,5791402620867318687
0.3,0.3,8,8,2214755674140219651
0.3,0.3,5,8,6118026671528193060
0.1,0.1,1,7,8276924886743753970
0.3,0.3,9,8,6325076106613867716
0.3,0.3,9,3,2319141726172427741
0.3,0.3,7,0,4523509048620910365
0.3,0.3,7,9,7494906088430627422
0.3,0.3,3,1,8549624512034670891
0.3,0.3,9,4,8987782465037803379
0.3,0.3,1,0,1157881982177657610
0.3,0.1,2,3,1447933654593177336
0.3,0.3,8,9,5066012001545292632
0.1,0.1,5,3,3948461706768484808
0.3,0.5,0,4,8588408477095049798
0.3,0.3,4,3,4339165341494468296
0.3,0.5,1,0,1500310778354056954
0.3,0.5,1,6,6238558247961150167
0.3,0.3,9,5,634246762697092227
0.3,0.5,2,2,5043727072021182700
0.3,0.5,2,8,7061892662207725470
0.3,0.5,1,7,6936783750763452991
0.3,0.3,9,0,2386463788205186186
0.3,0.5,2,9,5290122435075431435
0.3,0.5,3,4,7630143861537883625
0.3,0.3,9,6,5037691601110510737
0.3,0.5,2,3,2570970860602990458
0.3,0.5,4,0,1468875740574433516
0.3,0.5,1,1,8493759141735789306
0.3,0.5,1,8,8658101100621028323
0.3,0.5,4,6,3547964314118539848
0.1,0.1,8,8,1264073894041220719
0.3,0.5,5,2,4886760481120912173
0.3,0.1,7,6,6595070120399302741
0.3,0.5,3,5,7379162484644625721
0.3,0.5,2,4,8212271678334914848
0.3,0.1,9,7,1748298382508786259
0.3,0.3,9,1,3187294162439389392
0.3,0.3,9,9,3207302226928698795
0.3,0.5,1,9,1660336539996568628
0.3,0.5,3,6,6594148800128002723
0.3,0.5,0,5,2917910812172236156
0.3,0.5,2,0,7248546769251659189
0.3,0.5,5,8,154622929401061220
0.3,0.5,6,4,1082341108181514458
0.3,0.5,7,0,6371348643021567876
0.3,0.1,4,7,2431915604443204557
0.3,0.3,2,4,2367064447924941874
0.3,0.5,0,0,4982817944801904144
0.3,0.1,0,7,935068229411980450
0.3,0.5,0,6,9132708572305920155
0.3,0.5,2,5,117172889775898243
0.3,0.5,4,7,63211616322786004
0.3,0.3,5,2,5635170444554579045
0.3,0.5,5,9,9143355867330665690
0.3,0.1,9,8,5014595341393480263
0.3,0.1,8,7,2252480529139476922
0.3,0.3,2,5,412945440734720192
0.3,0.5,7,6,6525101319656132156
0.3,0.5,1,2,8454155494800860469
0.3,0.5,2,6,1254110096827482438
0.3,0.3,8,1,869813919247649630
0.3,0.5,8,2,5305265191540845340
0.3,0.5,0,7,3423644460327547177
0.3,0.5,6,0,9039793667726490431
0.3,0.5,6,5,791727053896617275
0.3,0.5,5,3,907062103914394067
0.3,0.5,8,8,3631518696534189516
0.3,0.5,8,3,5286735375180351620
0.3,0.5,2,1,4880736689315838785
0.3,0.5,0,8,6701639134993906345
0.3,0.5,7,7,4703981310658017002
0.3,0.5,8,4,4707487834458292989
0.3,0.5,6,1,3130747088052682900
0.3,0.5,2,7,7958934623749666440
0.3,0.5,3,7,4078883581672806765
0.1,0.1,8,9,2477038823893328152
0.3,0.3,8,2,5087716418129500002
0.3,0.1,7,7,5727554542498863025
0.3,0.5,6,6,1652081973927596069
0.3,0.1,1,4,838538022056813103
0.3,0.1,0,8,7101995588098144291
0.3,0.5,7,8,7966069358608053809
0.3,0.5,8,5,5014718569265046469
0.3,0.5,9,4,8576592839375152544
0.3,0.5,3,8,292308364689591976
0.3,0.5,0,9,3493323106202662602
0.3,0.5,9,5,4156842330099065056
0.3,0.5,6,2,5478626693754564250
0.5,0.1,0,0,8294372357766186386
0.3,0.5,8,6,905372748093057268
0.3,0.3,9,7,7294050560154911164
0.3,0.5,3,0,4948473631053815524
0.3,0.5,9,6,553605821992189351
0.3,0.5,6,3,2853448911829456582
0.3,0.3,5,3,3264222932885761681
0.3,0.3,7,1,265774323699968687
0.3,0.1,1,5,2325458778566758252
0.5,0.1,0,6,7380077131588833625
0.5,0.1,1,2,8727585062827391963
0.3,0.5,4,1,4413696070961575493
0.3,0.1,9,9,4189049953038052069
0.5,0.1,0,1,1142700872917959063
0.3,0.3,5,9,4855419991733631246
0.3,0.3,7,2,5034098277989913988
0.3,0.5,3,1,837152630613653551
0.5,0.1,1,8,6955592211590529747
0.3,0.5,4,2,1603712363739562753
0.3,0.5,8,9,1120405554835739422
0.5,0.1,2,4,3158870497380149013
0.3,0.3,7,3,1999477929866825569
0.3,0.5,9,0,1178553466154814215
0.3,0.5,3,2,5811738258580400624
0.5,0.1,0,7,3952878248300177913
0.3,0.3,0,7,6349322981757049261
0.3,0.3,3,3,6382008820263586893
0.3,0.5,7,1,6040650858030580822
0.3,0.1,0,9,8834958267294509475
0.3,0.5,6,7,4672927961351591804
0.5,0.1,3,0,5078946715732998451
0.5,0.1,1,3,3091969439924343182
0.3,0.3,8,3,8056343098175976468
0.3,0.3,3,4,5558493406665812028
0.5,0.1,2,5,1921198510884420136
0.3,0.5,5,4,2736509724406617771
0.5,0.1,0,2,5406661005160770286
0.5,0.1,3,6,808196382984486750
0.3,0.5,8,7,1839128687300232047
0.3,0.5,1,3,1467035989429263235
0.3,0.5,4,3,5187170480607466412
0.5,0.1,1,9,4637065176015884604
0.3,0.5,6,8,5931562500157197206
0.3,0.5,0,1,8698708786002828327
0.3,0.5,5,5,2538979178279539844
0.3,0.3,6,5,2813987003294475123
0.3,0.3,3,5,3913633703551668985
0.3,0.5,9,1,789900405617265821
0.3,0.5,4,4,4102683392633785849
0.3,0.3,8,4,263076233529140489
0.5,0.1,0,8,2238201708516917317
0.3,0.5,0,2,4932024873286446469
0.5,0.1,3,1,6166016515514567483
0.5,0.1,4,2,7561958305760309153
0.3,0.5,9,2,2462622750038261221
0.3,0.5,4,5,4676846477705475362
0.3,0.3,3,6,403291476365970001
0.3,0.3,6,6,4779684659993390624
0.3,0.5,1,4,738061245411645718
0.5,0.1,3,7,3134254730009752758
0.5,0.1,4,8,1601468201681869611
0.3,0.3,8,5,4554736597015765162
0.5,0.1,2,6,4044309714793385
0.5,0.1,0,3,6559494095888546803
0.5,0.1,2,0,29410428883209308
0.5,0.1,1,4,2658951488094797899
0.3,0.5,3,9,3310291752001248861
0.3,0.1,8,8,5731567125204780500
0.3,0.5,9,3,4849912675852725568
0.3,0.3,0,0,5935930125180880180
0.5,0.1,4,3,2171019772869866112
0.3,0.5,5,6,2177525954770763503
0.3,0.5,9,7,8234512151328984579
0.3,0.5,1,5,6273790590344221417
0.3,0.5,3,3,672722324704289659
0.3,0.3,0,1,4168322397786023842
0.5,0.1,5,4,88697797655597230
0.5,0.1,0,9,1534909073690604785
0.3,0.5,9,8,5703350891417908043
0.5,0.1,6,0,7068373144426884529
0.5,0.1,3,2,7538820467527974412
0.5,0.1,6,6,2055029282706327218
0.5,0.1,7,2,389886060386776052
0.5,0.1,4,4,8259870895064521791
0.5,0.1,2,7,1600350277532596032
0.5,0.1,4,9,1486531402961653044
0.5,0.1,0,4,964478867744969992
0.3,0.3,5,4,2981475846493331700
0.5,0.1,2,1,7774418128794444742
0.3,0.5,9,9,494361023890394684
0.5,0.1,3,8,9179812475380494663
0.5,0.1,7,8,3332486522824958193
0.5,0.1,1,5,747120077047812246
0.5,0.1,8,4,4413210354448240198
0.3,0.5,7,2,6348968213381545489
0.5,0.1,9,0,3949036611984990029
0.5,0.1,1,0,7465877748455285073
0.3,0.3,5,5,497721311053869805
0.3,0.5,5,7,3440900967265349086
0.5,0.1,0,5,4023741609912616574
0.5,0.1,4,5,4832053639826856997
0.5,0.1,5,5,4582275071779001681
0.3,0.3,6,7,2220060549973779889
0.3,0.5,7,3,2225152398440410566
0.5,0.1,9,6,6701445956125156042
0.3,0.3,6,0,2725591557541251673
0.5,0.1,6,1,5121867989113355259
0.5,0.1,3,3,5246874338463210438
0.5,0.1,6,7,4789725734051797592
0.5,0.1,2,8,3217003662298967480
0.5,0.3,0,2,1375039106615065133
0.5,0.1,5,0,3251807450576865703
0.3,0.1,5,6,6878921061082219084
0.5,0.1,2,2,7199490903684028519
0.5,0.1,7,3,1405146875616842731
0.3,0.5,7,4,5848776835410627608
0.5,0.1,4,6,4292982652690033007
0.5,0.1,3,9,8898318431456753008
0.5,0.3,0,3,1033875316900937845
0.3,0.1,8,9,3371676870583765608
0.5,0.1,1,6,4118043902561859720
0.5,0.1,9,1,750897612929046441
0.3,0.5,7,5,4975869942214808435
0.5,0.1,8,5,5400114810642269112
0.5,0.1,7,9,1727998222039320636
0.3,0.5,4,8,2943333345540673387
0.5,0.1,1,1,1928589482076518850
0.5,0.1,5,6,5007843405908515950
0.5,0.3,0,4,1652431344124081068
0.5,0.1,9,7,758504466590300345
0.3,0.5,0,3,5543311226460058538
0.5,0.3,0,8,566941992767227267
0.5,0.1,2,9,750795149413324079
0.5,0.1,3,4,5378027758350091694
0.5,0.1,4,7,2963702554743819884
0.3,0.5,4,9,8525892658822599202
0.5,0.1,6,8,8917119861088231682
0.5,0.1,6,2,8183324463380623897
0.5,0.1,5,1,2486373358424458910
0.5,0.3,0,5,4011844599515152944
0.5,0.1,2,3,3309733789039196101
0.5,0.3,0,9,3995418779890695397
0.5,0.1,7,4,5061985882971235319
0.5,0.3,1,4,6152863333774580914
0.5,0.3,2,0,1705355288692345872
0.5,0.1,9,2,6922768558775694259
0.5,0.1,4,0,2135082705976635371
0.5,0.3,0,6,9123450431530028058
0.5,0.3,1,0,1032085720322758272
0.5,0.3,1,5,3153592292273616901
0.5,0.3,2,6,5669889797317213368
0.5,0.3,3,2,1194353478139775215
0.5,0.1,8,6,4458546767029359337
0.5,0.3,2,1,4611729009355869723
0.5,0.1,1,7,7502323326168931195
0.5,0.3,3,8,6566159521739382083
0.5,0.1,9,8,2050253569517529659
0.5,0.1,8,0,5927290143646162756
0.5,0.1,5,7,6141714882956659529
0.5,0.1,3,5,4112540650120412614
0.5,0.3,4,4,2334068003082475329
0.5,0.3,1,6,8806494186625539170
0.5,0.3,2,2,6876877604778855399
0.5,0.3,3,3,514171132887403757
0.5,0.3,0,7,1718735433744070728
0.5,0.3,1,1,6979963453367562190
0.5,0.3,2,7,195626739265397389
0.5,0.1,6,3,5645121531159059640
0.5,0.1,5,2,3264800185865559579
0.5,0.1,6,9,8095563128678361338
0.5,0.3,2,3,8659784297577145110
0.5,0.3,3,9,6129578233609152815
0.5,0.3,5,0,5151118129040452622
0.5,0.3,1,7,8860001992611413267
0.3,0.1,8,2,7420468238987000106
0.3,0.5,6,9,4544513330246133349
0.5,0.3,4,5,1627085208492265445
0.5,0.3,5,6,3583381848539783866
0.5,0.3,1,2,756679861655947343
0.5,0.1,7,5,2140690411434835194
0.5,0.3,2,4,5223642252224308589
0.5,0.3,3,4,6155903023794471893
0.5,0.1,9,3,7341902768232798620
0.5,0.3,2,8,2839432409539369549
0.5,0.1,8,7,629793989972594458
0.5,0.3,1,8,7778894370981727704
0.5,0.3,4,0,4282458908053591644
0.5,0.3,2,5,2958198609787597795
0.5,0.3,6,2,531400657359967082
0.3,0.1,1,6,3755239670160742927
0.5,0.1,4,1,8684269660163031316
0.5,0.3,4,6,2805947213292563064
0.3,0.3,1,1,8810714542646242250
0.5,0.3,5,1,7556141200240604733
0.5,0.3,1,3,8199601671267597642
0.5,0.1,8,1,3540097909129158534
0.5,0.1,9,9,4201542196343378268
0.5,0.1,5,8,5621258823886829992
0.5,0.3,2,9,7497270518383573082
0.5,0.3,5,7,6250352562075982750
0.5,0.3,6,8,3958991606456841674
0.5,0.3,1,9,723636681565438961
0.5,0.3,4,1,3351843685794668312
0.5,0.3,3,5,7085125702147124088
0.5,0.3,7,4,8369722424782184978
0.5,0.3,6,3,7759332588471792921
0.5,0.3,8,0,1971128603378613028
0.5,0.3,4,7,7713131237744790069
0.5,0.3,8,6,4772405318610664312
0.3,0.3,3,7,5152300681323683191
0.3,0.3,1,2,1001626512533914386
0.5,0.3,6,9,5733959912074397963
0.5,0.1,7,0,7033231737445836353
0.5,0.1,8,8,8087595412577884268
0.5,0.3,9,2,1981021600226633583
0.5,0.3,5,2,1115651750854458737
0.5,0.1,5,3,5302133722677617566
0.5,0.1,6,4,1020735505308266075
0.5,0.3,4,2,6161235621158029138
0.5,0.3,3,0,6393604152747945902
0.5,0.3,9,8,5412796286855173666
0.3,0.1,3,2,5044887641024779668
0.5,0.3,3,6,6469939814401292596
0.5,0.3,5,8,104614581523822142
0.5,0.5,0,4,7396607487952039881
0.5,0.3,8,1,8731587299564648401
0.5,0.3,8,7,5489269632198126983
0.5,0.3,6,4,8351778354369937797
0.5,0.3,4,8,6775375869806209557
0.5,0.3,7,0,3243130620784905532
0.5,0.3,7,5,1693162791400445665
0.5,0.5,1,0,5900979407456479289
0.5,0.1,9,4,7035124986115482632
0.3,0.1,3,8,3349685418755673508
0.5,0.1,7,6,4201871235411690738
0.5,0.1,5,9,1300148883649597438
0.5,0.3,4,3,1223930484802104117
0.5,0.5,0,5,3316219405061744623
0.5,0.3,5,3,2753358518618993873
0.5,0.3,9,3,8298331372064060367
0.5,0.3,3,7,7796206803393486312
0.5,0.5,1,6,5649851158888725175
0.5,0.3,9,9,8640526638797371203
0.5,0.3,3,1,8879804839880778586
0.5,0.5,1,1,2038296085970501940
0.5,0.3,5,9,240933683086139264
0.5,0.1,8,9,8802814107966715760
0.5,0.3,4,9,1773552206024928458
0.5,0.3,0,0,1962553985863172598
0.5,0.1,8,2,3499710157440818480
0.5,0.3,8,2,2960419213979404785
0.5,0.3,7,1,1431483684390590648
0.5,0.5,0,6,1153452572116627659
0.5,0.3,6,5,8838864137029577615
0.5,0.5,1,7,124733062831993517
0.5,0.5,1,2,1745736236180277543
0.5,0.3,8,8,6653121931858680022
0.5,0.3,7,6,2973261049962650864
0.5,0.5,2,2,6275803891822327256
0.5,0.5,1,8,3863731939580656133
0.5,0.5,2,8,9039339635216071775
0.5,0.3,5,4,4275970127773285926
0.5,0.5,0,0,3194275742979554681
0.5,0.3,9,4,2128812382583245258
0.5,0.5,1,3,8586027679783978403
0.5,0.1,7,1,2847214875878945496
0.5,0.5,0,7,3325897157085565192
0.5,0.3,0,1,7044923050621418300
0.5,0.5,1,9,860727170414710948
0.5,0.5,3,4,4962615597901075524
0.5,0.5,4,0,3873110310800101811
0.5,0.1,6,5,998838990286160801
0.5,0.3,8,3,8947815401559014778
0.5,0.3,8,9,556836409020046464
0.5,0.5,4,6,393228523839200708
0.5,0.5,2,3,4134923756577565604
0.5,0.3,6,0,7341086095458324924
0.5,0.3,7,2,5909366900657195753
0.5,0.5,5,2,1830973908329979706
0.5,0.5,2,9,6848374824064081871
0.5,0.5,1,4,8963322680101011890
0.5,0.5,2,0,1602996479703741001
0.5,0.5,5,8,4554401730235770143
0.5,0.5,0,1,6803396514222486799
0.5,0.5,6,4,3111021869281591978
0.5,0.3,6,6,3719634141335486563
0.5,0.3,7,7,3737027232152020685
0.5,0.5,3,5,8465941105123322025
0.5,0.5,0,8,7149390560257600545
0.5,0.3,9,5,8404000698949645208
0.5,0.1,7,7,2171990575068977338
0.5,0.1,9,5,136643577071868962
0.5,0.5,5,3,6508402572020140600
0.5,0.5,7,0,9124449247748167689
0.5,0.5,2,1,361211817033968553
0.5,0.5,4,7,8724072545111503398
0.5,0.5,1,5,5377352930244574264
0.5,0.3,8,4,7706961054940671016
0.5,0.5,2,4,7984536425195893876
0.5,0.5,7,6,1607426337052578726
0.5,0.5,5,9,611549285828132888
0.5,0.5,4,1,4592067031489836634
0.5,0.3,5,5,1594241817734751990
0.3,0.5,5,0,9209930614967326614
0.5,0.3,9,0,1219965269220138485
0.5,0.5,6,5,7119615339127089187
0.5,0.5,3,0,3240621386133257983
0.5,0.3,6,1,2181989977207494894
0.5,0.5,0,2,1196680869903689517
0.5,0.3,7,3,4416927143643867823
0.5,0.5,3,6,2979457007149551982
0.5,0.5,0,9,6750215568473602930
0.5,0.3,6,7,3545285668331893317
0.5,0.5,8,2,1930421629370083090
0.5,0.1,8,3,428089316685962209
0.3,0.3,6,1,2928390077543361122
0.5,0.5,5,4,4773964657509787263
0.5,0.5,2,5,1520109032146219544
0.5,0.5,8,8,5188262873055303550
0.5,0.5,4,8,6095720937362236633
0.5,0.5,4,2,6328652147934632153
0.5,0.3,9,6,2002922828378549618
0.5,0.3,7,8,962283615690979781
0.5,0.5,7,1,4462390713110947626
0.5,0.5,6,0,2273883521422280412
0.5,0.5,3,1,8818860385165132760
0.5,0.5,7,7,7209790933931861302
0.5,0.3,8,5,1572054052623939926
0.5,0.5,9,4,5277401324883908445
0.5,0.5,6,6,7633380604741023345
0.5,0.5,0,3,6493252367714526342
0.5,0.5,5,5,5655221958880032212
0.3,0.5,5,1,6538106412853393919
0.5,0.5,3,7,3539723866379713126
0.5,0.3,9,1,7786172503481821582
0.5,0.5,8,3,4466105083147162639
0.5,0.5,6,1,2190021051139990862
0.5,0.5,4,3,714408077997772115
0.5,0.5,8,9,4646628476926790620
0.5,0.5,4,9,7142865579041431667
0.5,0.5,2,6,7684831906417680905
0.5,0.5,9,5,1905007977393215404
0.5,0.5,3,2,287053685693512270
0.5,0.5,7,2,9086312827143813898
0.5,0.5,7,8,6368562796612267393
0.5,0.5,5,6,5193277010644700975
0.5,0.3,9,7,232491835150212097
0.5,0.5,6,2,6628958202772061777
0.5,0.5,3,8,1282396252463864537
0.3,0.5,7,9,8646774628352362059
0.5,0.5,6,7,5363432615210843990
0.5,0.5,8,4,3972646743303010174
0.5,0.5,9,6,5839406321984580088
0.5,0.5,2,7,5573442703046132547
0.5,0.5,5,7,4168781957057847719
0.5,0.3,7,9,3442456869478642369
0.5,0.5,9,0,8927070437585160444
0.5,0.5,6,3,4631726958457386316
0.5,0.5,4,4,6414983950734224561
0.5,0.5,5,0,1208288667740988093
0.5,0.5,7,9,4213514281327322253
0.5,0.5,3,3,8603706601436179100
0.5,0.5,7,3,8990712985917507447
0.5,0.5,3,9,8070193089049820507
0.3,0.5,8,0,1638761068390324254
0.5,0.5,9,7,1618042690145915780
0.5,0.5,6,8,8768390506366447295
0.5,0.5,9,1,560962884330786130
0.5,0.5,8,5,857324101254521695
0.5,0.5,5,1,1235316532381898868
0.5,0.5,8,0,7652485519872178874
0.5,0.5,9,8,4225473227852871887
0.5,0.5,4,5,4227446962448671901
0.5,0.5,7,4,7327333018417500752
0.5,0.5,9,2,1926111169218377993
0.5,0.5,6,9,3610743047507817941
0.5,0.5,9,9,7650817632569772966
0.5,0.5,8,1,504438695605937082
0.5,0.5,9,3,8344921785144548062
0.3,0.3,1,3,5066605605638765847
0.5,0.5,7,5,705505505195250240
0.3,0.1,1,7,4822213576938552091
0.3,0.1,1,0,2502453553989793835
0.5,0.5,8,6,8131602095404542038
0.5,0.5,8,7,7813418302617033729
0.3,0.1,8,3,6514185877115474514
0.3,0.5,8,1,4780852939869242154
0.3,0.1,5,7,5610858085857144438
0.3,0.1,5,1,4804818536230504657
0.3,0.1,5,8,245051419355540684
0.3,0.1,6,9,6229253862093822010
0.3,0.1,5,2,3226089702110939178
0.3,0.1,5,9,4363084842604887335
0.3,0.1,9,1,6880739784827579746
0.3,0.1,7,0,6913582894494102702
0.3,0.1,9,2,8169199807613805837
0.3,0.1,5,3,699479424516353818
0.3,0.1,9,3,3768743428221897280
0.3,0.1,1,1,1971301848008662808
0.3,0.1,3,3,4653076962984701011
0.3,0.1,3,4,891989448808907886
0.3,0.1,3,5,6768689029197218624
0.3,0.1,7,1,2254040277658065045
0.3,0.1,9,4,7863291735563361100
0.3,0.1,3,9,5290877679674897568
0.3,0.1,9,5,4293616696788489152
0.3,0.1,4,0,8217891639889922846
0.3,0.1,4,1,82805671378834372
