d,mu,weight_set,opinion_set,sim_seed
0.1,0.1,0,0,2989247089838947240
0.1,0.1,1,2,4646526544929533825
0.1,0.1,2,4,6863621071957179210
0.1,0.1,3,6,691431632213669555
0.1,0.1,7,2,4354785699937384355
0.1,0.1,4,8,2959007192113276572
0.1,0.1,6,0,4153860490316632731
0.1,0.1,8,4,6480212432984567115
0.1,0.1,9,6,5247670120911413371
0.1,0.3,0,8,3100183721361268032
0.1,0.3,2,0,3859422208413781959
0.1,0.3,3,2,3249426340903402405
0.1,0.3,4,4,7035422942758922911
0.1,0.3,5,6,4193643734426372585
0.1,0.3,6,8,2549782727807852634
0.1,0.3,9,2,8295190905648638620
0.1,0.3,8,0,4801453624998177605
0.1,0.5,0,4,5901190871675501638
0.1,0.5,2,8,5425886028897752752
0.1,0.5,1,6,2936998016732636187
0.1,0.3,4,5,912323425904601698
0.1,0.3,2,1,1074049698499829636
0.1,0.3,6,9,3210877610595456
0.1,0.3,8,1,2421567042071549429
0.1,0.5,2,9,2210160195682913636
0.1,0.3,0,9,1202214709598938471
0.1,0.3,5,7,3394152783115131485
0.1,0.3,7,0,4534530848662601280
0.1,0.3,4,6,5582692397519335042
0.1,0.5,1,7,6775177712998851788
0.1,0.3,9,3,7192109443207778381
0.1,0.3,1,0,4122944137494552273
0.1,0.3,5,8,5334054029302110858
0.1,0.1,4,9,6586167375257513806
0.1,0.1,3,7,5106283189015809343
0.1,0.3,3,3,3081522459678694453
0.1,0.1,9,7,7542556905971142839
0.1,0.1,2,5,8456152273667838239
0.1,0.3,4,7,8448194425899104665
0.1,0.1,8,5,8527971759153029406
0.1,0.1,0,1,264588108660048352
0.1,0.3,5,9,1272190260015528051
0.1,0.3,8,2,3102963570914324597
0.1,0.1,1,3,5650848808755050188
0.1,0.5,1,8,920775173556710262
0.1,0.3,8,3,2994221933524784768
0.1,0.1,5,0,4103196640283470923
0.1,0.5,3,0,9185904173380711203
0.1,0.3,6,0,4906145429777204731
0.1,0.5,1,9,8604743921772240449
0.1,0.1,8,6,4570892767434561878
0.1,0.3,7,1,6735057736448493236
0.1,0.1,2,6,8534517012079984256
0.1,0.3,8,4,1638288266300354919
0.1,0.3,4,8,2743130528734758130
0.1,0.1,9,8,5238196382196564251
0.1,0.5,2,0,6028087332737241437
0.1,0.1,0,2,284319131192143482
0.1,0.3,1,1,8555237645972280641
0.1,0.5,2,1,102237458175452065
0.1,0.3,2,2,8320275039509674417
0.1,0.3,8,5,3000318343971122251
0.1,0.5,3,1,7903835823092881305
0.1,0.3,4,9,5367189971477083756
0.1,0.1,7,3,1065270039514940220
0.1,0.5,2,2,4699867333119756535
0.1,0.5,3,2,3684940803740113125
0.1,0.3,5,0,8134360523760518650
0.1,0.1,5,1,1661110196165503282
0.1,0.5,2,3,5251078449002897276
0.1,0.3,7,2,1448635966877343243
0.1,0.5,3,3,6960576619819537608
0.1,0.3,8,6,819857966626831757
0.1,0.3,5,1,3380247138550963087
0.1,0.1,0,3,4114839583630450586
0.1,0.5,0,5,1848480496272176360
0.1,0.1,8,7,8472911085682228915
0.1,0.3,7,3,2346287377712701667
0.1,0.1,7,4,2114369483599925128
0.1,0.3,8,7,2069927323681361236
0.1,0.5,2,4,3085564270140883767
0.1,0.5,0,6,6435804857106343544
0.1,0.3,7,4,2286378221581647212
0.1,0.3,8,8,309580017675781734
0.1,0.1,9,9,354972290166810278
0.1,0.5,2,5,795238890992911352
0.1,0.5,0,7,6462024218921313936
0.1,0.3,5,2,1928827595780283643
0.1,0.3,7,5,5430291355754902289
0.1,0.3,9,4,7431937953389582077
0.1,0.5,2,6,1205360447797586130
0.1,0.1,7,5,7969742832914699321
0.1,0.3,6,1,938026545969828653
0.1,0.5,0,8,719335485755908422
0.1,0.1,0,4,3223944208412998684
0.1,0.1,2,7,6191667871676435754
0.1,0.3,5,3,4483603335843371007
0.1,0.3,7,6,732700419249402313
0.1,0.5,0,9,174234383043325093
0.1,0.3,9,5,6130321173092626959
0.1,0.3,6,2,5758137963866914523
0.1,0.5,2,7,2065752033973083489
0.1,0.5,1,0,5715687637277174005
0.1,0.3,7,7,6115630338352433326
0.1,0.3,5,4,9068219614341693328
0.1,0.3,8,9,18978805099305165
0.1,0.5,4,0,1642052902270869278
0.1,0.3,6,3,4099066576441529369
0.1,0.5,1,1,4376861148562808512
0.1,0.1,8,8,5392499565456322236
0.1,0.3,5,5,8502094662814891326
0.1,0.3,9,0,7785549083590162425
0.1,0.3,7,8,6833207065307600334
0.1,0.3,2,3,3023166039442733078
0.1,0.1,7,6,3781267764315786197
0.1,0.5,3,4,5760004201543246974
0.1,0.3,9,1,6197156618766287333
0.1,0.5,1,2,1367177038728981781
0.1,0.3,0,0,5000654440251311323
0.1,0.1,6,1,4964154920788395361
0.1,0.3,2,4,8916069866897303680
0.1,0.3,9,6,848579204202227332
0.1,0.3,0,1,2753362340063832719
0.1,0.5,5,2,7931309352549042624
0.1,0.3,7,9,2141018843796987440
0.1,0.3,2,5,377085346771401124
0.1,0.5,6,4,6102171023765700614
0.1,0.3,9,7,7148919832951453349
0.1,0.3,6,4,5564238346283141728
0.1,0.5,6,5,1759276041350849968
0.1,0.1,7,7,8592120940074106591
0.1,0.5,7,6,6844198158317572164
0.1,0.5,4,1,6499419120886059266
0.1,0.3,9,8,4254849336547201546
0.1,0.5,5,3,1045163691897922063
0.1,0.1,5,2,5043334202228863338
0.1,0.3,2,6,7370432298025716679
0.1,0.5,6,6,1473387085058172876
0.1,0.5,5,4,3220461372767658088
0.1,0.3,6,5,6958746545176154985
0.1,0.5,7,7,5930035902047090728
0.1,0.5,6,7,404885770519835283
0.1,0.3,9,9,1225357231364559253
0.1,0.1,6,2,5976780711599480258
0.1,0.3,1,2,5787793854915033356
0.1,0.3,2,7,3308712021540966344
0.1,0.3,3,4,2185620454577901431
0.1,0.5,6,8,3995934948750847899
0.1,0.3,6,6,3407926250934814832
0.1,0.5,3,5,1012033927166543151
0.1,0.5,0,0,4035219659623563779
0.1,0.5,5,5,7918223508695774851
0.1,0.5,4,2,45044838684986102
0.1,0.3,6,7,5981738602587772467
0.1,0.3,1,3,1812740341462288474
0.1,0.3,3,5,2715828765315293597
0.1,0.5,6,9,6156869344865601699
0.1,0.5,5,6,199977531116586729
0.1,0.3,2,8,9068392546721342959
0.1,0.5,4,3,1934667559491716568
0.1,0.5,8,8,6729593477808794918
0.1,0.5,7,0,1782784276130171483
0.1,0.5,3,6,7064775269773479194
0.1,0.3,1,4,388806609104598737
0.1,0.5,5,7,5825643024409861744
0.1,0.3,2,9,2920978973693966636
0.1,0.5,3,7,4502062580142196931
0.1,0.5,7,1,6190347485022666016
0.1,0.5,7,8,2394937402892896925
0.1,0.1,6,3,5125256608587457611
0.1,0.3,1,5,7096694729966354906
0.1,0.3,0,2,5663161707698598071
0.1,0.3,3,6,5401748883334902242
0.1,0.1,5,3,1486747830844731900
0.1,0.5,3,8,304443192746733220
0.1,0.5,7,9,7702864476967544141
0.1,0.3,3,0,1769548538583030239
0.1,0.5,7,2,5789314359453215550
0.1,0.5,3,9,7298375499019606031
0.1,0.3,3,7,3132559748088718075
0.1,0.3,1,6,1334358039623736251
0.1,0.5,8,0,6465219086150379514
0.1,0.1,8,9,768227507386450389
0.1,0.5,7,3,8295195693724853457
0.1,0.5,4,4,2376825864255107219
0.1,0.3,1,7,7422319729318728879
0.1,0.5,8,1,1537991057313001934
0.1,0.3,0,3,4227557963480230460
0.1,0.5,7,4,1151798085994960164
0.1,0.1,6,4,6403083712689534129
0.3,0.1,0,0,6337472038918844354
0.1,0.3,3,1,363310338326743216
0.1,0.5,8,9,6772032605815459331
0.1,0.5,4,5,1114251663222460139
0.1,0.5,8,2,615028508877070669
0.1,0.3,0,4,2417544111172010192
0.1,0.5,7,5,4633878134808627182
0.3,0.1,1,2,1104138523199537993
0.1,0.1,7,8,2340664912952387586
0.1,0.1,1,4,8755257941034099037
0.1,0.5,0,1,2133425175262204532
0.1,0.5,8,3,5622382574503800794
0.3,0.1,2,4,7359680951976945292
0.1,0.3,1,8,2127064581083700183
0.1,0.5,9,0,1097820226311743327
0.1,0.5,0,2,8595298937616389015
0.1,0.5,8,4,568287887247737466
0.1,0.5,4,6,1293720820724474467
0.1,0.3,3,8,486878433769255605
0.1,0.1,3,8,6747869135603492215
0.1,0.5,4,7,6573785302818732740
0.3,0.1,1,3,3384677011641626173
0.1,0.5,8,5,4535772679240053363
0.1,0.5,4,8,2890837174346728787
0.1,0.5,1,3,4570304197351764608
0.3,0.1,2,5,2908258451165968088
0.1,0.1,7,9,2352077304162494833
0.1,0.1,2,8,7349098345571359422
0.1,0.5,4,9,445261749601797672
0.1,0.5,1,4,2530320326418640227
0.1,0.5,5,8,5611601473281561427
0.1,0.1,3,9,5472839221651507039
0.1,0.5,1,5,4150086576623804551
0.1,0.3,1,9,6304071385814289233
0.1,0.3,3,9,3968415472043999574
0.1,0.1,6,5,8295059628681719471
0.3,0.1,3,6,3812947093490606071
0.1,0.5,5,9,7268900914738228207
0.1,0.3,0,5,1404745645433689756
0.1,0.1,2,9,332147703515156334
0.1,0.5,8,6,3726804098749889707
0.1,0.3,4,0,7011086896435602563
0.3,0.1,2,6,5187472720575087968
0.1,0.5,5,0,6669729111475903559
0.1,0.1,8,0,1853722162396983198
0.1,0.5,9,1,620930759598120011
0.1,0.5,8,7,1571100082500178750
0.1,0.5,6,0,8355055910152833391
0.1,0.1,9,0,8323586910658703545
0.1,0.1,1,5,1494423620379604733
0.1,0.5,9,2,1838864579035510508
0.3,0.1,4,8,3166882186753826947
0.1,0.5,5,1,4683801676675621279
0.1,0.3,4,1,4658726480986749988
0.1,0.5,0,3,4377494866798424154
0.3,0.1,6,0,8347081116481716417
0.1,0.1,8,1,1824741706645375113
0.3,0.1,7,2,7039035920459743682
0.1,0.5,6,1,3768139370732751895
0.1,0.1,3,0,4553544868826710512
0.3,0.1,6,1,3107071288424533800
0.1,0.3,4,2,4354298973212992249
0.1,0.5,9,3,2397324435831337274
0.1,0.1,1,6,5451743809694630267
0.1,0.1,8,2,8922225713823600207
0.3,0.1,8,4,695694910442481536
0.1,0.5,6,2,4998945498407581535
0.1,0.5,9,4,7614963235490232460
0.1,0.3,4,3,3479834863682805965
0.1,0.1,5,4,5406344687762816224
0.3,0.1,7,3,1615235082761113575
0.1,0.1,9,1,2636412909105925814
0.1,0.5,9,5,8406168933987413341
0.1,0.1,0,5,8657659805482235834
0.3,0.1,6,2,648894569668381400
0.1,0.5,6,3,1921193744249925501
0.1,0.5,9,6,8821370713237514181
0.1,0.1,8,3,4174238818085890866
0.3,0.1,9,6,7210346645431768254
0.3,0.3,0,8,1438484440506792077
0.1,0.1,5,5,7677241737250570639
0.1,0.1,9,2,2712606264268075198
0.1,0.5,9,7,5654304012601006735
0.1,0.3,0,6,876260583228028360
0.1,0.5,9,8,6242355323410126768
0.1,0.1,6,6,8015999878127330085
0.1,0.3,0,7,1857388435283662145
0.3,0.3,2,0,3917373363178884251
0.1,0.5,9,9,7841476136622230320
0.1,0.1,5,6,482513712671211399
0.1,0.1,0,6,140351423496902357
0.1,0.1,3,1,2288868191833751026
0.3,0.3,3,2,142281211247070649
0.3,0.3,2,1,7135749996531263825
0.3,0.3,4,4,5446161881809245092
0.1,0.1,6,7,2082595692778701058
0.1,0.1,0,7,7790979088458474164
0.1,0.1,9,3,912100347581904792
0.1,0.1,3,2,4981458583730787688
0.1,0.1,6,8,788967014188630480
0.1,0.1,9,4,8093267662740125943
0.1,0.1,4,0,7501988489552864200
0.1,0.1,0,8,4515304499789037048
0.1,0.1,6,9,5397972909853552797
0.3,0.1,0,1,8878528461752992123
0.1,0.1,9,5,6302837292040764914
0.1,0.1,0,9,8931338700818308155
0.1,0.1,1,7,6260870659895982816
0.3,0.3,4,5,5713743430186868307
0.1,0.1,1,0,5684211123916325497
0.1,0.1,3,3,7613390751640328164
0.3,0.3,5,6,6783571344474786814
0.1,0.1,1,8,8519298116952160338
0.1,0.1,1,9,9178687461577191837
0.1,0.1,4,1,8828535256770233068
0.1,0.1,2,0,4126420339916183096
0.3,0.1,2,7,2677948126147769185
0.3,0.3,0,9,2801801052158638930
0.3,0.3,5,7,6207974157952388341
0.1,0.1,4,2,4943162394625724494
0.3,0.3,5,8,2983131109330189952
0.3,0.3,3,3,5901547003043936370
0.1,0.1,7,0,5806509309937870263
0.1,0.1,4,3,5744288198485820144
0.1,0.1,7,1,4142101915405055965
0.1,0.1,4,4,1215394954197183898
0.3,0.1,4,9,3740615928423597661
0.1,0.1,1,1,178858796177750170
0.1,0.1,4,5,5279923480179303188
0.3,0.3,6,8,294471321704398679
0.3,0.3,4,6,1872211162238978148
0.1,0.1,3,4,2500961782284380544
0.3,0.3,8,0,144193205363873803
0.3,0.3,4,7,3350959038627030383
0.3,0.3,2,2,6699873770960020204
0.3,0.3,4,8,3841674566517523008
0.1,0.1,3,5,3243789602740581297
0.3,0.3,1,0,2886580576228994820
0.1,0.1,4,6,4442358520979171139
0.3,0.3,3,4,6007560202180590871
0.3,0.3,8,1,4268712297266205681
0.3,0.3,2,3,8875586139999220243
0.3,0.1,8,5,6110255307105585127
0.3,0.3,8,2,6955563195535234253
0.3,0.3,5,9,6477529764738170645
0.3,0.3,4,9,7344278574680741744
0.3,0.3,5,0,6917843700123581933
0.1,0.1,5,7,103782103594625154
0.1,0.1,2,1,3759846022387917934
0.1,0.1,4,7,7194254594280190856
0.3,0.1,7,4,7920252348527208933
0.3,0.3,6,0,1495438157874479748
0.3,0.3,9,2,140735752550001849
0.1,0.1,2,2,4493713990941394798
0.1,0.1,5,8,375922623131902295
0.3,0.3,9,3,8130074248466582724
0.3,0.3,6,9,1757880827461210307
0.3,0.3,8,3,1996543099244791031
0.3,0.1,5,0,6900251747383544486
0.1,0.1,2,3,3967533229494770801
0.3,0.5,0,4,8753050938628902613
0.3,0.3,5,1,1651933819400383992
0.3,0.5,0,5,7786638557292087523
0.1,0.1,5,9,9190595865649739148
0.3,0.5,1,6,3475175473294871470
0.3,0.5,2,8,6955199514953052154
0.3,0.5,1,7,4621691925699970959
0.3,0.3,3,5,7987831114699367800
0.3,0.3,6,1,5358132601602837539
0.3,0.3,6,2,4731951711095287181
0.3,0.3,9,4,6548070036196626370
0.3,0.5,2,9,7248348549470621883
0.3,0.3,6,3,2513759135985399689
0.3,0.3,2,4,7288445250012666715
0.3,0.3,5,2,328053961193631447
0.3,0.3,2,5,4178506505813992019
0.3,0.3,2,6,7136970928627111980
0.3,0.1,3,7,3677839060206917794
0.3,0.5,3,0,1780021683962369396
0.3,0.3,7,0,8597469889805107932
0.3,0.1,3,8,7902653948021294141
0.3,0.3,3,6,465059239634856936
0.3,0.3,2,7,1577413670723946842
0.3,0.5,0,6,3254887114149311447
0.3,0.5,0,7,9195729788259961052
0.3,0.5,1,8,9062662709090900858
0.3,0.5,1,9,2746962628788454637
0.3,0.1,0,2,8850334106501949097
0.3,0.3,9,5,7556852527786265444
0.3,0.3,9,6,5401687605064952554
0.3,0.1,8,6,4509220460213058239
0.3,0.1,0,3,2472955030972179700
0.3,0.3,1,1,2414991011449570460
0.3,0.5,3,1,4438339652632778111
0.3,0.3,6,4,7182066407176486700
0.3,0.3,5,3,2762656752286959236
0.3,0.3,7,1,7825132179934155832
0.3,0.3,7,2,2875524814246309703
0.3,0.3,7,3,8331520697455882864
0.3,0.5,3,2,7376300193029485049
0.3,0.5,0,8,1566108042869469798
0.3,0.5,3,3,5569291007006420692
0.3,0.3,3,7,1964594848641932646
0.3,0.3,3,8,3138073384902071974
0.3,0.3,9,7,8973517140746784311
0.3,0.3,5,4,391665666539768181
0.3,0.1,6,3,1513477374779053171
0.3,0.3,8,4,351712245198938906
0.3,0.1,6,4,7980235365801736239
0.3,0.3,1,2,8784122890018659575
0.3,0.3,1,3,8261817509070205947
0.3,0.3,8,5,1164131424147408995
0.3,0.5,3,4,3286534072216486085
0.3,0.3,9,8,261725014104558967
0.3,0.3,9,9,3483627957262932214
0.3,0.5,0,0,4084458623476267887
0.3,0.3,3,9,9156684905463974862
0.3,0.5,3,5,8434481795033175758
0.3,0.1,9,7,490335096397891255
0.3,0.3,2,8,5398262809040803855
0.3,0.3,5,5,9203969180933900209
0.3,0.1,1,4,3923520866148294915
0.3,0.1,1,5,8212913913560426917
0.3,0.5,0,9,369837098705326355
0.3,0.5,0,1,757377429606297061
0.3,0.5,1,0,2041010340832237036
0.3,0.5,4,0,5947458449268906996
0.3,0.5,2,0,3147185867457183769
0.3,0.5,4,1,7667210767138505898
0.3,0.1,0,4,2918878058503933038
0.3,0.3,6,5,1334618445994001859
0.3,0.3,2,9,7564532048050541255
0.3,0.3,4,0,5594669510522836484
0.3,0.3,6,6,5052905823679020102
0.3,0.1,8,7,982134181667509118
0.3,0.5,4,2,4539220983412725124
0.3,0.3,7,4,7667720304857757454
0.3,0.1,2,8,4312984395809254472
0.3,0.1,2,9,7223217089736236996
0.3,0.3,3,0,8298627309170948588
0.3,0.5,0,2,1661221252371783957
0.3,0.3,6,7,3681887394516079984
0.3,0.3,8,6,2458862209034798017
0.3,0.5,0,3,1069082743531421220
0.3,0.3,4,1,3652361652437552507
0.3,0.5,5,2,8346117324029823871
0.3,0.5,4,3,8035954909472064230
0.3,0.5,4,4,4094744313125912765
0.3,0.5,6,4,4610006814146610901
0.3,0.5,5,3,7718904579606801701
0.3,0.3,4,2,7135186432921752845
0.3,0.3,7,5,4121590434018242098
0.3,0.5,6,5,510499912330961603
0.3,0.5,2,1,4936677116998093081
0.3,0.5,6,6,2950312944539305860
0.3,0.5,2,2,7325590274359772585
0.3,0.5,4,5,1817617875012047710
0.3,0.1,3,9,2257201095697238014
0.3,0.5,5,4,4498228711886260397
0.3,0.1,9,8,1293819653741977843
0.3,0.5,3,6,8064266422619234101
0.3,0.1,9,9,259471415652866044
0.3,0.5,2,3,5442019221673084483
0.3,0.1,3,0,869834929138090446
0.3,0.3,3,1,422352278274060838
0.3,0.5,5,5,2356636708182147576
0.3,0.5,3,7,3179308829836396112
0.3,0.3,0,0,8481552907249436785
0.3,0.5,4,6,6360150560116884489
0.3,0.5,4,7,3763868525863381760
0.3,0.1,6,5,4937143936575904308
0.3,0.3,1,4,2467100518498361175
0.3,0.5,6,7,7871656735486509206
0.3,0.5,6,8,7035736610608347687
0.3,0.3,0,1,3101036172545520935
0.3,0.5,7,6,4630290950955357223
0.3,0.5,2,4,4865406113696995703
0.3,0.1,6,6,1649735003383600936
0.3,0.5,6,9,961625510221521453
0.3,0.3,4,3,304607948649543500
0.3,0.5,2,5,3371227438894871798
0.3,0.3,0,2,4155150575296734167
0.3,0.5,2,6,5696618480104094198
0.3,0.1,6,7,7256508298499315165
0.3,0.3,8,7,6613302078277558310
0.3,0.5,7,0,4514634098032053970
0.3,0.1,6,8,7997148250391631804
0.3,0.5,1,1,4744900795876178439
0.3,0.3,7,6,2107302199225043731
0.3,0.5,5,6,7094031450454991455
0.3,0.5,8,8,2793124751246321365
0.3,0.3,1,5,168202523955011275
0.3,0.5,4,8,3398171346899892628
0.3,0.5,1,2,7507842360509381021
0.3,0.5,2,7,1801609082979708775
0.3,0.5,3,8,4650384218922292948
0.5,0.1,0,0,6609599579126154574
0.3,0.5,5,7,2932130364166492775
0.3,0.5,5,8,6847963066258594225
0.5,0.1,0,1,8614000523989406195
0.5,0.1,0,2,6859067245558537158
0.3,0.1,3,1,8741358565993349766
0.3,0.5,7,1,8959128906821822954
0.3,0.5,7,2,3755914097753311509
0.5,0.1,0,3,6395295176126662886
0.3,0.5,7,3,6858543506530420732
0.3,0.1,7,5,4303913397799864345
0.3,0.5,5,9,813933469767589365
0.5,0.1,0,4,6503799730805946620
0.3,0.5,8,9,1717262094873167698
0.5,0.1,0,5,8532544263366614188
0.3,0.5,7,7,7157390668243652567
0.3,0.5,1,3,6557107468009364075
0.3,0.1,6,9,1457241323896881782
0.5,0.1,0,6,602591393284548826
0.3,0.3,8,8,3191424808126180334
0.5,0.1,0,7,5728666263769113239
0.3,0.5,1,4,2189223403263770762
0.5,0.1,0,8,5966247585679944423
0.3,0.1,8,8,5564569840028763988
0.3,0.5,9,0,2654149245646252601
0.5,0.1,0,9,8130711457399112459
0.5,0.1,1,0,7232232167649663425
0.3,0.5,1,5,5412945240397915075
0.3,0.5,7,8,3813082767239603280
0.5,0.1,1,1,5043390506980428327
0.3,0.3,7,7,6551689967865875235
0.3,0.5,6,0,1643255223138453384
0.3,0.5,6,1,8800540815548483567
0.5,0.1,1,2,7645512332936069106
0.3,0.3,7,8,8842251522437973926
0.3,0.5,6,2,1396507165484335256
0.3,0.3,1,6,6462803804489830797
0.5,0.1,1,3,3366707338351299515
0.5,0.1,1,4,5457638935199329205
0.3,0.5,4,9,1284180265470991011
0.3,0.5,3,9,9176555250541365890
0.5,0.1,1,5,4872545949878129635
0.5,0.1,1,6,3066297311776666616
0.3,0.1,7,6,1205968026935431910
0.5,0.1,1,7,8445048757618263288
0.3,0.1,7,7,8825015451564605541
0.3,0.3,0,3,3264687391529325708
0.5,0.1,1,8,3275739550152935752
0.3,0.1,7,8,7083267089093471515
0.3,0.5,6,3,168387858302969033
0.5,0.1,1,9,164774135704823763
0.3,0.1,7,9,6321907968461413234
0.5,0.1,2,4,7792428543004834857
0.3,0.5,7,4,428946548238637877
0.5,0.1,3,6,3908770302797599180
0.5,0.1,2,0,804196326756025865
0.5,0.1,2,5,7663911568529655374
0.5,0.1,4,8,7452473430681771440
0.3,0.3,8,9,3225958999942432171
0.3,0.1,8,0,2349640970386698886
0.5,0.1,3,7,6435864373101444996
0.5,0.1,2,1,5363671793243129298
0.5,0.1,4,9,3357782766902943656
0.5,0.1,2,6,4439851601437702593
0.5,0.1,3,8,1753764498710501126
0.3,0.3,1,7,1122073614984575856
0.5,0.1,2,2,3667388530733963133
0.5,0.1,5,0,3232110945579064312
0.5,0.1,2,7,2816011100117443801
0.3,0.3,1,8,8770536216259738834
0.5,0.1,3,9,9128451125150910026
0.5,0.1,2,3,422045729011664554
0.3,0.3,1,9,531335929709615373
0.5,0.1,5,1,2307864455729548426
0.5,0.1,2,8,6157334322510277176
0.5,0.1,4,0,3038444151486614433
0.5,0.1,6,0,4612039631525372463
0.5,0.1,5,2,7166108202999938486
0.5,0.1,2,9,1380566370760916352
0.3,0.5,9,1,7084139196159448949
0.3,0.3,7,9,2677721298971036890
0.5,0.1,4,1,6314291102743777945
0.5,0.1,6,1,6468959161366586768
0.5,0.1,5,3,4532941039254270245
0.5,0.1,3,0,7768403420857359781
0.5,0.1,4,2,1702383017693715924
0.3,0.5,5,0,7270415515737706279
0.5,0.1,6,2,8883798353773579259
0.3,0.5,7,9,5476791078546655306
0.3,0.1,1,6,4775703986999573773
0.5,0.1,3,1,704103751526856026
0.5,0.1,5,4,8567312422641453383
0.3,0.5,8,0,8159412186621292455
0.5,0.1,4,3,7926816626356456283
0.5,0.1,6,3,8098585356184701887
0.5,0.1,3,2,8265113861029466613
0.5,0.1,5,5,4628765040307257091
0.5,0.1,4,4,1395227352386747339
0.5,0.1,6,4,2460966877623507960
0.3,0.3,9,0,5861037402088634231
0.3,0.1,3,2,7147646345970836015
0.3,0.5,8,1,9026612886472023631
0.5,0.1,3,3,3803877774560710816
0.3,0.3,9,1,8041306959716413717
0.3,0.5,8,2,1433853419933216117
0.5,0.1,5,6,5586432640232281961
0.5,0.1,4,5,8543984843603223543
0.5,0.1,7,2,1335207833810652628
0.5,0.1,6,5,8144672216808731003
0.3,0.1,5,1,4932926139098420664
0.3,0.1,3,3,6697509590532072947
0.5,0.1,3,4,5200178590138732039
0.5,0.1,5,7,1059304667413436023
0.5,0.1,7,3,7491614041256898167
0.5,0.1,6,6,9158858026886588102
0.5,0.1,4,6,1404428849762457592
0.5,0.1,3,5,70754064870072308
0.5,0.1,5,8,355486652572042120
0.5,0.1,7,4,2999693198817064292
0.5,0.1,6,7,6463143324089240459
0.5,0.1,4,7,2517309392415436395
0.5,0.1,8,4,1548948881816624882
0.5,0.1,5,9,8069548919664683109
0.5,0.1,6,8,3811824234961651376
0.5,0.1,7,5,3995947071245465986
0.5,0.1,9,6,2340399547628821158
0.3,0.5,9,2,5768267395539221342
0.3,0.5,9,3,5516125234900288179
0.5,0.3,0,8,2761328514847986737
0.5,0.1,8,5,6850334806428389864
0.5,0.1,6,9,5808179200026447232
0.3,0.5,7,5,1000939725248202606
0.5,0.1,7,6,6462491459236205921
0.5,0.3,0,9,1267476919019445243
0.5,0.1,9,7,2317399974975136371
0.3,0.5,5,1,8315142968664037256
0.5,0.3,1,0,3343277983829336790
0.3,0.1,7,0,831101728322376607
0.5,0.1,8,6,7214846530601129480
0.3,0.5,8,3,8462472216001710933
0.5,0.1,7,0,8792963611870455112
0.5,0.1,7,7,6953298640622880439
0.5,0.3,1,1,388624217692874085
0.3,0.3,0,4,6326640656248648777
0.5,0.1,9,8,4232265199993045067
0.3,0.5,8,4,1378657718533460485
0.5,0.3,1,2,8601690132123291773
0.5,0.1,7,1,5882075675798176230
0.5,0.3,1,3,3819864591229867086
0.5,0.1,8,7,2403447429960559993
0.5,0.1,7,8,1260428643327937841
0.5,0.1,9,9,7872694912129366146
0.5,0.3,2,0,5632237504820587028
0.5,0.3,1,4,1547183080890311214
0.5,0.3,3,2,8067269935982773487
0.5,0.3,2,1,4579867342970709028
0.5,0.1,8,8,4954228511858552075
0.5,0.3,4,4,2782843840826000160
0.5,0.3,1,5,188454692996216201
0.5,0.1,7,9,524015808604730659
0.5,0.3,3,3,6656224621075029471
0.5,0.3,4,5,6331446835009072827
0.5,0.3,0,0,8517586370250045854
0.5,0.3,2,2,1929294966486468965
0.5,0.3,1,6,1036382481391149069
0.5,0.3,0,1,6122482520637265119
0.5,0.3,3,4,4918002268331143739
0.5,0.3,4,6,1742704444759049208
0.5,0.3,2,3,5738150049700797587
0.5,0.1,8,9,4279290771976653869
0.5,0.3,1,7,7050100004764696376
0.5,0.3,2,4,7855457769171582100
0.5,0.3,3,5,1638724602365908009
0.5,0.3,0,2,2359790534390604698
0.5,0.1,8,0,4808907670492672897
0.5,0.3,5,6,2305906721453658117
0.5,0.3,4,7,617701782815331960
0.5,0.3,1,8,8610176431490732713
0.5,0.3,2,5,1441273047538308189
0.5,0.3,0,3,3477993446399844926
0.5,0.3,3,6,6659607051616973854
0.5,0.3,4,8,5330395447348289438
0.5,0.3,5,7,2605767052206639124
0.5,0.3,6,8,5979591181586768855
0.5,0.3,1,9,3323175637526445191
0.5,0.1,9,0,7949357956753642952
0.5,0.3,2,6,7523503357391062868
0.5,0.3,0,4,582737295700748129
0.5,0.3,3,7,6875292007833680622
0.5,0.3,5,8,6452917629870562203
0.5,0.3,4,9,3058665657346959112
0.5,0.3,6,9,1423679626648481721
0.5,0.1,8,1,8458872459081043723
0.5,0.3,2,7,522268929527215200
0.5,0.3,8,0,5633280374942434180
0.5,0.3,3,8,811872940008766268
0.5,0.3,0,5,7788474890799141779
0.5,0.3,5,0,6859495653389820883
0.5,0.3,5,9,6017531964849338562
0.3,0.1,8,1,3560872009312318020
0.5,0.3,7,0,3837117873140351268
0.5,0.3,3,9,3114121133522324051
0.5,0.3,2,8,3236762737145484435
0.5,0.3,8,1,5078826357740911820
0.5,0.3,0,6,2062687489778556813
0.5,0.3,5,1,6516883067216107697
0.5,0.3,6,0,3368250728734196267
0.5,0.3,7,1,6882426867731832368
0.5,0.1,9,1,5711982646133223227
0.5,0.3,2,9,2936392203701702358
0.5,0.3,8,2,2739364578593938186
0.5,0.3,0,7,5840557090783052025
0.5,0.3,4,0,415405818853231478
0.5,0.3,5,2,4312855064378930479
0.5,0.1,8,2,8707493654683808773
0.5,0.3,6,1,5999430269343679806
0.5,0.3,7,2,4705250623293219869
0.5,0.3,8,3,9111415741416407971
0.5,0.3,9,2,7489600041913584816
0.5,0.3,3,0,4167067653519284787
0.5,0.3,4,1,945880579142112365
0.5,0.3,5,3,5404070115999533422
0.5,0.3,6,2,4920130514979382001
0.5,0.3,7,3,223693058886741314
0.5,0.3,8,4,5955733941120500613
0.5,0.3,3,1,6979750188492579932
0.5,0.1,9,2,2729702064341436979
0.5,0.3,9,3,4721785941106802089
0.5,0.3,4,2,1133097123717471315
0.5,0.3,5,4,825443906060166781
0.5,0.3,6,3,8459549309802369268
0.5,0.3,7,4,1088146314138472040
0.5,0.3,8,5,2345388603701130295
0.5,0.5,0,4,5586784493608196326
0.3,0.1,4,0,9127232822706584961
0.5,0.3,4,3,1003494620556079099
0.5,0.1,8,3,8339474534488838466
0.5,0.3,9,4,5405481272257922454
0.5,0.3,5,5,8339945975461544332
0.5,0.5,0,5,3851912168302269172
0.5,0.3,6,4,1540729841756057138
0.5,0.3,8,6,5998481097442968898
0.5,0.3,7,5,1319947562671466015
0.5,0.5,0,6,8167576801684112129
0.5,0.3,9,5,6023937537355838006
0.5,0.1,9,3,6014591302466325104
0.5,0.5,1,6,5487387883601723794
0.5,0.3,6,5,8719306346583035851
0.5,0.5,2,8,5589308160906950913
0.5,0.5,0,7,3207879893588316091
0.5,0.3,7,6,3642494322700624452
0.5,0.3,8,7,2549053008844241852
0.5,0.5,1,7,975343408419747265
0.5,0.3,9,6,6832048344176465943
0.5,0.5,2,9,328462468052389495
0.5,0.5,4,0,8246206565128569200
0.5,0.5,0,8,2228543130315549027
0.5,0.3,6,6,9023212200831387056
0.5,0.3,7,7,2099843193767239667
0.5,0.3,8,8,442095529509613671
0.5,0.5,3,0,8164757655611911524
0.5,0.5,1,8,4487908551402108751
0.5,0.5,0,9,6448453179311666886
0.5,0.5,4,1,8639586159041778460
0.5,0.3,9,7,7922702277692182667
0.3,0.1,8,9,6595808682961656493
0.5,0.5,3,1,4189526196626216931
0.5,0.3,6,7,609138759694254233
0.5,0.5,1,9,1410078490828305059
0.5,0.3,8,9,4890655313846151942
0.5,0.3,7,8,6034680643305051603
0.5,0.5,1,0,28925537265705195
0.5,0.5,4,2,8172841459427624732
0.5,0.1,9,4,6217540065958468097
0.5,0.3,9,8,7615149605048678749
0.5,0.5,3,2,4694878834845352771
0.5,0.5,1,1,1858061879855327697
0.5,0.5,2,0,3703210747582518173
0.5,0.3,7,9,1632663717268316804
0.5,0.5,5,2,6014416940529206398
0.5,0.5,4,3,4961610940917510789
0.5,0.3,9,0,4814829448064635654
0.5,0.5,3,3,8429567727912335669
0.5,0.5,2,1,4177002342856691743
0.5,0.3,9,9,7672373460014403722
0.5,0.5,5,3,655213976379831490
0.5,0.5,1,2,5037987722070456724
0.5,0.5,4,4,8791760607632391737
0.5,0.5,6,4,494435790541448921
0.5,0.5,3,4,7942618050980060147
0.5,0.3,9,1,4164602062353367949
0.5,0.5,2,2,1852194085300778882
0.5,0.5,5,4,3283934068142199502
0.5,0.5,4,5,6619342738263876075
0.5,0.5,1,3,5779554414933886257
0.5,0.5,0,0,8211017453878016118
0.5,0.1,9,5,5613709301216020903
0.5,0.5,6,5,4311097010906465336
0.5,0.5,3,5,1199892615782219200
0.5,0.5,2,3,5270664178484191217
0.5,0.5,7,6,4311233320312209308
0.5,0.5,5,5,5935335800191047134
0.5,0.5,0,1,5753279547154426437
0.5,0.5,1,4,3376579871951341984
0.5,0.5,6,6,3218772751356271081
0.5,0.5,4,6,8028342004150761069
0.5,0.5,5,6,4542441182308137555
0.5,0.5,7,7,5877972794982185086
0.5,0.5,3,6,2762490713139357539
0.5,0.5,2,4,2613486266852075256
0.5,0.5,0,2,2514206421362755269
0.5,0.5,1,5,6707145321429085069
0.5,0.5,6,7,6849931473054481464
0.5,0.5,4,7,2287298724827758856
0.5,0.5,2,5,8565186996138256036
0.5,0.5,3,7,6583845722661955600
0.5,0.5,7,8,4694301972238191834
0.5,0.5,8,8,1494896047836661564
0.5,0.5,0,3,4663169251799449945
0.5,0.5,6,8,3997182020699368663
0.5,0.5,5,7,5804891136569998192
0.5,0.5,4,8,2096276814023910871
0.5,0.5,8,9,6550590592299397108
0.5,0.5,7,9,9136511508109557415
0.5,0.5,3,8,722766259228953016
0.5,0.5,2,6,5932435347373115386
0.5,0.5,5,8,6529174502594108658
0.5,0.5,6,9,139466542414175822
0.5,0.5,4,9,3381148411656525435
0.5,0.5,3,9,5573963664715854372
0.5,0.5,2,7,4403727276614008731
0.5,0.5,8,0,4348942584907490065
0.5,0.5,9,0,4699790226502594523
0.5,0.5,7,0,2937515644073877884
0.5,0.5,5,9,7935512895555700547
0.5,0.5,5,0,3535657522537489112
0.5,0.5,9,1,7249387533733832904
0.5,0.5,8,1,7655275136771442121
0.5,0.5,6,0,797777838436972486
0.5,0.5,7,1,3401264293411982200
0.5,0.5,5,1,6409125417290128673
0.5,0.5,9,2,3327906176403583843
0.5,0.5,8,2,8350623009553998698
0.5,0.5,7,2,3387340302584667978
0.3,0.5,8,5,7660888890666548141
0.5,0.5,6,1,4652246058618568046
0.5,0.5,9,3,3741607645656260567
0.5,0.5,8,3,4983503703447315346
0.5,0.5,7,3,4734124835752793319
0.5,0.5,6,2,1099268695463050086
0.5,0.5,9,4,3193938967368296749
0.5,0.5,8,4,220875086118797608
0.5,0.5,6,3,502375015480690760
0.5,0.5,7,4,7123617625654971005
0.3,0.1,4,1,8080451378610719074
0.5,0.5,9,5,3988841359330454411
0.5,0.5,8,5,224755112381329304
0.5,0.5,7,5,7687114192344738032
0.5,0.5,9,6,447422069537994243
0.5,0.5,8,6,4862765314530053007
0.5,0.5,9,7,3630344320093736199
0.5,0.5,8,7,6398680822770242067
0.5,0.5,9,8,2982402288178160131
0.5,0.5,9,9,4466342471854791162
0.3,0.5,9,4,3985249240937046372
0.3,0.5,8,6,2373029504704741780
0.3,0.1,7,1,3627757178665751350
0.3,0.5,9,5,2306364649995259070
0.3,0.5,9,6,7826815744972173423
0.3,0.5,9,7,685320804106066463
0.3,0.5,8,7,8593394207950602631
0.3,0.1,5,2,3853008524322821762
0.3,0.3,0,5,9004225966011920465
0.3,0.1,0,5,2465724526792812879
0.3,0.5,9,8,2827914480776743963
0.3,0.1,9,0,6166735702737964457
0.3,0.5,9,9,6886509596926378697
0.3,0.1,9,1,2654985948237578728
0.3,0.1,9,2,6535174172138557968
0.3,0.1,9,3,7912658037695633975
0.3,0.1,9,4,2075685358213395596
0.3,0.3,0,6,2672343670752617605
0.3,0.3,0,7,725467468841217883
0.3,0.1,4,2,650220653127695962
0.3,0.1,8,2,879392761446714813
0.3,0.1,4,3,4741651503434136792
0.3,0.1,5,3,6491776866176420149
0.3,0.1,9,5,4621173711574786293
0.3,0.1,4,4,3012387118929287419
0.3,0.1,8,3,6885603575624350678
0.3,0.1,1,7,2515524030966043047
0.3,0.1,5,4,4088954767375926750
0.3,0.1,1,8,7047359936476556065
0.3,0.1,1,9,2321264009252088824
0.3,0.1,0,6,7387815587413762698
0.3,0.1,0,7,4464914237776677086
0.3,0.1,4,5,8853003426489466167
0.3,0.1,0,8,285087255676364270
0.3,0.1,5,5,7716536612906574178
0.3,0.1,5,6,1037470142678111354
0.3,0.1,3,4,8396417329329269379
0.3,0.1,4,6,4939463643895804940
0.3,0.1,5,7,47774698448804838
0.3,0.1,4,7,874479921504211246
0.3,0.1,5,8,6621553784137768071
0.3,0.1,5,9,1101966720381610336
0.3,0.1,0,9,1808232303100324554
0.3,0.1,1,0,286324516157107642
0.3,0.1,3,5,8808556083323351933
0.3,0.1,2,0,7807932738721786676
0.3,0.1,2,1,2533067207223039244
0.3,0.1,2,2,3145449001481869234
0.3,0.1,2,3,2025117626872948081
0.3,0.1,1,1,1290229012871718819
