,key,c,m,N,distribution,mean,std,min,max
0,avg_local_receptiveness,0.1,0.3,10,Constant,0.19377777777777772,0.08065574867446638,0.0888888888888888,0.5333333333333334
1,avg_local_receptiveness,0.1,0.3,10,Uniform-80-10,0.19366666666666663,0.08030519055763564,0.0666666666666666,0.6222222222222222
2,avg_local_receptiveness,0.1,0.3,10,Exp-80-10,0.19148148148148145,0.07686104825292597,0.0666666666666666,0.6222222222222222
3,avg_local_receptiveness,0.1,0.3,10,Pareto-80-10,0.1912222222222222,0.07477465967332401,0.0666666666666666,0.6222222222222222
4,avg_local_receptiveness,0.1,0.3,20,Constant,0.21447368421052626,0.0631994148477842,0.1157894736842105,0.5684210526315789
5,avg_local_receptiveness,0.1,0.3,20,Uniform-80-10,0.21392105263157887,0.05849368595064472,0.1157894736842105,0.5684210526315789
6,avg_local_receptiveness,0.1,0.3,20,Exp-80-10,0.2134210526315789,0.056686149632180174,0.1157894736842105,0.5684210526315789
7,avg_local_receptiveness,0.1,0.3,20,Pareto-80-10,0.2112631578947368,0.05450826422536225,0.1157894736842105,0.5684210526315789
8,avg_local_receptiveness,0.1,0.3,30,Constant,0.2223908045977012,0.041674476501770176,0.1379310344827586,0.3540229885057472
9,avg_local_receptiveness,0.1,0.3,30,Uniform-80-10,0.2191494252873563,0.04053583032570117,0.1379310344827586,0.3540229885057472
10,avg_local_receptiveness,0.1,0.3,30,Exp-80-10,0.21900383141762453,0.03937236039437588,0.1379310344827586,0.3540229885057472
11,avg_local_receptiveness,0.1,0.3,30,Pareto-80-10,0.21813218390804598,0.03862723555345733,0.1379310344827586,0.3540229885057472
12,avg_local_receptiveness,0.1,0.3,45,Constant,0.2231717171717171,0.03568411911711051,0.1616161616161616,0.3616161616161616
13,avg_local_receptiveness,0.1,0.3,45,Uniform-80-10,0.22146464646464645,0.034596853421733596,0.1616161616161616,0.3616161616161616
14,avg_local_receptiveness,0.1,0.3,45,Exp-80-10,0.22085185185185177,0.03461356889923268,0.1606060606060605,0.3616161616161616
15,avg_local_receptiveness,0.1,0.3,45,Pareto-80-10,0.220280303030303,0.03439866022777812,0.1515151515151515,0.3616161616161616
16,avg_local_receptiveness,0.1,0.3,65,Constant,0.2257788461538461,0.03378497181989999,0.1600961538461538,0.3389423076923077
17,avg_local_receptiveness,0.1,0.3,65,Uniform-80-10,0.22471874999999997,0.03244044638434249,0.1600961538461538,0.3389423076923077
18,avg_local_receptiveness,0.1,0.3,65,Exp-80-10,0.22489743589743588,0.031054226200406786,0.1600961538461538,0.3389423076923077
19,avg_local_receptiveness,0.1,0.3,65,Pareto-80-10,0.22366706730769226,0.03035179116705137,0.1600961538461538,0.3552884615384615
20,avg_local_receptiveness,0.1,0.3,100,Constant,0.2356080808080808,0.031939328435935777,0.1757575757575758,0.3327272727272726
21,avg_local_receptiveness,0.1,0.3,100,Uniform-80-10,0.23330909090909088,0.02953664351787704,0.1757575757575758,0.3327272727272726
22,avg_local_receptiveness,0.1,0.3,100,Exp-80-10,0.2307319865319865,0.02857824080654425,0.1638383838383838,0.3327272727272726
23,avg_local_receptiveness,0.1,0.3,100,Pareto-80-10,0.22824292929292928,0.02724768574423721,0.1638383838383838,0.3327272727272726
24,avg_local_receptiveness,0.1,0.3,150,Constant,0.23481163310961967,0.030382045337191348,0.1702908277404921,0.3625950782997763
25,avg_local_receptiveness,0.1,0.3,150,Uniform-80-10,0.23293288590604025,0.02803162132258482,0.1702908277404921,0.3625950782997763
26,avg_local_receptiveness,0.1,0.3,150,Exp-80-10,0.23072125279642056,0.026277455749476358,0.1702908277404921,0.3625950782997763
27,avg_local_receptiveness,0.1,0.3,150,Pareto-80-10,0.22874250559284115,0.02528648433649441,0.1702908277404921,0.3625950782997763
28,avg_local_receptiveness,0.1,0.3,200,Constant,0.2402663316582914,0.030842761253883237,0.1924623115577889,0.3318592964824121
29,avg_local_receptiveness,0.1,0.3,200,Uniform-80-10,0.23660427135678389,0.028444317875847894,0.184321608040201,0.3318592964824121
30,avg_local_receptiveness,0.1,0.3,200,Exp-80-10,0.2354227805695142,0.028354376656966086,0.1680904522613065,0.3318592964824121
31,avg_local_receptiveness,0.1,0.3,200,Pareto-80-10,0.2321008793969849,0.02759251859415995,0.1680904522613065,0.3318592964824121
32,avg_local_receptiveness,0.1,0.3,300,Constant,0.24312731326644368,0.025620051382332386,0.1984169453734671,0.323835005574136
33,avg_local_receptiveness,0.1,0.3,300,Uniform-80-10,0.2399734671125975,0.024550062505478046,0.1984169453734671,0.323835005574136
34,avg_local_receptiveness,0.1,0.3,300,Exp-80-10,0.2375163879598662,0.024320505617725786,0.1767224080267558,0.323835005574136
35,avg_local_receptiveness,0.1,0.3,300,Pareto-80-10,0.2344916945373467,0.023868613265509656,0.1767224080267558,0.323835005574136
36,avg_local_receptiveness,0.1,0.3,400,Constant,0.23838145363408514,0.026399319027812014,0.1984711779448621,0.3098370927318295
37,avg_local_receptiveness,0.1,0.3,400,Uniform-80-10,0.23650570175438593,0.024925187184073563,0.1976817042606516,0.3098370927318295
38,avg_local_receptiveness,0.1,0.3,400,Exp-80-10,0.23473162071846276,0.024373604479394306,0.1976817042606516,0.3309147869674185
39,avg_local_receptiveness,0.1,0.3,400,Pareto-80-10,0.23195140977443607,0.022965955789349606,0.1976817042606516,0.3309147869674185
40,avg_local_receptiveness,0.1,0.3,500,Constant,0.24345947895791578,0.028831959164530244,0.195503006012024,0.3376432865731463
41,avg_local_receptiveness,0.1,0.3,500,Uniform-80-10,0.2409320641282565,0.02821355946420726,0.195503006012024,0.3376432865731463
42,avg_local_receptiveness,0.1,0.3,500,Exp-80-10,0.23847788911155637,0.026397033682351925,0.1774589178356713,0.3376432865731463
43,avg_local_receptiveness,0.1,0.3,500,Pareto-80-10,0.23526733466933863,0.025260261562815443,0.1774589178356713,0.3376432865731463
44,avg_local_receptiveness,0.1,0.3,600,Constant,0.23736605453533663,0.025110412576205533,0.1971174179187534,0.3355147468002226
45,avg_local_receptiveness,0.1,0.3,600,Uniform-80-10,0.2394580968280467,0.025416503657553685,0.1971174179187534,0.3355147468002226
46,avg_local_receptiveness,0.1,0.3,600,Exp-80-10,0.23843754405490628,0.024245529902785293,0.1971174179187534,0.3355147468002226
47,avg_local_receptiveness,0.1,0.3,600,Pareto-80-10,0.23565531441291035,0.023462582321753356,0.1971174179187534,0.3355147468002226
48,avg_local_receptiveness,0.1,0.3,700,Constant,0.24207639484978538,0.02960746994625949,0.1989536071939505,0.344692417739628
49,avg_local_receptiveness,0.1,0.3,700,Uniform-80-10,0.24004896791334557,0.027312289110446124,0.1989536071939505,0.344692417739628
50,avg_local_receptiveness,0.1,0.3,700,Exp-80-10,0.23915607330199606,0.026207769335479466,0.1980134886572654,0.344692417739628
51,avg_local_receptiveness,0.1,0.3,700,Pareto-80-10,0.23607665031677905,0.0247986960384053,0.1929818107500511,0.344692417739628
52,avg_local_receptiveness,0.1,0.3,800,Constant,0.24195641426783474,0.02800069073132754,0.1994086357947434,0.3249374217772215
53,avg_local_receptiveness,0.1,0.3,800,Uniform-80-10,0.24059604192740924,0.02582053713614837,0.1994086357947434,0.3249374217772215
54,avg_local_receptiveness,0.1,0.3,800,Exp-80-10,0.2392553712974551,0.0241857958855265,0.1987515644555694,0.3249374217772215
55,avg_local_receptiveness,0.1,0.3,800,Pareto-80-10,0.23608494993742177,0.022820039377302793,0.1987515644555694,0.3249374217772215
56,avg_local_receptiveness,0.1,0.3,900,Constant,0.24394482758620695,0.02684436161576809,0.1991941663576813,0.3364726239031022
57,avg_local_receptiveness,0.1,0.3,900,Uniform-80-10,0.23928248671363242,0.024792165124975982,0.198729452478062,0.3364726239031022
58,avg_local_receptiveness,0.1,0.3,900,Exp-80-10,0.23764257405347508,0.022901749078662676,0.198729452478062,0.3364726239031022
59,avg_local_receptiveness,0.1,0.3,900,Pareto-80-10,0.2350599740452354,0.0219690624610399,0.1869435174885675,0.3364726239031022
60,avg_local_receptiveness,0.1,0.3,1000,Constant,0.23595345345345342,0.0269680753037933,0.1997617617617618,0.3297637637637636
61,avg_local_receptiveness,0.1,0.3,1000,Uniform-80-10,0.2385325025025025,0.026789959822238057,0.1992912912912913,0.3297637637637636
62,avg_local_receptiveness,0.1,0.3,1000,Exp-80-10,0.23739846513179846,0.025281050903719866,0.1987827827827828,0.3297637637637636
63,avg_local_receptiveness,0.1,0.3,1000,Pareto-80-10,0.23457611611611606,0.023823570155618045,0.1976716716716716,0.3297637637637636
64,avg_local_receptiveness,0.3,0.3,10,Constant,0.5888888888888889,0.18682105741778704,0.2888888888888889,1.0
65,avg_local_receptiveness,0.3,0.3,10,Uniform-80-10,0.5932222222222222,0.18425117520450435,0.2888888888888889,1.0
66,avg_local_receptiveness,0.3,0.3,10,Exp-80-10,0.5881481481481481,0.17903986541530467,0.2888888888888889,1.0
67,avg_local_receptiveness,0.3,0.3,10,Pareto-80-10,0.5876666666666667,0.17647388026431857,0.2666666666666667,1.0
68,avg_local_receptiveness,0.3,0.3,20,Constant,0.6161052631578948,0.1736154391581171,0.3631578947368421,1.0
69,avg_local_receptiveness,0.3,0.3,20,Uniform-80-10,0.6153947368421053,0.16674227580114445,0.3631578947368421,1.0
70,avg_local_receptiveness,0.3,0.3,20,Exp-80-10,0.6074561403508772,0.16037219557822405,0.3210526315789473,1.0
71,avg_local_receptiveness,0.3,0.3,20,Pareto-80-10,0.6072368421052632,0.15721874155899623,0.3210526315789473,1.0
72,avg_local_receptiveness,0.3,0.3,30,Constant,0.6205057471264367,0.16082054973884008,0.4827586206896551,1.0
73,avg_local_receptiveness,0.3,0.3,30,Uniform-80-10,0.6212183908045977,0.1621890021908152,0.4643678160919539,1.0
74,avg_local_receptiveness,0.3,0.3,30,Exp-80-10,0.6226896551724138,0.1622836194059481,0.4643678160919539,1.0
75,avg_local_receptiveness,0.3,0.3,30,Pareto-80-10,0.6171551724137931,0.15694156118039904,0.3931034482758621,1.0
76,avg_local_receptiveness,0.3,0.3,45,Constant,0.6562323232323232,0.18802673158964014,0.4888888888888889,1.0
77,avg_local_receptiveness,0.3,0.3,45,Uniform-80-10,0.6594797979797979,0.1865879765492859,0.4434343434343434,1.0
78,avg_local_receptiveness,0.3,0.3,45,Exp-80-10,0.6475555555555556,0.17783439384595376,0.4434343434343434,1.0
79,avg_local_receptiveness,0.3,0.3,45,Pareto-80-10,0.6397676767676768,0.1693466413541587,0.4434343434343434,1.0
80,avg_local_receptiveness,0.3,0.3,65,Constant,0.722201923076923,0.2173678433108961,0.4923076923076923,1.0
81,avg_local_receptiveness,0.3,0.3,65,Uniform-80-10,0.6933774038461539,0.20074650680742084,0.4923076923076923,1.0
82,avg_local_receptiveness,0.3,0.3,65,Exp-80-10,0.689301282051282,0.19524248103564754,0.4769230769230769,1.0
83,avg_local_receptiveness,0.3,0.3,65,Pareto-80-10,0.6819158653846153,0.18704170148026772,0.4769230769230769,1.0
84,avg_local_receptiveness,0.3,0.3,100,Constant,0.7540141414141415,0.2150481994672905,0.4951515151515152,1.0
85,avg_local_receptiveness,0.3,0.3,100,Uniform-80-10,0.7473040404040404,0.2098274185687778,0.4949494949494948,1.0
86,avg_local_receptiveness,0.3,0.3,100,Exp-80-10,0.7376390572390572,0.2025076712401665,0.4949494949494948,1.0
87,avg_local_receptiveness,0.3,0.3,100,Pareto-80-10,0.7129136363636364,0.1926881180274353,0.4949494949494948,1.0
88,avg_local_receptiveness,0.3,0.3,150,Constant,0.8206058165548097,0.2148037103473431,0.4970022371364653,1.0
89,avg_local_receptiveness,0.3,0.3,150,Uniform-80-10,0.8230255033557047,0.20290085588835188,0.4967337807606264,1.0
90,avg_local_receptiveness,0.3,0.3,150,Exp-80-10,0.8050902311707682,0.19569998371201502,0.4966442953020133,1.0
91,avg_local_receptiveness,0.3,0.3,150,Pareto-80-10,0.7694053691275167,0.19471438415442546,0.4966442953020133,1.0
92,avg_local_receptiveness,0.3,0.3,200,Constant,0.8591879396984925,0.20409323148097458,0.4974874371859296,1.0
93,avg_local_receptiveness,0.3,0.3,200,Uniform-80-10,0.8411688442211056,0.19913771572228184,0.4974874371859296,1.0
94,avg_local_receptiveness,0.3,0.3,200,Exp-80-10,0.8365951423785596,0.18912260272944798,0.4974874371859296,1.0
95,avg_local_receptiveness,0.3,0.3,200,Pareto-80-10,0.800796608040201,0.19144719605450344,0.4974874371859296,1.0
96,avg_local_receptiveness,0.3,0.3,300,Constant,0.9416071348940913,0.13573630571963777,0.49835005574136,1.0
97,avg_local_receptiveness,0.3,0.3,300,Uniform-80-10,0.9335787068004459,0.1189623827434879,0.49835005574136,1.0
98,avg_local_receptiveness,0.3,0.3,300,Exp-80-10,0.9113854329245634,0.12677679901704073,0.49835005574136,1.0
99,avg_local_receptiveness,0.3,0.3,300,Pareto-80-10,0.881627536231884,0.13651853051303806,0.49835005574136,1.0
100,avg_local_receptiveness,0.3,0.3,400,Constant,0.9358216791979949,0.1435251799952946,0.498796992481203,1.0
101,avg_local_receptiveness,0.3,0.3,400,Uniform-80-10,0.9299632205513784,0.12890966272286083,0.498796992481203,1.0
102,avg_local_receptiveness,0.3,0.3,400,Exp-80-10,0.9118520885547199,0.12416996493902926,0.498796992481203,1.0
103,avg_local_receptiveness,0.3,0.3,400,Pareto-80-10,0.8672726503759398,0.14411829252025435,0.498796992481203,1.0
104,avg_local_receptiveness,0.3,0.3,500,Constant,0.9470766332665329,0.13941172977799585,0.5001523046092182,1.0
105,avg_local_receptiveness,0.3,0.3,500,Uniform-80-10,0.9274162324649299,0.14302137682959445,0.4990701402805612,1.0
106,avg_local_receptiveness,0.3,0.3,500,Exp-80-10,0.9104998797595191,0.14144911978149924,0.4990701402805612,1.0
107,avg_local_receptiveness,0.3,0.3,500,Pareto-80-10,0.8740796593186373,0.15086221648079004,0.4990701402805612,1.0
108,avg_local_receptiveness,0.3,0.3,600,Constant,0.9818222593210909,0.06817643251421114,0.5076293823038397,1.0
109,avg_local_receptiveness,0.3,0.3,600,Uniform-80-10,0.9594055648302728,0.08973355857955044,0.4991708402893711,1.0
110,avg_local_receptiveness,0.3,0.3,600,Exp-80-10,0.9463685216100909,0.08337922796985667,0.4991708402893711,1.0
111,avg_local_receptiveness,0.3,0.3,600,Pareto-80-10,0.897043405676127,0.1246267364632123,0.499170840289371,1.0
112,avg_local_receptiveness,0.3,0.3,700,Constant,0.9759427345187,0.08302698043971973,0.4994318414060903,1.0
113,avg_local_receptiveness,0.3,0.3,700,Uniform-80-10,0.9632020437359492,0.07607713575123842,0.4994318414060903,1.0
114,avg_local_receptiveness,0.3,0.3,700,Exp-80-10,0.9467291368621841,0.07737272406374499,0.4994318414060903,1.0
115,avg_local_receptiveness,0.3,0.3,700,Pareto-80-10,0.9056973227059063,0.10827046103504313,0.4994318414060903,1.0
116,avg_local_receptiveness,0.3,0.3,800,Constant,0.9783036295369212,0.08346179316326159,0.4995275344180225,1.0
117,avg_local_receptiveness,0.3,0.3,800,Uniform-80-10,0.9544972152690864,0.10551173808424055,0.499424280350438,1.0
118,avg_local_receptiveness,0.3,0.3,800,Exp-80-10,0.942083354192741,0.09872034139753479,0.499386733416771,1.0
119,avg_local_receptiveness,0.3,0.3,800,Pareto-80-10,0.9020967850438046,0.12342882887548422,0.499386733416771,1.0
120,avg_local_receptiveness,0.3,0.3,900,Constant,0.9918963292547276,0.008678644145324554,0.9584006921270548,1.0
121,avg_local_receptiveness,0.3,0.3,900,Uniform-80-10,0.9704550611790879,0.05210416277596649,0.5023013224570511,1.0
122,avg_local_receptiveness,0.3,0.3,900,Exp-80-10,0.9529947019321882,0.05321416187832695,0.5023013224570511,1.0
123,avg_local_receptiveness,0.3,0.3,900,Pareto-80-10,0.905869744160178,0.10458837015454713,0.5023013224570511,1.0
124,avg_local_receptiveness,0.3,0.3,1000,Constant,0.9872043043043043,0.04892553373771658,0.5095915915915915,1.0
125,avg_local_receptiveness,0.3,0.3,1000,Uniform-80-10,0.9701409109109107,0.05125298277715799,0.5069489489489488,1.0
126,avg_local_receptiveness,0.3,0.3,1000,Exp-80-10,0.9524039172505839,0.05623748033634637,0.5069489489489488,1.0
127,avg_local_receptiveness,0.3,0.3,1000,Pareto-80-10,0.9101354204204203,0.09390712438426936,0.5069489489489488,1.0
128,avg_local_receptiveness,0.5,0.3,10,Constant,0.956,0.1284935304014634,0.4666666666666666,1.0
129,avg_local_receptiveness,0.5,0.3,10,Uniform-80-10,0.9497777777777777,0.13582704321704925,0.4444444444444445,1.0
130,avg_local_receptiveness,0.5,0.3,10,Exp-80-10,0.9428148148148148,0.14104648412650647,0.4444444444444445,1.0
131,avg_local_receptiveness,0.5,0.3,10,Pareto-80-10,0.938,0.14519910821572105,0.4444444444444445,1.0
132,avg_local_receptiveness,0.5,0.3,20,Constant,0.9852631578947368,0.05279082765909649,0.6052631578947368,1.0
133,avg_local_receptiveness,0.5,0.3,20,Uniform-80-10,0.9828684210526316,0.062039371488996006,0.5210526315789473,1.0
134,avg_local_receptiveness,0.5,0.3,20,Exp-80-10,0.9823333333333333,0.06266074700089987,0.4947368421052632,1.0
135,avg_local_receptiveness,0.5,0.3,20,Pareto-80-10,0.9845394736842106,0.05910196851953832,0.4947368421052632,1.0
136,avg_local_receptiveness,0.5,0.3,30,Constant,0.9939540229885057,0.04184836133624712,0.5954022988505748,1.0
137,avg_local_receptiveness,0.5,0.3,30,Uniform-80-10,0.9918275862068966,0.049794551588839546,0.4850574712643679,1.0
138,avg_local_receptiveness,0.5,0.3,30,Exp-80-10,0.9900383141762453,0.05308635061875429,0.4850574712643679,1.0
139,avg_local_receptiveness,0.5,0.3,30,Pareto-80-10,0.9907183908045977,0.04755153149115999,0.4850574712643679,1.0
140,avg_local_receptiveness,0.5,0.3,45,Constant,0.9982222222222222,0.008753172691863651,0.9555555555555556,1.0
141,avg_local_receptiveness,0.5,0.3,45,Uniform-80-10,0.9977777777777778,0.009710749392433118,0.9555555555555556,1.0
142,avg_local_receptiveness,0.5,0.3,45,Exp-80-10,0.9962289562289561,0.016976623678891318,0.834343434343434,1.0
143,avg_local_receptiveness,0.5,0.3,45,Pareto-80-10,0.9956363636363637,0.017689875685471264,0.834343434343434,1.0
144,avg_local_receptiveness,0.5,0.3,65,Constant,0.9990769230769229,0.005275280246085087,0.9692307692307692,1.0
145,avg_local_receptiveness,0.5,0.3,65,Uniform-80-10,0.9987740384615384,0.006743483973284537,0.9394230769230768,1.0
146,avg_local_receptiveness,0.5,0.3,65,Exp-80-10,0.9985673076923077,0.006943327246049288,0.9394230769230768,1.0
147,avg_local_receptiveness,0.5,0.3,65,Pareto-80-10,0.9979399038461538,0.009492524983909092,0.9105769230769232,1.0
148,avg_local_receptiveness,0.5,0.3,100,Constant,0.9992,0.003938927711338651,0.98,1.0
149,avg_local_receptiveness,0.5,0.3,100,Uniform-80-10,0.9989,0.004571047184377895,0.98,1.0
150,avg_local_receptiveness,0.5,0.3,100,Exp-80-10,0.9986000000000002,0.005111466550903311,0.98,1.0
151,avg_local_receptiveness,0.5,0.3,100,Pareto-80-10,0.9983020202020202,0.005919769748221358,0.9604040404040404,1.0
152,avg_local_receptiveness,0.5,0.3,150,Constant,0.9997351230425057,0.002648769574944099,0.973512304250559,1.0
153,avg_local_receptiveness,0.5,0.3,150,Uniform-80-10,0.999668456375839,0.0027989495472689994,0.973512304250559,1.0
154,avg_local_receptiveness,0.5,0.3,150,Exp-80-10,0.9996017897091722,0.002943478694667139,0.973512304250559,1.0
155,avg_local_receptiveness,0.5,0.3,150,Pareto-80-10,0.9991053691275168,0.0046361481807721565,0.9477404921700222,1.0
156,avg_local_receptiveness,0.5,0.3,200,Constant,0.9999000000000001,0.001000000000000001,0.99,1.0
157,avg_local_receptiveness,0.5,0.3,200,Uniform-80-10,0.9997500000000001,0.0015651673213169883,0.99,1.0
158,avg_local_receptiveness,0.5,0.3,200,Exp-80-10,0.9996666666666666,0.0017980541941701321,0.99,1.0
159,avg_local_receptiveness,0.5,0.3,200,Pareto-80-10,0.9996250000000001,0.0019022147756317068,0.99,1.0
160,avg_local_receptiveness,0.5,0.3,300,Constant,1.0,0.0,1.0,1.0
161,avg_local_receptiveness,0.5,0.3,300,Uniform-80-10,0.9998333333333334,0.0010434448808780156,0.9933333333333332,1.0
162,avg_local_receptiveness,0.5,0.3,300,Exp-80-10,0.9997555555555556,0.0012550406234187747,0.9933333333333332,1.0
163,avg_local_receptiveness,0.5,0.3,300,Pareto-80-10,0.9996667781493869,0.00152848959520364,0.9867112597547376,1.0
164,avg_local_receptiveness,0.5,0.3,400,Constant,1.0,0.0,1.0,1.0
165,avg_local_receptiveness,0.5,0.3,400,Uniform-80-10,0.99995,0.000498742136372103,0.9949999999999996,1.0
166,avg_local_receptiveness,0.5,0.3,400,Exp-80-10,0.9998834168755222,0.0008586017401921626,0.9900250626566416,1.0
167,avg_local_receptiveness,0.5,0.3,400,Pareto-80-10,0.9998251879699248,0.001103962362998766,0.9900250626566416,1.0
168,avg_local_receptiveness,0.5,0.3,500,Constant,1.0,0.0,1.0,1.0
169,avg_local_receptiveness,0.5,0.3,500,Uniform-80-10,0.99992,0.0005614052719711049,0.9960000000000002,1.0
170,avg_local_receptiveness,0.5,0.3,500,Exp-80-10,0.9998534936539748,0.0009403777291995236,0.9880480961923848,1.0
171,avg_local_receptiveness,0.5,0.3,500,Pareto-80-10,0.9998301603206414,0.0009849157336493503,0.9880480961923848,1.0
172,avg_local_receptiveness,0.5,0.3,600,Constant,1.0,0.0,1.0,1.0
173,avg_local_receptiveness,0.5,0.3,600,Uniform-80-10,0.9999833333333333,0.0002357022603954899,0.996666666666667,1.0
174,avg_local_receptiveness,0.5,0.3,600,Exp-80-10,0.9999666666666667,0.000332216635610808,0.996666666666667,1.0
175,avg_local_receptiveness,0.5,0.3,600,Pareto-80-10,0.9999084168057873,0.0006810891349521891,0.9933444629938788,1.0
176,avg_local_receptiveness,0.5,0.3,700,Constant,1.0,0.0,1.0,1.0
177,avg_local_receptiveness,0.5,0.3,700,Uniform-80-10,0.9999857142857143,0.00020203050891046812,0.9971428571428568,1.0
178,avg_local_receptiveness,0.5,0.3,700,Exp-80-10,0.9999619047619046,0.0003282551778552116,0.9971428571428568,1.0
179,avg_local_receptiveness,0.5,0.3,700,Pareto-80-10,0.9999285714285713,0.0004466299223693761,0.9971428571428568,1.0
180,avg_local_receptiveness,0.5,0.3,800,Constant,1.0,0.0,1.0,1.0
181,avg_local_receptiveness,0.5,0.3,800,Uniform-80-10,0.9999875,0.00017677669529666447,0.9974999999999996,1.0
182,avg_local_receptiveness,0.5,0.3,800,Exp-80-10,0.99995,0.0003505847957294981,0.9974999999999996,1.0
183,avg_local_receptiveness,0.5,0.3,800,Pareto-80-10,0.999925,0.00042700213941820734,0.9974999999999996,1.0
184,avg_local_receptiveness,0.5,0.3,900,Constant,1.0,0.0,1.0,1.0
185,avg_local_receptiveness,0.5,0.3,900,Uniform-80-10,0.9999666913854901,0.0003503447342496955,0.9955604993202324,1.0
186,avg_local_receptiveness,0.5,0.3,900,Exp-80-10,0.9999629794421785,0.0003377716896780933,0.9955604993202324,1.0
187,avg_local_receptiveness,0.5,0.3,900,Pareto-80-10,0.9999444568038561,0.00038120413515160763,0.9955604993202324,1.0
188,avg_local_receptiveness,0.5,0.3,1000,Constant,1.0,0.0,1.0,1.0
189,avg_local_receptiveness,0.5,0.3,1000,Uniform-80-10,1.0,0.0,1.0,1.0
190,avg_local_receptiveness,0.5,0.3,1000,Exp-80-10,0.9999933333333333,0.00011547005383791239,0.9980000000000002,1.0
191,avg_local_receptiveness,0.5,0.3,1000,Pareto-80-10,0.999955,0.00029697725286928137,0.9980000000000002,1.0
192,avg_local_receptiveness,0.1,0.5,10,Constant,0.1857777777777777,0.07129605579565018,0.0666666666666666,0.4
193,avg_local_receptiveness,0.1,0.5,10,Uniform-80-10,0.18533333333333332,0.07042945201686927,0.0666666666666666,0.4
194,avg_local_receptiveness,0.1,0.5,10,Exp-80-10,0.1862222222222222,0.0727518810958255,0.0666666666666666,0.6222222222222222
195,avg_local_receptiveness,0.1,0.5,10,Pareto-80-10,0.18666666666666665,0.0747946020433112,0.0666666666666666,0.6222222222222222
196,avg_local_receptiveness,0.1,0.5,20,Constant,0.20736842105263154,0.06192306960372677,0.1157894736842105,0.5684210526315789
197,avg_local_receptiveness,0.1,0.5,20,Uniform-80-10,0.2012894736842105,0.05453959511690134,0.1157894736842105,0.5684210526315789
198,avg_local_receptiveness,0.1,0.5,20,Exp-80-10,0.2002631578947368,0.05230159714303103,0.1157894736842105,0.5684210526315789
199,avg_local_receptiveness,0.1,0.5,20,Pareto-80-10,0.20165789473684206,0.05456437243453651,0.1157894736842105,0.5684210526315789
200,avg_local_receptiveness,0.1,0.5,30,Constant,0.21312643678160917,0.03854239934704341,0.1402298850574712,0.3264367816091955
201,avg_local_receptiveness,0.1,0.5,30,Uniform-80-10,0.21359770114942528,0.03774427399489806,0.1402298850574712,0.3563218390804596
202,avg_local_receptiveness,0.1,0.5,30,Exp-80-10,0.21254406130268197,0.03717841277509285,0.1402298850574712,0.3563218390804596
203,avg_local_receptiveness,0.1,0.5,30,Pareto-80-10,0.2119597701149425,0.03742533617711922,0.1402298850574712,0.3563218390804596
204,avg_local_receptiveness,0.1,0.5,45,Constant,0.2163131313131313,0.04258242866759464,0.1575757575757575,0.4575757575757576
205,avg_local_receptiveness,0.1,0.5,45,Uniform-80-10,0.21554545454545448,0.03972382986234918,0.1525252525252525,0.4575757575757576
206,avg_local_receptiveness,0.1,0.5,45,Exp-80-10,0.21542087542087537,0.03859531597717461,0.1525252525252525,0.4575757575757576
207,avg_local_receptiveness,0.1,0.5,45,Pareto-80-10,0.21348484848484844,0.03724096983866118,0.1343434343434343,0.4575757575757576
208,avg_local_receptiveness,0.1,0.5,65,Constant,0.22504326923076917,0.031418215819351565,0.1581730769230769,0.2990384615384615
209,avg_local_receptiveness,0.1,0.5,65,Uniform-80-10,0.22292548076923077,0.029708144927970973,0.1581730769230769,0.2990384615384615
210,avg_local_receptiveness,0.1,0.5,65,Exp-80-10,0.2206939102564102,0.029366322859587915,0.1581730769230769,0.3254807692307692
211,avg_local_receptiveness,0.1,0.5,65,Pareto-80-10,0.2193125,0.02957117391074694,0.1581730769230769,0.3254807692307692
212,avg_local_receptiveness,0.1,0.5,100,Constant,0.23199393939393936,0.02995720988046009,0.1806060606060606,0.3107070707070707
213,avg_local_receptiveness,0.1,0.5,100,Uniform-80-10,0.2296323232323232,0.027627968451240506,0.1713131313131312,0.3107070707070707
214,avg_local_receptiveness,0.1,0.5,100,Exp-80-10,0.22866801346801338,0.027440295864022732,0.1709090909090909,0.3717171717171716
215,avg_local_receptiveness,0.1,0.5,100,Pareto-80-10,0.22605303030303026,0.02658723783396566,0.1676767676767676,0.3717171717171716
216,avg_local_receptiveness,0.1,0.5,150,Constant,0.23270156599552572,0.03677080510079826,0.174586129753915,0.3954362416107383
217,avg_local_receptiveness,0.1,0.5,150,Uniform-80-10,0.23136823266219234,0.03179715863891801,0.174586129753915,0.3954362416107383
218,avg_local_receptiveness,0.1,0.5,150,Exp-80-10,0.2289085756897837,0.029265607078459197,0.1645637583892617,0.3954362416107383
219,avg_local_receptiveness,0.1,0.5,150,Pareto-80-10,0.22715413870246082,0.027691985125192452,0.1645637583892617,0.3954362416107383
220,avg_local_receptiveness,0.1,0.5,200,Constant,0.23462562814070348,0.02712111832954606,0.1861306532663316,0.3075879396984925
221,avg_local_receptiveness,0.1,0.5,200,Uniform-80-10,0.2348690954773869,0.02801432597350096,0.1861306532663316,0.3265829145728643
222,avg_local_receptiveness,0.1,0.5,200,Exp-80-10,0.23318023450586262,0.02643225591466808,0.1828140703517588,0.3265829145728643
223,avg_local_receptiveness,0.1,0.5,200,Pareto-80-10,0.23035628140703515,0.025698165008430016,0.1780904522613065,0.3265829145728643
224,avg_local_receptiveness,0.1,0.5,300,Constant,0.24045395763656632,0.02597736807749333,0.1727982162764771,0.3236120401337792
225,avg_local_receptiveness,0.1,0.5,300,Uniform-80-10,0.23771505016722408,0.02460261885981623,0.1727982162764771,0.3236120401337792
226,avg_local_receptiveness,0.1,0.5,300,Exp-80-10,0.23585358602749906,0.02347250622965528,0.1727982162764771,0.3236120401337792
227,avg_local_receptiveness,0.1,0.5,300,Pareto-80-10,0.23457792642140468,0.023111302656425307,0.1727982162764771,0.3236120401337792
228,avg_local_receptiveness,0.1,0.5,400,Constant,0.23914473684210527,0.02419603839803866,0.1991353383458646,0.2910902255639097
229,avg_local_receptiveness,0.1,0.5,400,Uniform-80-10,0.2364695488721804,0.022903027009398984,0.1979448621553884,0.2922180451127819
230,avg_local_receptiveness,0.1,0.5,400,Exp-80-10,0.2360820802005012,0.023706715448018195,0.1869548872180451,0.3156015037593985
231,avg_local_receptiveness,0.1,0.5,400,Pareto-80-10,0.23323323934837092,0.023328016934293094,0.1869548872180451,0.3156015037593985
232,avg_local_receptiveness,0.1,0.5,500,Constant,0.2402734268537074,0.0278717851804488,0.1992625250501001,0.3232464929859721
233,avg_local_receptiveness,0.1,0.5,500,Uniform-80-10,0.24080737474949898,0.027961479138201486,0.1987414829659318,0.3410581162324649
234,avg_local_receptiveness,0.1,0.5,500,Exp-80-10,0.24022893787575147,0.026349463590196905,0.1987414829659318,0.3410581162324649
235,avg_local_receptiveness,0.1,0.5,500,Pareto-80-10,0.23774212424849697,0.02499166477152453,0.1984448897795591,0.3410581162324649
236,avg_local_receptiveness,0.1,0.5,600,Constant,0.23996739009460208,0.023926551968088385,0.1986366165831942,0.32708959376739
237,avg_local_receptiveness,0.1,0.5,600,Uniform-80-10,0.23869176405119638,0.025034186041991327,0.1965498052309404,0.32708959376739
238,avg_local_receptiveness,0.1,0.5,600,Exp-80-10,0.23803446484882207,0.02438807371265256,0.1727156371730662,0.32708959376739
239,avg_local_receptiveness,0.1,0.5,600,Pareto-80-10,0.23490827768503056,0.0239750056531089,0.1727156371730662,0.32708959376739
240,avg_local_receptiveness,0.1,0.5,700,Constant,0.23383629675045983,0.025350181326088354,0.1994768035969752,0.2938606172082567
241,avg_local_receptiveness,0.1,0.5,700,Uniform-80-10,0.23492603719599425,0.02584071145264237,0.1979113018597997,0.3424443081953812
242,avg_local_receptiveness,0.1,0.5,700,Exp-80-10,0.23533525444512568,0.024519743222698308,0.1962150010218679,0.3424443081953812
243,avg_local_receptiveness,0.1,0.5,700,Pareto-80-10,0.23342288984263232,0.02391185191890652,0.1962150010218679,0.3424443081953812
244,avg_local_receptiveness,0.1,0.5,800,Constant,0.24051530037546928,0.02771622203858898,0.1994211514392991,0.3245525657071338
245,avg_local_receptiveness,0.1,0.5,800,Uniform-80-10,0.24044000312891106,0.02791529163995079,0.1943804755944931,0.3245525657071338
246,avg_local_receptiveness,0.1,0.5,800,Exp-80-10,0.2393973299958281,0.02672993779438408,0.1943804755944931,0.3245525657071338
247,avg_local_receptiveness,0.1,0.5,800,Pareto-80-10,0.23684821652065075,0.025129328663071573,0.1943804755944931,0.3245525657071338
248,avg_local_receptiveness,0.1,0.5,900,Constant,0.24037562724014336,0.030320285485689755,0.2002150537634409,0.349358546533185
249,avg_local_receptiveness,0.1,0.5,900,Uniform-80-10,0.23831881102459518,0.027268807433165246,0.1989692250648869,0.349358546533185
250,avg_local_receptiveness,0.1,0.5,900,Exp-80-10,0.23689495324022572,0.025267893377637397,0.1979285626004202,0.349358546533185
251,avg_local_receptiveness,0.1,0.5,900,Pareto-80-10,0.23428904956124086,0.02384048081776611,0.197149919663824,0.349358546533185
252,avg_local_receptiveness,0.1,0.5,1000,Constant,0.23774618618618618,0.028405948368822476,0.1957797797797797,0.3248168168168168
253,avg_local_receptiveness,0.1,0.5,1000,Uniform-80-10,0.2370094094094094,0.027648331235546632,0.1957797797797797,0.3436716716716717
254,avg_local_receptiveness,0.1,0.5,1000,Exp-80-10,0.23580260260260255,0.02539692670922366,0.1957797797797797,0.3436716716716717
255,avg_local_receptiveness,0.1,0.5,1000,Pareto-80-10,0.2340291291291291,0.023684691651964115,0.1948868868868868,0.3436716716716717
256,avg_local_receptiveness,0.3,0.5,10,Constant,0.575111111111111,0.18037607413599316,0.2666666666666667,1.0
257,avg_local_receptiveness,0.3,0.5,10,Uniform-80-10,0.5752222222222223,0.17775233625883596,0.2666666666666667,1.0
258,avg_local_receptiveness,0.3,0.5,10,Exp-80-10,0.566888888888889,0.1692929216333801,0.2666666666666667,1.0
259,avg_local_receptiveness,0.3,0.5,10,Pareto-80-10,0.5687222222222222,0.16956298039206727,0.2666666666666667,1.0
260,avg_local_receptiveness,0.3,0.5,20,Constant,0.6136315789473684,0.1572681079736523,0.4263157894736841,1.0
261,avg_local_receptiveness,0.3,0.5,20,Uniform-80-10,0.6074473684210526,0.15348717093395473,0.3421052631578947,1.0
262,avg_local_receptiveness,0.3,0.5,20,Exp-80-10,0.6034736842105264,0.1504091086712506,0.3421052631578947,1.0
263,avg_local_receptiveness,0.3,0.5,20,Pareto-80-10,0.6031315789473684,0.1454361015015324,0.3421052631578947,1.0
264,avg_local_receptiveness,0.3,0.5,30,Constant,0.6446896551724137,0.1752402161233131,0.4827586206896551,1.0
265,avg_local_receptiveness,0.3,0.5,30,Uniform-80-10,0.6292298850574712,0.1646992593655729,0.4827586206896551,1.0
266,avg_local_receptiveness,0.3,0.5,30,Exp-80-10,0.623639846743295,0.15856328971830913,0.4643678160919539,1.0
267,avg_local_receptiveness,0.3,0.5,30,Pareto-80-10,0.6161379310344828,0.1511346988215365,0.3954022988505747,1.0
268,avg_local_receptiveness,0.3,0.5,45,Constant,0.6562323232323232,0.1886572718130475,0.4434343434343435,1.0
269,avg_local_receptiveness,0.3,0.5,45,Uniform-80-10,0.6484797979797979,0.1798736030565772,0.4434343434343435,1.0
270,avg_local_receptiveness,0.3,0.5,45,Exp-80-10,0.6433602693602692,0.17324106549341128,0.4434343434343435,1.0
271,avg_local_receptiveness,0.3,0.5,45,Pareto-80-10,0.6367121212121212,0.1644413050512903,0.4303030303030302,1.0
272,avg_local_receptiveness,0.3,0.5,65,Constant,0.707125,0.21705867064701245,0.4923076923076923,1.0
273,avg_local_receptiveness,0.3,0.5,65,Uniform-80-10,0.7045625000000001,0.2081811418859276,0.4634615384615385,1.0
274,avg_local_receptiveness,0.3,0.5,65,Exp-80-10,0.6933669871794872,0.19815497512701027,0.4634615384615385,1.0
275,avg_local_receptiveness,0.3,0.5,65,Pareto-80-10,0.6845300480769231,0.19140356191680988,0.4634615384615385,1.0
276,avg_local_receptiveness,0.3,0.5,100,Constant,0.7439616161616162,0.21568752241297923,0.4949494949494948,1.0
277,avg_local_receptiveness,0.3,0.5,100,Uniform-80-10,0.7280363636363637,0.2078224834759647,0.4949494949494948,1.0
278,avg_local_receptiveness,0.3,0.5,100,Exp-80-10,0.7255811447811448,0.20075593871600309,0.4949494949494948,1.0
279,avg_local_receptiveness,0.3,0.5,100,Pareto-80-10,0.7093585858585858,0.19026060888685187,0.4692929292929292,1.0
280,avg_local_receptiveness,0.3,0.5,150,Constant,0.8347883668903804,0.2108537849512783,0.4966442953020133,1.0
281,avg_local_receptiveness,0.3,0.5,150,Uniform-80-10,0.8119257270693513,0.20993357339691263,0.4966442953020133,1.0
282,avg_local_receptiveness,0.3,0.5,150,Exp-80-10,0.7890156599552572,0.20507984385270786,0.4966442953020133,1.0
283,avg_local_receptiveness,0.3,0.5,150,Pareto-80-10,0.7602228187919464,0.1977566700137143,0.4966442953020133,1.0
284,avg_local_receptiveness,0.3,0.5,200,Constant,0.8526170854271357,0.2038374835511784,0.4974874371859296,1.0
285,avg_local_receptiveness,0.3,0.5,200,Uniform-80-10,0.8441947236180906,0.1931389437984263,0.4974874371859296,1.0
286,avg_local_receptiveness,0.3,0.5,200,Exp-80-10,0.8321664991624791,0.18916803854991354,0.4974874371859296,1.0
287,avg_local_receptiveness,0.3,0.5,200,Pareto-80-10,0.8037062814070353,0.18679289814874342,0.4974874371859296,1.0
288,avg_local_receptiveness,0.3,0.5,300,Constant,0.9270024526198438,0.14696918300669778,0.5005574136008918,1.0
289,avg_local_receptiveness,0.3,0.5,300,Uniform-80-10,0.916666220735786,0.13898392934513537,0.49835005574136,1.0
290,avg_local_receptiveness,0.3,0.5,300,Exp-80-10,0.9005262727610553,0.13774937722557865,0.49835005574136,1.0
291,avg_local_receptiveness,0.3,0.5,300,Pareto-80-10,0.8789447603121516,0.13760159151896503,0.49835005574136,1.0
292,avg_local_receptiveness,0.3,0.5,400,Constant,0.9660387218045112,0.08556058897240996,0.4997619047619047,1.0
293,avg_local_receptiveness,0.3,0.5,400,Uniform-80-10,0.9421363408521302,0.10536782244753343,0.498859649122807,1.0
294,avg_local_receptiveness,0.3,0.5,400,Exp-80-10,0.9225596908939013,0.10800215758103318,0.498796992481203,1.0
295,avg_local_receptiveness,0.3,0.5,400,Pareto-80-10,0.8816761904761904,0.1282263632597417,0.498796992481203,1.0
296,avg_local_receptiveness,0.3,0.5,500,Constant,0.9409226452905811,0.14184488670979978,0.4992865731462926,1.0
297,avg_local_receptiveness,0.3,0.5,500,Uniform-80-10,0.9371252905811623,0.12479622121273239,0.4990701402805611,1.0
298,avg_local_receptiveness,0.3,0.5,500,Exp-80-10,0.916157728790915,0.12862929394740616,0.4990701402805611,1.0
299,avg_local_receptiveness,0.3,0.5,500,Pareto-80-10,0.880242144288577,0.1409924827545315,0.4990701402805611,1.0
300,avg_local_receptiveness,0.3,0.5,600,Constant,0.9631651641624931,0.10706261861822082,0.4992153589315524,1.0
301,avg_local_receptiveness,0.3,0.5,600,Uniform-80-10,0.9489526432943797,0.10510354983096189,0.4991652754590986,1.0
302,avg_local_receptiveness,0.3,0.5,600,Exp-80-10,0.9376535707660916,0.0992950789022553,0.4991652754590986,1.0
303,avg_local_receptiveness,0.3,0.5,600,Pareto-80-10,0.9021432109070675,0.11924999500760795,0.4991652754590986,1.0
304,avg_local_receptiveness,0.3,0.5,700,Constant,0.980733987328837,0.05049271788627723,0.5004659717964439,1.0
305,avg_local_receptiveness,0.3,0.5,700,Uniform-80-10,0.9571049458409974,0.08338378638411871,0.4993500919681176,1.0
306,avg_local_receptiveness,0.3,0.5,700,Exp-80-10,0.9444260644458069,0.07932620719932912,0.4993500919681176,1.0
307,avg_local_receptiveness,0.3,0.5,700,Pareto-80-10,0.9094176374412426,0.10145232116037728,0.4993500919681176,1.0
308,avg_local_receptiveness,0.3,0.5,800,Constant,0.9798899561952439,0.06967459359645714,0.4994868585732165,1.0
309,avg_local_receptiveness,0.3,0.5,800,Uniform-80-10,0.9668222152690862,0.06983520589623801,0.4994524405506882,1.0
310,avg_local_receptiveness,0.3,0.5,800,Exp-80-10,0.951933854818523,0.06790787375937796,0.4994524405506882,1.0
311,avg_local_receptiveness,0.3,0.5,800,Pareto-80-10,0.9164296542553191,0.09999414676733266,0.4994524405506882,1.0
312,avg_local_receptiveness,0.3,0.5,900,Constant,0.9898432085032752,0.008817013922052697,0.9649017426770484,1.0
313,avg_local_receptiveness,0.3,0.5,900,Uniform-80-10,0.9710281670992461,0.040239846793257185,0.5108738104066246,1.0
314,avg_local_receptiveness,0.3,0.5,900,Exp-80-10,0.9529342808882296,0.05253582720833537,0.5001582004696576,1.0
315,avg_local_receptiveness,0.3,0.5,900,Pareto-80-10,0.9152614571746385,0.08931596692308023,0.5001582004696576,1.0
316,avg_local_receptiveness,0.3,0.5,1000,Constant,0.9888793193193192,0.009268469969586336,0.9568448448448452,1.0
317,avg_local_receptiveness,0.3,0.5,1000,Uniform-80-10,0.9706060560560559,0.039989314182881534,0.5132912912912914,1.0
318,avg_local_receptiveness,0.3,0.5,1000,Exp-80-10,0.9539626493159827,0.04334032838178812,0.5132912912912914,1.0
319,avg_local_receptiveness,0.3,0.5,1000,Pareto-80-10,0.9201990140140139,0.07566010746319206,0.5132912912912914,1.0
320,avg_local_receptiveness,0.5,0.5,10,Constant,0.9306666666666666,0.15815623032675938,0.4444444444444445,1.0
321,avg_local_receptiveness,0.5,0.5,10,Uniform-80-10,0.9383333333333332,0.14732871742164783,0.4444444444444445,1.0
322,avg_local_receptiveness,0.5,0.5,10,Exp-80-10,0.9358518518518518,0.14844471740255027,0.4444444444444445,1.0
323,avg_local_receptiveness,0.5,0.5,10,Pareto-80-10,0.9344444444444445,0.14691354124495284,0.4444444444444445,1.0
324,avg_local_receptiveness,0.5,0.5,20,Constant,0.9821052631578948,0.06999178520228574,0.4947368421052632,1.0
325,avg_local_receptiveness,0.5,0.5,20,Uniform-80-10,0.9734736842105264,0.08128658226552199,0.4947368421052632,1.0
326,avg_local_receptiveness,0.5,0.5,20,Exp-80-10,0.9716140350877193,0.0829667357986443,0.4947368421052632,1.0
327,avg_local_receptiveness,0.5,0.5,20,Pareto-80-10,0.9698947368421053,0.08614736109708826,0.4789473684210527,1.0
328,avg_local_receptiveness,0.5,0.5,30,Constant,0.9980000000000001,0.011429773866517702,0.9333333333333332,1.0
329,avg_local_receptiveness,0.5,0.5,30,Uniform-80-10,0.9899655172413793,0.045555264001506585,0.4850574712643679,1.0
330,avg_local_receptiveness,0.5,0.5,30,Exp-80-10,0.9876245210727969,0.05000693312884611,0.4850574712643679,1.0
331,avg_local_receptiveness,0.5,0.5,30,Pareto-80-10,0.9855804597701149,0.05431439154214758,0.4850574712643679,1.0
332,avg_local_receptiveness,0.5,0.5,45,Constant,0.996020202020202,0.014138367476843623,0.9131313131313132,1.0
333,avg_local_receptiveness,0.5,0.5,45,Uniform-80-10,0.9956060606060606,0.016336344825639025,0.8727272727272726,1.0
334,avg_local_receptiveness,0.5,0.5,45,Exp-80-10,0.9943501683501682,0.020870856813724657,0.7979797979797976,1.0
335,avg_local_receptiveness,0.5,0.5,45,Pareto-80-10,0.9936666666666667,0.020767930022785593,0.7979797979797976,1.0
336,avg_local_receptiveness,0.5,0.5,65,Constant,0.9993846153846154,0.00432939366573199,0.9692307692307692,1.0
337,avg_local_receptiveness,0.5,0.5,65,Uniform-80-10,0.9992307692307694,0.004815899450206115,0.9692307692307692,1.0
338,avg_local_receptiveness,0.5,0.5,65,Exp-80-10,0.9978589743589743,0.009223857036676704,0.9105769230769232,1.0
339,avg_local_receptiveness,0.5,0.5,65,Pareto-80-10,0.9968653846153848,0.011073105786243894,0.9105769230769232,1.0
340,avg_local_receptiveness,0.5,0.5,100,Constant,0.9986,0.0051286479995248605,0.98,1.0
341,avg_local_receptiveness,0.5,0.5,100,Uniform-80-10,0.9983020202020202,0.005927201979331888,0.9604040404040404,1.0
342,avg_local_receptiveness,0.5,0.5,100,Exp-80-10,0.997872053872054,0.006955522406360851,0.941212121212121,1.0
343,avg_local_receptiveness,0.5,0.5,100,Pareto-80-10,0.9973580808080809,0.007836570008116186,0.941212121212121,1.0
344,avg_local_receptiveness,0.5,0.5,150,Constant,0.9998666666666667,0.0013333333333333198,0.9866666666666668,1.0
345,avg_local_receptiveness,0.5,0.5,150,Uniform-80-10,0.9990684563758389,0.0038875003435276693,0.973512304250559,1.0
346,avg_local_receptiveness,0.5,0.5,150,Exp-80-10,0.9985807606263982,0.004774104171623138,0.973512304250559,1.0
347,avg_local_receptiveness,0.5,0.5,150,Pareto-80-10,0.9981080536912751,0.006108447045924953,0.960536912751678,1.0
348,avg_local_receptiveness,0.5,0.5,200,Constant,0.9999000000000001,0.001000000000000001,0.99,1.0
349,avg_local_receptiveness,0.5,0.5,200,Uniform-80-10,0.9997505025125629,0.0018533416797597833,0.9801005025125628,1.0
350,avg_local_receptiveness,0.5,0.5,200,Exp-80-10,0.999667336683417,0.002131763708257322,0.9801005025125628,1.0
351,avg_local_receptiveness,0.5,0.5,200,Pareto-80-10,0.9992520100502514,0.003297357820446013,0.9703015075376884,1.0
352,avg_local_receptiveness,0.5,0.5,300,Constant,1.0,0.0,1.0,1.0
353,avg_local_receptiveness,0.5,0.5,300,Uniform-80-10,0.9996342251950948,0.002021166339454293,0.9867112597547376,1.0
354,avg_local_receptiveness,0.5,0.5,300,Exp-80-10,0.9995340765514679,0.002090523751765139,0.9867112597547376,1.0
355,avg_local_receptiveness,0.5,0.5,300,Pareto-80-10,0.9995674470457078,0.00206086997176529,0.9867112597547376,1.0
356,avg_local_receptiveness,0.5,0.5,400,Constant,0.9999002506265664,0.0009974937343358416,0.9900250626566416,1.0
357,avg_local_receptiveness,0.5,0.5,400,Uniform-80-10,0.9998751253132832,0.0009280135957011136,0.9900250626566416,1.0
358,avg_local_receptiveness,0.5,0.5,400,Exp-80-10,0.9997668337510444,0.0012029628975230111,0.9900250626566416,1.0
359,avg_local_receptiveness,0.5,0.5,400,Pareto-80-10,0.999662813283208,0.0014819471809039127,0.9850751879699248,1.0
360,avg_local_receptiveness,0.5,0.5,500,Constant,0.99992,0.0005628211765451276,0.9960000000000002,1.0
361,avg_local_receptiveness,0.5,0.5,500,Uniform-80-10,0.9998400801603208,0.0008814927750380211,0.9920160320641284,1.0
362,avg_local_receptiveness,0.5,0.5,500,Exp-80-10,0.9997601603206412,0.001106342781139691,0.9920160320641284,1.0
363,avg_local_receptiveness,0.5,0.5,500,Pareto-80-10,0.9996302805611224,0.0013793554806311482,0.9880480961923844,1.0
364,avg_local_receptiveness,0.5,0.5,600,Constant,0.9999666666666667,0.0003333333333332967,0.996666666666667,1.0
365,avg_local_receptiveness,0.5,0.5,600,Uniform-80-10,0.9999333333333333,0.00046783772664256163,0.996666666666667,1.0
366,avg_local_receptiveness,0.5,0.5,600,Exp-80-10,0.9998667037655351,0.0007084698243543493,0.9933444629938788,1.0
367,avg_local_receptiveness,0.5,0.5,600,Pareto-80-10,0.9997418336115749,0.001061995974521823,0.990033388981636,1.0
368,avg_local_receptiveness,0.5,0.5,700,Constant,0.9999714285714285,0.0002857142857143224,0.9971428571428568,1.0
369,avg_local_receptiveness,0.5,0.5,700,Uniform-80-10,0.9998857142857142,0.0005612883490766834,0.9971428571428568,1.0
370,avg_local_receptiveness,0.5,0.5,700,Exp-80-10,0.9998096328087744,0.0008522767913829401,0.9914530962599634,1.0
371,avg_local_receptiveness,0.5,0.5,700,Pareto-80-10,0.9997858164725116,0.000877987891704004,0.9914530962599634,1.0
372,avg_local_receptiveness,0.5,0.5,800,Constant,0.9999750000000001,0.0002500000000000391,0.9974999999999996,1.0
373,avg_local_receptiveness,0.5,0.5,800,Uniform-80-10,0.9999750000000001,0.00024937106818606814,0.9974999999999996,1.0
374,avg_local_receptiveness,0.5,0.5,800,Exp-80-10,0.9999249999999998,0.00042718061471938335,0.9974999999999996,1.0
375,avg_local_receptiveness,0.5,0.5,800,Pareto-80-10,0.9998625156445555,0.0005973556635908921,0.995006257822278,1.0
376,avg_local_receptiveness,0.5,0.5,900,Constant,1.0,0.0,1.0,1.0
377,avg_local_receptiveness,0.5,0.5,900,Uniform-80-10,0.9999666666666667,0.00027079440728726575,0.9977777777777777,1.0
378,avg_local_receptiveness,0.5,0.5,900,Exp-80-10,0.999948148148148,0.0003360269382836445,0.9977777777777777,1.0
379,avg_local_receptiveness,0.5,0.5,900,Pareto-80-10,0.9998722469410456,0.0005635484502063675,0.9955604993202324,1.0
380,avg_local_receptiveness,0.5,0.5,1000,Constant,1.0,0.0,1.0,1.0
381,avg_local_receptiveness,0.5,0.5,1000,Uniform-80-10,0.99993002002002,0.0004193111393224016,0.9960040040040042,1.0
382,avg_local_receptiveness,0.5,0.5,1000,Exp-80-10,0.99990002669336,0.0004939011633482178,0.9960040040040042,1.0
383,avg_local_receptiveness,0.5,0.5,1000,Pareto-80-10,0.9998700300300299,0.0005510233695502822,0.9960040040040042,1.0
