weight_set,opinion_seed
0,9004061859436636771
1,380659182892368784
2,3305361180590210585
3,2952856202773265280
4,1372427455532799210
5,2482680058480674096
7,7646771080524818996
8,5117911542007063770
9,8752382738779491084
6,1043984815843319250
