d,mu,weight_set,opinion_set,sim_seed
0.1,0.1,0,0,5190676174571435080
0.1,0.1,7,5,8267580678928117758
0.1,0.3,5,0,2381348176456592612
0.3,0.1,0,0,1127194858355133000
0.1,0.5,2,5,8511453632323381406
0.1,0.5,2,6,8903435572945238194
0.1,0.3,5,1,5533437353469946641
0.3,0.1,0,1,8707954478948433145
0.1,0.3,5,2,1793272294541274704
0.1,0.1,0,1,1742528015419284174
0.1,0.5,2,7,6309613446332334064
0.3,0.1,0,2,3679220416453364791
0.1,0.3,5,3,6871829435635054770
0.1,0.5,2,8,1623787412441817407
0.3,0.1,0,3,7761491070024514399
0.1,0.3,5,4,445587718503216781
0.1,0.1,2,0,6798484471826295856
0.1,0.1,8,0,4004485990480087069
0.1,0.1,4,0,6264079453693609089
0.1,0.3,6,0,7338173719441503513
0.1,0.1,6,0,3113879444174503284
0.1,0.5,8,0,8980529791472620345
0.1,0.3,2,0,2629227494680250453
0.1,0.3,4,0,7431125178569978133
0.1,0.5,0,0,1654317902123076439
0.1,0.5,2,0,4435333406928201653
0.1,0.5,4,0,8548766815996521563
0.1,0.5,6,0,7014727591577347623
0.3,0.1,2,0,6291547900868185868
0.3,0.1,4,0,4232224004385775007
0.3,0.1,6,0,4907493888251204448
0.1,0.3,8,0,8739169115624085952
0.1,0.3,0,0,6213673477217015432
0.1,0.5,0,1,509375938034852669
0.1,0.5,8,1,7030711498172808845
0.1,0.5,6,1,6023714550194471310
0.1,0.5,4,1,2800936037593954475
0.1,0.3,8,1,5562426658071628161
0.1,0.5,2,1,1132370461567225062
0.1,0.3,0,1,7689779319847197694
0.1,0.3,4,1,4696526873200494780
0.1,0.5,2,2,7669518667567622020
0.1,0.5,0,2,2078169539474668094
0.3,0.1,4,1,2446819564765878610
0.1,0.5,6,2,1995166850612216079
0.1,0.5,8,2,3454315565070335263
0.1,0.3,2,1,3286285722309116170
0.3,0.1,2,1,3612209588851747187
0.3,0.1,6,1,3624570192964676089
0.1,0.5,4,2,5036260731079727940
0.1,0.3,8,2,3243848636738121333
0.1,0.5,2,3,4486386568425178382
0.1,0.3,6,1,4690808880791655817
0.1,0.5,6,3,5991680851772334251
0.1,0.5,8,3,4395391340454542865
0.1,0.1,2,1,6267412747545971243
0.1,0.3,0,2,2882232134988773586
0.1,0.5,0,3,6412706800124329523
0.1,0.3,2,2,7061614192418561387
0.1,0.3,4,2,2797089734267457961
0.1,0.1,6,1,2949724287321739437
0.1,0.1,4,1,155091046891955426
0.1,0.5,6,4,4747817460867748484
0.1,0.3,8,3,3810456471497686326
0.1,0.5,4,3,5535781393737286531
0.3,0.1,6,2,2337766235562464055
0.3,0.1,4,2,8474894123994104919
0.1,0.5,0,4,2387532767365823743
0.3,0.1,2,2,4559566386972016805
0.1,0.5,4,4,1826841452460776597
0.1,0.5,6,5,7620328643934087994
0.1,0.3,6,2,8776390778947058488
0.1,0.3,4,3,3492517948915575988
0.1,0.3,0,3,233578762559624706
0.1,0.3,2,3,5833565397774624262
0.1,0.5,0,5,3095697986059658957
0.1,0.5,6,6,4283423904362967635
0.1,0.1,8,1,7220038407420566031
0.1,0.5,4,5,2351074274937437827
0.1,0.5,8,4,9121122954139627472
0.1,0.5,2,4,5802469585699991580
0.1,0.3,6,3,5300419961069887590
0.1,0.5,0,6,5055991877516847679
0.3,0.1,6,3,7818969030070616264
0.3,0.1,4,3,902679595664630609
0.3,0.1,2,3,341089323858625711
0.1,0.5,6,7,8549032006080508869
0.1,0.3,4,4,464378925964292194
0.1,0.3,0,4,4513857651374037044
0.1,0.5,4,6,6218970474937764695
0.1,0.5,8,5,556637767744348169
0.1,0.5,0,7,4623142081954845546
0.1,0.1,0,2,1848287176929839678
0.1,0.1,2,2,8259701987226458763
0.1,0.5,6,8,5213665357477948903
0.1,0.3,6,4,2081135681446533679
0.3,0.1,6,4,8233176802647870778
0.1,0.5,4,7,64194577347553643
0.1,0.3,0,5,3741350742043064104
0.1,0.5,8,6,7801407573830669304
0.1,0.1,6,2,2669190307063421974
0.1,0.5,0,8,7743291834813652458
0.1,0.5,6,9,2536889851600919853
0.1,0.3,4,5,3428784085003348673
0.3,0.1,0,4,3625702175016814969
0.3,0.1,4,4,1679064491499435954
0.3,0.1,2,4,1002949145608081395
0.1,0.1,4,2,2664900761085638417
0.1,0.3,6,5,8318849113380524477
0.1,0.5,4,8,6936650930477315771
0.1,0.5,8,7,8482652090124893814
0.1,0.5,7,0,7054117326662135380
0.1,0.5,0,9,1956433114152326688
0.1,0.3,0,6,6138111256043461229
0.1,0.3,8,4,8834600011875020505
0.1,0.5,4,9,783861933550909809
0.3,0.1,6,5,5660354200308650954
0.1,0.5,8,8,2945828885461019330
0.1,0.3,4,6,3827459760465894822
0.1,0.3,6,6,16265072528279419
0.3,0.1,0,5,3627775852563789672
0.1,0.3,2,4,937018341419828565
0.1,0.5,1,0,1539541498836877157
0.3,0.1,4,5,499622303154008762
0.1,0.5,7,1,3567388115622084818
0.1,0.3,0,7,2531815215689343680
0.3,0.1,2,5,6195962888567740087
0.1,0.5,5,0,2334163062117467721
0.1,0.5,1,1,1970322227492155612
0.1,0.3,8,5,6506140095524112629
0.1,0.5,8,9,2511312757803205188
0.1,0.5,2,9,5648031672514827125
0.1,0.3,2,5,1031038951491848449
0.1,0.3,4,7,68113279269295879
0.1,0.1,6,3,5782893012616422740
0.1,0.1,0,3,8653454101261720477
0.3,0.1,6,6,4641238302292065349
0.1,0.5,7,2,7025205999903071541
0.1,0.5,5,1,5286873263693666007
0.1,0.3,6,7,1098891580266380406
0.1,0.5,3,0,3635562482273820302
0.1,0.5,1,2,3332561626212506790
0.1,0.1,2,3,8931973270650203429
0.3,0.1,0,6,3594268190950520468
0.1,0.3,8,6,3459021805407850226
0.1,0.5,5,2,3102396548958425467
0.1,0.5,7,3,8771707453345626527
0.1,0.3,0,8,7828379220977892685
0.1,0.3,2,6,8127656331785358792
0.1,0.5,9,0,2197206331197480903
0.3,0.1,4,6,6736542688668335054
0.3,0.1,2,6,346301919041386025
0.1,0.5,3,1,7728494119895329633
0.1,0.5,5,3,3859453515115073363
0.3,0.1,6,7,4354507035208056922
0.1,0.1,4,3,157479094534979268
0.1,0.3,4,8,125771027719455761
0.1,0.3,6,8,4998161003437057411
0.1,0.5,9,1,3726955511865385844
0.1,0.3,8,7,4486639385953643772
0.1,0.5,1,3,5241915390379286977
0.1,0.5,3,2,6998841129845183166
0.1,0.5,7,4,1205136887382081840
0.3,0.1,0,7,233852553982102421
0.1,0.1,8,2,6205719894680598458
0.1,0.3,2,7,3025074374684303814
0.1,0.1,6,4,2539216426754223787
0.1,0.5,3,3,4858417598911455229
0.1,0.3,0,9,6708821733143148841
0.1,0.5,7,5,3440046240519838676
0.1,0.5,1,4,9124229064964494891
0.1,0.5,9,2,7374779164684498608
0.3,0.1,4,7,7909176445894843379
0.3,0.1,6,8,6376667896282779093
0.3,0.1,2,7,8842570593495441192
0.1,0.1,2,4,4290809423219594445
0.1,0.3,4,9,4889940202971519367
0.1,0.5,5,4,1489358204819282865
0.3,0.1,0,8,7099382858723142640
0.1,0.5,3,4,7182914184588329778
0.1,0.3,2,8,5278824910337586897
0.1,0.5,1,5,945053013095308526
0.1,0.3,8,8,4518259717547515576
0.1,0.5,9,3,8582723879794242392
0.1,0.3,1,0,4224676946769900577
0.1,0.3,6,9,6964993889971733745
0.1,0.5,7,6,323369340885302913
0.1,0.5,5,5,1917705817903761365
0.1,0.5,3,5,2530788245999906053
0.1,0.5,1,6,4106050054892255923
0.3,0.1,4,8,2810048364971219032
0.1,0.3,2,9,4567726947817151802
0.1,0.3,7,0,7670593272819891412
0.3,0.1,2,8,1512856086146253229
0.1,0.5,7,7,8620055881749615530
0.1,0.3,8,9,3639329429347707489
0.1,0.1,8,3,652524905842046707
0.3,0.1,6,9,4795970239324533188
0.1,0.5,3,6,7383170310640905602
0.1,0.5,5,6,6308017473118283438
0.1,0.1,6,5,8488086960038313605
0.1,0.5,1,7,263884548053357113
0.1,0.5,7,8,5350606412333879807
0.1,0.3,1,1,2791065229739170658
0.1,0.5,3,7,7445933896968138831
0.3,0.1,0,9,894004664516494622
0.1,0.3,3,0,7427933081263830630
0.1,0.5,5,7,7572290896211226621
0.1,0.5,1,8,3786231986847438132
0.1,0.5,7,9,4679799438713371481
0.1,0.3,9,0,5310597812094723366
0.3,0.1,7,0,1451898291906888908
0.1,0.5,3,8,1408262863509439125
0.1,0.5,5,8,4184507109433285900
0.3,0.1,4,9,3144537229596841911
0.1,0.1,0,4,4276584175909808550
0.3,0.1,2,9,6609259143187933645
0.1,0.1,2,5,5968964455982223363
0.1,0.3,1,2,4080139731203280384
0.1,0.5,1,9,5161899624408648951
0.3,0.1,8,0,395290179587377378
0.1,0.3,3,1,6045394927466003849
0.1,0.1,6,6,6238125474682053037
0.1,0.5,5,9,6997364999539801917
0.1,0.3,7,1,8001649641507175866
0.3,0.1,1,0,2388814985646927510
0.1,0.5,3,9,8620615534192029428
0.1,0.3,9,1,2206812654551159801
0.3,0.3,0,0,5336076913164251098
0.3,0.3,2,0,7224488691711559179
0.3,0.1,7,1,7668335780732330034
0.1,0.3,1,3,897089604934123002
0.3,0.1,3,0,7689946596873124987
0.3,0.1,5,0,4938379906424313909
0.1,0.3,3,2,208498225460917949
0.1,0.5,9,4,6842137307730203394
0.3,0.3,2,1,5231874027290347239
0.3,0.1,8,1,990975705778830306
0.3,0.3,0,1,4829026265974521428
0.3,0.3,4,0,2242743615357799313
0.1,0.3,7,2,6784357902791302732
0.1,0.3,1,4,3282682011102677315
0.1,0.1,4,4,2755741307805221165
0.1,0.5,9,5,5814670539732235826
0.3,0.3,4,1,7951720186207251678
0.1,0.3,9,2,3734933567911461498
0.3,0.3,2,2,4920830514641766997
0.3,0.3,0,2,452753552333635628
0.1,0.3,3,3,7617243346745031095
0.3,0.1,1,1,4163861966945800036
0.3,0.1,7,2,3870636368207629812
0.3,0.1,5,1,2438886766380285189
0.1,0.3,7,3,5654770454670597845
0.1,0.5,9,6,1200308208175943530
0.1,0.1,2,6,8055022725818390999
0.3,0.3,4,2,8856529239793921276
0.3,0.3,2,3,8759218011285697558
0.3,0.3,0,3,7014774460630435840
0.1,0.3,1,5,984997294615700332
0.1,0.1,0,5,478726854552860367
0.3,0.1,8,2,4927308747808527693
0.3,0.1,3,1,4301543719801110859
0.1,0.5,9,7,4615956566689186223
0.3,0.3,4,3,389759175620902555
0.1,0.3,3,4,211335087897428980
0.1,0.3,5,5,3646412983466334182
0.1,0.3,7,4,3185329522883446225
0.3,0.3,0,4,3594788410089715070
0.1,0.3,9,3,6965594312838140649
0.3,0.3,4,4,1911553891716658023
0.3,0.1,7,3,1592998362957333765
0.1,0.1,6,7,7506840424561403784
0.3,0.1,5,2,4838049623304827310
0.1,0.5,9,8,4348465615171042930
0.1,0.3,1,6,5630313038671178681
0.3,0.3,0,5,6474022480639905512
0.3,0.3,2,4,1808738441813233599
0.3,0.1,1,2,4757003163020576022
0.3,0.3,4,5,6233531434719924118
0.1,0.3,7,5,6034947787791872629
0.1,0.3,3,5,910485829600595571
0.3,0.1,8,3,5044015675544501762
0.1,0.1,2,7,5702415660110515204
0.1,0.3,5,6,8887633223049756139
0.3,0.3,0,6,8652600569522438181
0.3,0.3,2,5,2444331231605350933
0.3,0.3,4,6,6383086603409757998
0.3,0.1,3,2,825727150773287787
0.1,0.5,9,9,4734552905295137597
0.3,0.1,7,4,2998836044293745189
0.1,0.3,7,6,6514254240890657894
0.1,0.3,5,7,2458708194335486838
0.3,0.3,0,7,3367334593222535316
0.1,0.3,3,6,6998765524788130185
0.3,0.3,2,6,3856715848461410298
0.3,0.3,4,7,1249226732171730101
0.1,0.3,9,4,6058356659582060326
0.3,0.3,6,0,4332616759590065934
0.3,0.1,8,4,6159378659938817076
0.3,0.1,5,3,3061598202909861865
0.1,0.1,8,4,5694881751969261578
0.1,0.3,7,7,5113375198317604404
0.3,0.3,0,8,134028250366529485
0.1,0.1,4,5,994220430701804978
0.3,0.1,1,3,2158316408736124131
0.3,0.3,4,8,1216839564664016872
0.3,0.3,2,7,796312899655582311
0.1,0.1,6,8,4400734446598150689
0.1,0.3,5,8,6517510605843262188
0.3,0.3,6,1,427834455844337176
0.3,0.3,0,9,7203936305924833057
0.1,0.3,1,7,3334488285324164474
0.1,0.3,7,8,3634071025481451461
0.3,0.3,2,8,3659425615584760082
0.1,0.3,9,5,3921437149899397293
0.3,0.3,4,9,5774920010380146437
0.1,0.3,3,7,4626908450718686668
0.3,0.3,6,2,7830872754407791289
0.3,0.1,8,5,2925386409485496315
0.3,0.3,1,0,1243375591754926200
0.1,0.3,5,9,7168626193266723397
0.3,0.1,7,5,7814382825425758738
0.3,0.3,2,9,6828713809451709483
0.1,0.3,1,8,1442531082715421018
0.3,0.1,5,4,6882556820856207610
0.3,0.3,5,0,617542119362373369
0.3,0.3,6,3,7439246763318434334
0.1,0.3,9,6,8332890516208189100
0.3,0.3,1,1,1769692835177226134
0.3,0.3,3,0,7782283390070007044
0.3,0.1,1,4,127283588109283859
0.1,0.1,2,8,5260904178202207447
0.3,0.3,5,1,2386150958627206926
0.3,0.3,6,4,9136537591357307961
0.1,0.1,0,6,1584930637204302713
0.3,0.3,1,2,2768441844076798743
0.3,0.3,5,2,7326367325162093627
0.3,0.1,8,6,8754355571118810400
0.3,0.3,3,1,75918101001441773
0.1,0.3,7,9,2706523720308988389
0.1,0.3,3,8,1566014414441716106
0.3,0.3,8,0,7349512749176508878
0.1,0.3,1,9,2883502000733894824
0.3,0.3,6,5,2007477922976875039
0.1,0.3,9,7,6046285103825569457
0.3,0.1,5,5,4265036599059939298
0.1,0.1,4,6,6871871486268433116
0.3,0.1,7,6,3371251972564520667
0.3,0.3,1,3,4252091123885236025
0.3,0.3,3,2,4602798742746750928
0.3,0.3,6,6,1391018673035629508
0.3,0.3,8,1,900835425335621393
0.3,0.5,0,0,2976152725839129598
0.3,0.3,5,3,5568098941569512072
0.3,0.1,3,3,7400892920740652102
0.3,0.1,1,5,6344024745958800212
0.3,0.3,1,4,3669391375223565489
0.1,0.3,9,8,855542973250308419
0.3,0.3,6,7,3699331134344288124
0.3,0.3,8,2,5638996993094776508
0.3,0.5,0,1,7354841597219711118
0.3,0.5,2,0,535926451818919534
0.1,0.3,3,9,3276090178641688109
0.3,0.3,1,5,202104896572533055
0.3,0.1,8,7,8133890681889309719
0.3,0.1,7,7,2278261670852384079
0.3,0.1,5,6,8418342766506071849
0.3,0.5,2,1,7694115947880568199
0.3,0.3,6,8,2803806624426300241
0.3,0.5,0,2,265657770082509784
0.1,0.1,8,5,7148556145384277274
0.1,0.1,2,9,6452220747092037318
0.3,0.3,5,4,5443764825839839237
0.3,0.3,8,3,3770277619374519712
0.3,0.3,1,6,3554504910034511093
0.1,0.3,9,9,5213853498037994612
0.1,0.1,0,7,5868709500230209571
0.3,0.1,1,6,7133093850958824701
0.3,0.5,4,0,8836460818196579972
0.3,0.5,0,3,4831429229013367236
0.3,0.3,6,9,912231656986310712
0.3,0.1,3,4,7396809974976947224
0.3,0.5,2,2,1153320327459022197
0.3,0.3,3,3,4288172488139183456
0.3,0.3,5,5,4714433530223930950
0.3,0.3,1,7,8634154374562060240
0.3,0.3,7,0,5827932689153153477
0.3,0.5,2,3,3690763270911899058
0.3,0.3,8,4,6655187660962995708
0.3,0.1,7,8,2986010357641748500
0.3,0.3,3,4,312777831005482761
0.3,0.1,8,8,1747071801087488824
0.3,0.1,5,7,1675658804952679600
0.3,0.5,2,4,8623015691834156668
0.3,0.3,1,8,5563420987834289033
0.3,0.5,6,0,5531863533806572958
0.3,0.3,8,5,5990542384060873945
0.3,0.3,7,1,4150185372492546033
0.3,0.5,0,4,4242107837847094973
0.3,0.3,5,6,8299876623343960717
0.3,0.3,3,5,2426895990088065349
0.3,0.1,1,7,2445786457145907465
0.3,0.5,2,5,3547543525043185604
0.3,0.5,6,1,24605673441467467
0.3,0.3,1,9,5470459349143526275
0.1,0.1,6,9,3475501955576117258
0.3,0.5,0,5,7155635672402791053
0.3,0.1,3,5,1980075074222940031
0.3,0.3,8,6,4188491650731585724
0.3,0.3,7,2,9044741874437139604
0.1,0.1,8,6,7375334331593994235
0.3,0.5,2,6,6401101335703597387
0.3,0.5,6,2,8780185567024708784
0.3,0.3,3,6,653100537022964856
0.1,0.1,4,7,5875394991382712740
0.3,0.3,5,7,1912381560260675842
0.3,0.1,7,9,3328637150827574504
0.3,0.5,0,6,2535675689457793151
0.3,0.5,6,3,5785343075522502477
0.3,0.3,8,7,2407252434222965772
0.3,0.1,5,8,5060284178422073249
0.3,0.5,0,7,4165907070824976254
0.3,0.5,6,4,3226082425045869002
0.1,0.1,3,0,2956245226625948154
0.3,0.1,8,9,6892578247207937162
0.3,0.3,7,3,3934803424477701176
0.3,0.5,8,0,4221439618247374506
0.3,0.3,5,8,2844052265885242777
0.1,0.1,0,8,4510614527441749831
0.3,0.5,6,5,8967781444920640791
0.3,0.3,8,8,8826657304527084618
0.3,0.5,0,8,7029279810473301994
0.3,0.1,1,8,6305661814428465978
0.3,0.3,3,7,7207892214332160636
0.3,0.5,8,1,6244338408068343792
0.3,0.3,7,4,1161842066759045805
0.3,0.1,3,6,1434561135293747691
0.3,0.5,6,6,1723895595373323078
0.3,0.5,0,9,7954075084832977845
0.5,0.1,0,0,9015318229054716166
0.3,0.5,8,2,3497599307294735756
0.3,0.5,4,1,4840274114224589351
0.3,0.3,8,9,3706989906423561205
0.3,0.3,3,8,2895871937464031457
0.3,0.5,1,0,311332409808071211
0.3,0.5,6,7,8213199468078677042
0.3,0.3,5,9,988578610088717797
0.3,0.5,4,2,8219517747409957339
0.3,0.3,9,0,1949822691391431035
0.3,0.3,7,5,1271945429493351470
0.3,0.5,6,8,8297006874525957224
0.3,0.1,9,0,8039149727697926591
0.3,0.1,5,9,158422151681424883
0.3,0.5,1,1,8564981558469223645
0.3,0.5,2,7,8321171027048049558
0.3,0.3,3,9,8371143847037586469
0.3,0.5,8,3,4005772983063466820
0.1,0.1,8,7,1633029610369593121
0.3,0.5,4,3,4094904506978199416
0.3,0.1,1,9,2567055215625892675
0.5,0.1,2,0,3656021061845037926
0.3,0.1,3,7,5515343692336279904
0.3,0.5,6,9,820341815915219557
0.3,0.5,1,2,7993747746781074760
0.5,0.1,0,1,7729403003464832088
0.3,0.5,2,8,7459850217285777286
0.3,0.5,4,4,7528033442278546468
0.3,0.3,7,6,4826176937706957768
0.3,0.5,8,4,7978507278561440009
0.5,0.1,4,0,2767865626656701393
0.3,0.3,9,1,5101193084058692681
0.3,0.5,4,5,3825104051882028732
0.3,0.5,1,3,2607970341516058422
0.3,0.5,2,9,4550888787872549199
0.3,0.5,8,5,1597263391347936534
0.1,0.1,7,0,7077209062086643209
0.3,0.3,7,7,6528808037083877731
0.3,0.3,9,2,8581815873798740316
0.1,0.1,4,8,8161112468915333341
0.3,0.5,1,4,2915494963534447796
0.3,0.5,3,0,3286692188952310247
0.3,0.5,8,6,5725351997995011048
0.5,0.1,2,1,7410345308265867244
0.3,0.5,4,6,8936792290876522130
0.5,0.1,6,0,2951274554053487947
0.3,0.1,9,1,4740934169135951498
0.3,0.5,3,1,578084576796545060
0.3,0.5,1,5,7669180810405370573
0.3,0.3,7,8,8372845324474799423
0.5,0.1,8,0,6488183822176103665
0.3,0.5,7,0,753225225632234274
0.3,0.1,3,8,535823159732488209
0.3,0.5,8,7,3013658349679263948
0.5,0.1,0,2,6468515255770685074
0.5,0.1,4,1,3792835937867250503
0.3,0.5,4,7,7633340220257191642
0.1,0.1,0,9,4063478178255934525
0.1,0.1,3,1,1688246612746422223
0.3,0.5,1,6,4172667580115147806
0.3,0.5,7,1,17830076544091708
0.3,0.3,9,3,9048330707657170058
0.3,0.5,3,2,4603567165234996198
0.3,0.5,8,8,5273019071134683128
0.3,0.3,7,9,1720875045695394750
0.3,0.5,4,8,5771705401901553283
0.3,0.5,7,2,6392785566313993114
0.3,0.5,3,3,1333737486434780862
0.3,0.5,8,9,399280893640818148
0.5,0.1,2,2,3126062234172709047
0.3,0.3,9,4,5729778288052054930
0.3,0.1,9,2,8447444071596240120
0.3,0.5,1,7,2210062952441838767
0.3,0.5,4,9,8452372971919538825
0.5,0.3,0,0,6028896245891624300
0.3,0.5,3,4,5487825227253661762
0.3,0.5,7,3,7819522867121506285
0.5,0.1,6,1,9010023729797328027
0.5,0.1,8,1,2037606978171811106
0.3,0.5,1,8,1295341099021263090
0.3,0.3,9,5,1595026301551529821
0.3,0.5,3,5,373473358238342365
0.5,0.1,0,3,5087889057914165938
0.5,0.3,0,1,7889962242390174451
0.5,0.1,4,2,6612414925378096759
0.3,0.5,7,4,583930314939097891
0.3,0.5,5,0,2475413403785303725
0.3,0.5,3,6,3574528809722656351
0.1,0.1,4,9,2657793451238068926
0.3,0.1,3,9,8287010594472387072
0.5,0.1,2,3,2678599227012491997
0.5,0.3,0,2,3682662681347504184
0.3,0.5,5,1,2977253568401631875
0.3,0.5,7,5,7931001192608414146
0.3,0.5,3,7,8066733131205946293
0.3,0.3,9,6,4800584276369884405
0.5,0.1,6,2,7981921761222105629
0.3,0.1,9,3,3130914573026114235
0.5,0.1,8,2,5508097401058695411
0.3,0.5,5,2,6971191735325023701
0.3,0.5,7,6,3211994842677703462
0.5,0.3,0,3,179150684083247035
0.5,0.1,4,3,5784860446880056093
0.3,0.3,9,7,1642010375156036481
0.3,0.5,3,8,2510744519068883080
0.1,0.1,1,0,2624798165636589516
0.3,0.5,1,9,476835588774591012
0.5,0.1,0,4,2483481282269224975
0.3,0.5,5,3,3560525664652577055
0.3,0.5,3,9,9033268452654128514
0.5,0.3,2,0,439112630366149710
0.5,0.3,0,4,4308202407169058993
0.5,0.1,2,4,1807655254387698343
0.3,0.3,9,8,9057206792787363523
0.3,0.5,5,4,293135504343961877
0.5,0.3,4,0,7511509230985683344
0.5,0.3,6,0,5775281192901874333
0.5,0.3,2,1,1897934800963042639
0.3,0.5,7,7,241417257455668409
0.5,0.1,6,3,5895459833396651988
0.3,0.5,5,5,3670704625500979694
0.5,0.3,4,1,1747885174692175202
0.5,0.1,8,3,3534267225116195960
0.1,0.1,3,2,7955829083212335740
0.5,0.3,0,5,3766214665775417675
0.3,0.1,9,4,8002312379099815126
0.3,0.5,7,8,4005710818370396336
0.5,0.3,2,2,1435888186099964827
0.5,0.3,6,1,7279480623791395767
0.3,0.5,5,6,7160956508284944563
0.5,0.1,4,4,8441933930745096027
0.5,0.1,0,5,3567926110284991082
0.5,0.3,4,2,2904955565100093818
0.3,0.5,7,9,6257173303179092966
0.5,0.3,0,6,772214845998877748
0.5,0.1,2,5,2147031381834202655
0.5,0.3,6,2,7718563252470532742
0.5,0.3,2,3,6783843322196855593
0.1,0.1,8,8,6611373552486851517
0.5,0.3,4,3,4178425283094160071
0.3,0.5,5,7,6162270019351485186
0.5,0.3,8,0,6103399331494242022
0.3,0.3,9,9,7048081989685531187
0.5,0.1,6,4,4715049608421982651
0.3,0.5,9,0,7547955253017473946
0.5,0.3,6,3,2435476783284102850
0.5,0.3,0,7,5397799970198328953
0.5,0.3,2,4,9039193191733843045
0.5,0.1,8,4,5345452269225779065
0.1,0.1,5,0,8950260389683929297
0.5,0.3,4,4,8557563384513621474
0.5,0.3,8,1,1290577639522497117
0.5,0.5,0,0,5891513464086314495
0.3,0.1,9,5,2534241280324354179
0.5,0.3,6,4,2211873684068075219
0.5,0.3,0,8,158307045089526817
0.5,0.1,0,6,5698752464856755828
0.5,0.3,2,5,4473445474059351789
0.1,0.1,1,1,3583711096335681600
0.3,0.5,9,1,1621150920327900761
0.5,0.5,0,1,9170423695613733115
0.3,0.5,5,8,5779457395482638416
0.5,0.3,8,2,3552181802381230000
0.5,0.1,2,6,7253223195304895280
0.5,0.3,6,5,6556304743558743952
0.5,0.3,4,5,639779367778559452
0.5,0.1,4,5,5063164876799179887
0.5,0.3,2,6,7325839364819096728
0.5,0.1,6,5,4002727916921319335
0.5,0.3,0,9,3860533926031917657
0.5,0.5,0,2,3042509246677783413
0.3,0.5,9,2,3951587816503892040
0.3,0.5,5,9,4455886043108977431
0.1,0.1,7,1,8917321588403049280
0.5,0.3,8,3,2686016622602697645
0.5,0.3,6,6,6153685557291997111
0.5,0.5,0,3,941358699366470474
0.5,0.1,8,5,2301718512456317475
0.5,0.3,1,0,6882390118117375876
0.3,0.5,9,3,1679029085859653843
0.5,0.3,2,7,2837200626686500712
0.5,0.3,4,6,4141186821972503934
0.5,0.5,2,0,3179136319509122628
0.5,0.3,8,4,2576889814326209058
0.5,0.5,0,4,8537818340749602295
0.3,0.5,9,4,7591829061439294094
0.5,0.3,6,7,6023069874713650624
0.5,0.5,2,1,5904745169368340412
0.5,0.1,0,7,4969416142147925647
0.1,0.1,3,3,7458719702636177512
0.5,0.3,4,7,5953630059884279815
0.5,0.5,0,5,2148590846449324727
0.5,0.3,8,5,7219458787342857184
0.5,0.5,2,2,8062845151659030256
0.5,0.3,1,1,6501285198123823654
0.3,0.5,9,5,3915765548674230524
0.5,0.3,2,8,4537427126920797116
0.1,0.1,8,9,1619289778784245139
0.5,0.3,6,8,3257169141662005737
0.5,0.5,0,6,1347135284755484151
0.5,0.1,6,6,8842254210231912613
0.5,0.5,2,3,8641667960835215197
0.5,0.3,4,8,7840629328452663195
0.5,0.3,8,6,7504568674956285028
0.3,0.1,9,6,6323676277482045339
0.5,0.1,2,7,1027616909188574354
0.5,0.5,0,7,2989630310490212865
0.5,0.1,8,6,8038513552846436181
0.5,0.3,1,2,4638217219875474547
0.5,0.3,2,9,5260265883727962203
0.5,0.5,2,4,3491439142146172445
0.3,0.5,9,6,467028915737758468
0.5,0.1,4,6,454803540534316692
0.5,0.3,6,9,6845967249296459036
0.5,0.3,8,7,8873038412983302142
0.5,0.3,4,9,8686638147860747912
0.5,0.5,0,8,2484895043608721769
0.5,0.1,0,8,3481996672873830916
0.5,0.5,2,5,2544432668118900724
0.5,0.3,1,3,2366766764448850870
0.5,0.3,3,0,6535796288743996779
0.3,0.5,9,7,73354556528916427
0.5,0.3,7,0,3503639341153915727
0.5,0.5,0,9,1496950163176503859
0.5,0.5,2,6,1489539987800544748
0.1,0.1,5,1,9097674933961724120
0.5,0.3,8,8,5706911973633187894
0.5,0.3,5,0,3850630256091172067
0.3,0.5,9,8,3394007141842418545
0.5,0.3,1,4,6626155093859350411
0.5,0.1,6,7,5611333337059149418
0.5,0.5,1,0,3411740398093903388
0.5,0.3,7,1,6273220034511422197
0.5,0.5,2,7,977426462890650370
0.5,0.3,8,9,7568454220205294523
0.5,0.3,3,1,2720665823804172735
0.5,0.1,2,8,2880566991452982618
0.5,0.3,5,1,3092340789031236805
0.3,0.5,9,9,4300070059864517523
0.5,0.5,1,1,3938421501082819157
0.5,0.3,1,5,3165579558125220638
0.5,0.1,8,7,4140723728010653587
0.5,0.5,2,8,4265635381482666709
0.5,0.1,4,7,5911840800910601301
0.5,0.3,7,2,7197041395336641291
0.5,0.5,4,0,1706557213543700122
0.5,0.1,0,9,1581396047158364328
0.5,0.3,9,0,3680194358696063118
0.5,0.5,1,2,6979431083793921026
0.5,0.3,3,2,3760533789434070
0.5,0.5,2,9,8408669003495305642
0.5,0.3,1,6,7707149791000625741
0.5,0.3,5,2,1050254118435713625
0.1,0.1,7,2,2922601259689058225
0.5,0.5,4,1,68538145998596456
0.3,0.1,9,7,3428167416184110795
0.5,0.3,7,3,2863168350994263183
0.1,0.1,3,4,3728148540050824536
0.5,0.5,3,0,1770891310074830369
0.5,0.5,1,3,2179323760271794387
0.5,0.3,1,7,2668222638575162884
0.5,0.1,6,8,7299975705369658980
0.5,0.3,3,3,8089974870345340977
0.5,0.5,4,2,1114355707180915142
0.5,0.3,9,1,1124919059299621232
0.5,0.3,5,3,3247706707662286294
0.5,0.5,1,4,5826579181400434368
0.5,0.1,2,9,1396302734489489208
0.5,0.5,3,1,4978763849069379570
0.5,0.5,4,3,1189312026999029175
0.5,0.3,7,4,7541216038513368271
0.5,0.3,9,2,8205270045487090938
0.5,0.3,1,8,1493614986392473961
0.5,0.1,4,8,6164035074336513098
0.5,0.5,1,5,3794875773195479814
0.5,0.5,3,2,440935010834610049
0.1,0.1,9,0,1468494663442492457
0.5,0.1,8,8,6275582284161970728
0.5,0.5,4,4,8653985799955586102
0.5,0.3,5,4,1636877717615307867
0.5,0.3,3,4,3982160993639215468
0.5,0.5,1,6,5946492200376861466
0.5,0.3,7,5,1133170554667433560
0.5,0.5,3,3,8403335869314651837
0.5,0.3,9,3,1314864824790858213
0.5,0.3,1,9,288694408964054441
0.5,0.1,1,0,3497843760622079257
0.5,0.5,4,5,8443608545575139740
0.3,0.1,9,8,455470123765423964
0.5,0.3,5,5,8671982718086950772
0.5,0.3,3,5,3721992300223031554
0.5,0.5,1,7,3196081317779606301
0.5,0.5,3,4,8279377351242784719
0.1,0.1,5,2,9122323696824271566
0.5,0.3,7,6,7091995737196183122
0.5,0.5,4,6,4285452006045837577
0.5,0.3,9,4,3063949806493693978
0.5,0.5,6,0,7008342945665005835
0.5,0.5,1,8,8454745407410434908
0.5,0.3,5,6,4717168685746935061
0.5,0.1,3,0,5895079676827312665
0.5,0.5,3,5,9194728895871705235
0.5,0.5,4,7,6811098960186128814
0.5,0.3,3,6,950977261264813310
0.5,0.3,7,7,3754029024278149129
0.5,0.5,1,9,4510566128029967298
0.5,0.1,6,9,3998363084405383925
0.5,0.5,6,1,449812420770255792
0.5,0.1,4,9,8755251034483793452
0.5,0.5,3,6,8729534886377973619
0.5,0.5,4,8,1009096254539657198
0.5,0.3,9,5,4537699801673109558
0.5,0.3,5,7,7831133851503429973
0.5,0.5,6,2,6658029748566830580
0.5,0.5,8,0,3128065859077878545
0.5,0.1,8,9,7864910798623762840
0.5,0.3,7,8,1055884315454007644
0.5,0.3,3,7,5966433036603790766
0.5,0.5,3,7,2685458950063137734
0.5,0.5,4,9,6028885513566915423
0.5,0.1,1,1,5793766820953546614
0.5,0.5,6,3,6279867238069272142
0.5,0.5,8,1,985920851222547597
0.5,0.3,9,6,4454927074836821209
0.1,0.1,7,3,3025911235781531910
0.5,0.3,5,8,5249116760907362408
0.5,0.5,3,8,961176191948404767
0.3,0.1,9,9,7508716539648521792
0.5,0.5,5,0,506368359913445820
0.5,0.5,6,4,5874237306862197047
0.1,0.1,3,5,6226728578134455698
0.5,0.5,8,2,5020374729979142081
0.5,0.3,3,8,8644741833467058590
0.5,0.3,7,9,331073824582909579
0.5,0.5,6,5,1300581646209284537
0.5,0.5,5,1,8640412557353756883
0.5,0.3,9,7,2943250782965283813
0.5,0.5,3,9,495189180695473882
0.5,0.5,8,3,964347951964889237
0.5,0.1,7,0,3464206380386366965
0.5,0.3,5,9,2167917547927636784
0.7,0.1,0,0,1315522745708024849
0.5,0.5,6,6,3122598468716014807
0.5,0.1,3,1,1739151372978515010
0.5,0.3,3,9,2469518553940989773
0.5,0.1,5,0,1099037450148235218
0.5,0.5,8,4,473752078423380894
0.5,0.5,5,2,4672526404868462620
0.7,0.1,2,0,4039947496327733566
0.5,0.5,6,7,1365599153695745429
0.5,0.3,9,8,3388451526703363723
0.7,0.1,4,0,3230600406768909933
0.5,0.5,8,5,56549795781405459
0.7,0.1,6,0,9219482995733456899
0.5,0.5,5,3,2324500156659654802
0.5,0.5,6,8,1267804393709065105
0.5,0.1,1,2,7114515174004381846
0.1,0.1,9,1,6085798087243277261
0.1,0.1,5,3,5002753208331099548
0.5,0.5,8,6,4531908579693809150
0.5,0.5,5,4,7062283760993929065
0.5,0.1,7,1,1944054442148928091
0.7,0.1,0,1,2323902857871648956
0.7,0.1,8,0,1093553026244071733
0.5,0.1,9,0,6531538735146899067
0.5,0.3,9,9,8153190449076009773
0.5,0.5,8,7,8517127364414794398
0.5,0.5,6,9,6481489648469833869
0.5,0.5,5,5,3862038006383894576
0.5,0.5,8,8,2941273609602278462
0.7,0.1,2,1,1845087281978975892
0.5,0.5,7,0,6506412170200432900
0.7,0.3,0,0,3225274389774721399
0.5,0.1,5,1,5115777121451362222
0.5,0.5,5,6,2361264885186342585
0.7,0.1,4,1,6435556491314295708
0.5,0.1,3,2,3911528568934055835
0.5,0.5,7,1,7487545428240147833
0.5,0.5,8,9,4001228678486159598
0.5,0.5,5,7,7071527209889118511
0.7,0.3,0,1,98317147936493049
0.7,0.1,6,1,1429595374553999614
0.5,0.5,7,2,936232341275460334
0.5,0.5,9,0,71481786318509692
0.1,0.1,3,6,1624872712510596878
0.7,0.1,0,2,3771151206289397272
0.5,0.5,5,8,6023279453901693243
0.5,0.1,1,3,1154225540604737677
0.7,0.1,8,1,7537039951448309850
0.5,0.1,7,2,572295870983545171
0.7,0.3,0,2,7857553907106200215
0.5,0.5,7,3,6596845600004627205
0.5,0.5,9,1,4665293231159906420
0.5,0.5,5,9,8792789012963348702
0.5,0.1,9,1,2821712406063470753
0.5,0.5,7,4,3307670732022060889
0.7,0.1,4,2,5676674804288699305
0.5,0.5,9,2,7642625906597733252
0.7,0.1,6,2,8343028719029097052
0.7,0.1,2,2,2899478370869269344
0.7,0.3,0,3,845208611191181311
0.1,0.1,7,4,6646664743087086379
0.7,0.3,2,0,7732148441979066417
0.1,0.1,9,2,4632759553531036089
0.5,0.5,7,5,2127694364415361959
0.5,0.5,9,3,673878214671604282
0.5,0.1,5,2,5285762410381067148
0.5,0.1,3,3,5348034240853558440
0.5,0.5,7,6,1818706857999411096
0.7,0.3,2,1,9080867981527623451
0.7,0.3,0,4,8357081371872027805
0.5,0.5,9,4,5757199037101082138
0.5,0.5,7,7,3272554677740282598
0.7,0.1,0,3,5418203947359668476
0.5,0.1,1,4,6368571652041725410
0.7,0.3,0,5,1469027045990311466
0.7,0.1,8,2,47783834361004106
0.7,0.3,2,2,6286770525529611508
0.5,0.5,9,5,378648124863873956
0.5,0.5,7,8,1297644895154033892
0.7,0.1,4,3,5489286212039396330
0.5,0.1,7,3,8005644510311035896
0.5,0.1,9,2,5461106282687937962
0.7,0.1,2,3,2604867945600609218
0.7,0.1,6,3,510964592834856774
0.5,0.5,9,6,216556699274959442
0.7,0.3,0,6,1211591751014551262
0.5,0.5,7,9,5992057832156352295
0.7,0.3,2,3,6171467600532064411
0.7,0.3,4,0,6410713436750704740
0.5,0.5,9,7,5181646323690520504
0.7,0.3,2,4,2361569418981138378
0.7,0.3,0,7,7626120340010066718
0.7,0.1,0,4,2830863670054000347
0.5,0.1,3,4,6333746650529544428
0.5,0.1,1,5,6303540513100803225
0.7,0.3,4,1,236219252304414884
0.5,0.1,5,3,6533301224024550093
0.7,0.1,8,3,1075157712527459448
0.5,0.5,9,8,1386097121643752396
0.7,0.3,2,5,5507140438858690380
0.7,0.1,6,4,1874936118217165161
0.7,0.3,0,8,3285151747825442152
0.5,0.1,7,4,1934611231798472054
0.7,0.1,2,4,874286781357102128
0.7,0.3,4,2,2254032934615725265
0.5,0.5,9,9,1625128547613568392
0.7,0.1,4,4,1649529041240463927
0.7,0.3,2,6,4380723321216978091
0.5,0.1,9,3,1463460992596449950
0.7,0.3,6,0,6334950777395353603
0.1,0.1,3,7,4832600777415401523
0.7,0.3,4,3,5690661495560099675
0.7,0.3,0,9,6588334087198447810
0.7,0.3,2,7,8994579629392952992
0.5,0.1,1,6,5777197139472176177
0.5,0.1,3,5,4105855297172768068
0.7,0.1,6,5,4992150887720149193
0.7,0.1,8,4,1711001986054654497
0.7,0.1,0,5,1549070278978870474
0.7,0.3,6,1,1113643598745413248
0.7,0.3,1,0,5063467446906822563
0.7,0.3,4,4,5661231612587804180
0.7,0.3,2,8,5180737584377193612
0.5,0.1,7,5,2683523868727173465
0.5,0.1,5,4,2686301235012384504
0.7,0.1,4,5,6722388004605481164
0.7,0.1,2,5,1984375270342847180
0.7,0.3,6,2,2689634589869977731
0.7,0.3,1,1,9156775475173803156
0.7,0.3,4,5,6873813820543612175
0.5,0.1,9,4,4694060920807656784
0.7,0.3,2,9,3754878725029482272
0.7,0.3,6,3,376449315123998823
0.7,0.1,8,5,5448204856561699525
0.7,0.3,3,0,6215811672387156586
0.5,0.1,1,7,6278822882106453902
0.7,0.3,1,2,8802483525212096694
0.7,0.1,0,6,6220088293734029998
0.7,0.3,4,6,7038547596652056817
0.7,0.1,6,6,6034323375121588709
0.7,0.3,6,4,5873733281515189704
0.1,0.1,9,3,3281365683917938621
0.5,0.1,3,6,6081201440486848988
0.5,0.1,5,5,3358484088265640561
0.5,0.1,7,6,729470494145024118
0.7,0.1,2,6,1267107579272685411
0.7,0.3,3,1,1107587949026755958
0.7,0.3,4,7,4144463288266601205
0.7,0.3,6,5,5823270506188641514
0.7,0.3,1,3,8612030833311004800
0.1,0.1,3,8,6667150298021622981
0.7,0.1,4,6,3296988956246126392
0.5,0.1,1,8,3845708811341449623
0.5,0.1,9,5,7784063217144088129
0.7,0.3,3,2,5594493730651966254
0.7,0.3,4,8,2335673553227152813
0.7,0.3,6,6,7878562920856756764
0.7,0.1,8,6,4074797217692002279
0.7,0.3,1,4,8718002723932602803
0.7,0.1,0,7,8988572027376602754
0.7,0.1,6,7,7881607518623068695
0.5,0.1,3,7,7380542504627011922
0.7,0.3,4,9,3332630271820414379
0.7,0.3,6,7,2749619509575541620
0.5,0.1,7,7,982386319539840343
0.5,0.1,5,6,4920920830085437612
0.7,0.3,3,3,5150781548540789466
0.7,0.3,1,5,9030534995630319351
0.7,0.1,2,7,1642216086882930117
0.7,0.1,4,7,3202410614408506639
0.7,0.3,6,8,1378195449246558734
0.7,0.3,1,6,8660164673613771123
0.7,0.3,5,0,6309024512335120494
0.7,0.3,3,4,7392546591663259215
0.5,0.1,1,9,5444737639044493282
0.5,0.1,9,6,5680087719391161509
0.7,0.1,8,7,5208181667841595851
0.7,0.3,5,1,3347891525387312991
0.7,0.3,1,7,3895643482558876902
0.7,0.3,3,5,8502941074266551316
0.7,0.3,6,9,7293096265232936025
0.5,0.1,7,8,2729099266978928218
0.7,0.1,0,8,6432209655470240399
0.7,0.1,6,8,7383922197937246368
0.5,0.1,5,7,8347750523488617918
0.7,0.3,1,8,956353456299852021
0.1,0.1,1,2,5928053006317661912
0.7,0.1,2,8,1866882597276346917
0.7,0.3,7,0,2871392054083046079
0.7,0.3,3,6,7076406638081318982
0.7,0.3,5,2,2579170325245863713
0.1,0.1,9,4,5558481783591830041
0.7,0.1,4,8,7972526443072628790
0.5,0.1,3,8,6860954929231247751
0.7,0.3,3,7,3337488483012385694
0.7,0.3,1,9,7018236363365049295
0.7,0.3,7,1,3672252292697907488
0.7,0.3,8,0,85000349434628008
0.1,0.1,3,9,3591118350448918151
0.7,0.3,5,3,4247099642213163202
0.5,0.1,9,7,5312945291780651443
0.7,0.3,3,8,6273518100098934172
0.7,0.5,0,0,4751262520112568109
0.7,0.3,7,2,443095381377252985
0.7,0.3,8,1,3266626262827962870
0.7,0.1,8,8,6978119943406373102
0.7,0.3,5,4,8299658379448826887
0.7,0.5,0,1,4813147705441071832
0.5,0.1,5,8,4935584276826994640
0.5,0.1,7,9,8810690805802151016
0.7,0.1,6,9,541561859026847966
0.7,0.1,0,9,1257233503641923643
0.7,0.3,8,2,7848237844035546973
0.7,0.5,0,2,6773567504902657064
0.7,0.3,3,9,59292795713061728
0.7,0.1,2,9,7566946547028074674
0.7,0.3,5,5,2653574273024042501
0.7,0.3,7,3,675922322302743462
0.7,0.1,4,9,6282564833308180226
0.7,0.5,0,3,2380571990173345074
0.7,0.3,8,3,6418377634590959916
0.7,0.5,2,0,3905273639854173518
0.5,0.1,3,9,1423336522026849244
0.5,0.1,9,8,8317879505697062186
0.7,0.3,5,6,3177603405074955020
0.7,0.3,7,4,1069897932898256732
0.7,0.5,0,4,1963777221248255945
0.1,0.1,7,6,1404051285357347117
0.7,0.5,2,1,3505595682424566880
0.7,0.3,8,4,5230771633210032868
0.7,0.5,0,5,2800367477032467269
0.7,0.1,7,0,8289806444752842075
0.7,0.5,4,0,5755166477859193079
0.7,0.1,8,9,6080915191511849000
0.7,0.3,7,5,7152061322121627838
0.7,0.5,2,2,8889777186157448187
0.7,0.1,1,0,8109718997501005206
0.7,0.3,5,7,4265151411558608887
0.5,0.1,5,9,4626780870735915127
0.7,0.5,0,6,4725701212260102630
0.7,0.1,3,0,2731315534821867299
0.7,0.5,6,0,6819049611677682444
0.7,0.5,2,3,222953128490939828
0.7,0.3,8,5,6537145203001550042
0.7,0.5,4,1,5801262297245206469
0.7,0.5,0,7,8787418029385326388
0.7,0.3,5,8,7935340874747729034
0.7,0.3,7,6,5580700188830932578
0.7,0.5,6,1,8045321571679198764
0.7,0.5,2,4,785365055513207310
0.7,0.1,5,0,2771743016369571765
0.7,0.5,8,0,8800324573978544269
0.7,0.5,4,2,8550194276680582314
0.7,0.5,0,8,4724890823213593550
0.7,0.3,8,6,5434720192166748711
0.7,0.5,6,2,4162647600474879885
0.7,0.5,2,5,6138495580620010062
0.7,0.3,5,9,2670042441038902099
0.7,0.5,8,1,4895660569597009482
0.7,0.5,4,3,5422740565659495519
0.7,0.3,7,7,7671493946504451141
0.7,0.1,7,1,8163540626459794505
0.5,0.1,9,9,7014354163593727376
0.7,0.5,0,9,6046591771060237599
0.7,0.1,9,0,7149515864167359283
0.7,0.3,8,7,1220955126026737428
0.7,0.5,2,6,6333852789093897789
0.7,0.5,6,3,4905842019746885429
0.7,0.5,8,2,208499467380073685
0.7,0.5,4,4,3989104267692245548
0.7,0.1,1,1,2980425661973307953
0.7,0.3,7,8,3193402226688814903
0.9,0.1,0,0,57623754616312936
0.1,0.1,1,3,8614800129562238980
0.7,0.5,1,0,2086173274109663907
0.7,0.5,6,4,4889421272745333093
0.7,0.5,8,3,3520220954286602553
0.1,0.1,7,7,3137888639882515410
0.9,0.1,2,0,7885584206452053767
0.7,0.5,2,7,2211585821931825364
0.7,0.5,4,5,6618108729956557345
0.7,0.5,1,1,3199352413467936857
0.7,0.1,5,1,1315878460305086490
0.7,0.5,6,5,1406295778418537332
0.7,0.3,8,8,2674773143421685098
0.7,0.5,8,4,3305883742750895384
0.7,0.5,2,8,2621739437911092992
0.7,0.3,7,9,6074943556029503555
0.7,0.1,3,1,8835806005074324975
0.7,0.5,4,6,6488539655421746406
0.7,0.5,6,6,3798204743464091135
0.7,0.5,1,2,432736475171503008
0.7,0.5,8,5,2232974590219046219
0.7,0.5,2,9,2826445933299070928
0.9,0.1,4,0,5501514229499971998
0.7,0.3,8,9,2128992769937242499
0.9,0.1,0,1,6283162346835029908
0.9,0.1,6,0,673844878637726202
0.7,0.5,4,7,7093459565188893912
0.7,0.5,6,7,2056415717524114534
0.7,0.5,8,6,6175849300056502527
0.7,0.1,7,2,2467535395993504276
0.7,0.5,3,0,6052723138116026207
0.7,0.1,9,1,6313831113843720278
0.7,0.5,1,3,1384630449592544025
0.7,0.5,6,8,11967904775715690
0.7,0.3,9,0,3131862164586690869
0.9,0.1,2,1,1347147796746256511
0.7,0.5,8,7,7961546746260739638
0.7,0.5,4,8,2873595218954100357
0.7,0.5,3,1,7940584306330490593
0.7,0.5,1,4,3525254214742060586
0.7,0.1,1,2,5979473248378220024
0.7,0.5,6,9,3512046548072225981
0.7,0.5,4,9,227300288662304522
0.7,0.5,8,8,3147725441133762695
0.7,0.5,3,2,6546529307995130808
0.7,0.5,1,5,1697088137241364048
0.7,0.1,5,2,2920813187714756361
0.7,0.5,7,0,29444002473944044
0.7,0.3,9,1,8315360762446140787
0.9,0.1,4,1,6945533332449491814
0.7,0.5,8,9,41727542204126604
0.7,0.1,3,2,6079797936244653326
0.7,0.5,5,0,1628367719855099418
0.7,0.5,3,3,7981633271292879624
0.7,0.5,1,6,5436986083784278586
0.7,0.5,7,1,4898712694333692398
0.9,0.1,0,2,4448819395991889172
0.7,0.5,9,0,6928325165334123547
0.7,0.5,5,1,2049241719776701009
0.7,0.1,9,2,2137535233511732020
0.1,0.1,7,8,6461423845997566547
0.7,0.3,9,2,4087835991707289995
0.7,0.5,1,7,5283885623831625728
0.7,0.5,3,4,3325213488680055555
0.7,0.1,7,3,2410374124288599040
0.7,0.5,7,2,1454845551796913338
0.1,0.1,1,4,4562921732223417281
0.9,0.1,2,2,4825621781419102841
0.9,0.1,6,1,888450077541453418
0.7,0.5,9,1,5970263384745272280
0.7,0.5,5,2,6552888674472917508
0.7,0.5,1,8,9033654702221609632
0.7,0.5,3,5,1180682784402487409
0.7,0.5,7,3,2163338684037089883
0.7,0.3,9,3,4491397417922968127
0.7,0.5,9,2,9040633712400967564
0.7,0.5,1,9,3224381059073824672
0.7,0.1,1,3,3430716525111697228
0.7,0.5,5,3,2417461168719663667
0.7,0.5,3,6,2129681290396261547
0.7,0.5,7,4,2901183787782671294
0.1,0.1,9,5,767169674329873716
0.7,0.1,5,3,3386065674009734487
0.9,0.1,8,0,5194550272414875619
0.7,0.3,9,4,1436765137018847806
0.7,0.1,3,3,8114510294112960373
0.7,0.5,3,7,435554099792638779
0.7,0.5,5,4,8059832291214217243
0.7,0.5,9,3,1046395596232549385
0.7,0.5,7,5,2230485671524646085
0.9,0.1,4,2,107078159462704776
0.9,0.1,0,3,8568539541886094633
0.9,0.1,6,2,7560016549079215621
0.9,0.1,2,3,5111274451601568030
0.7,0.5,9,4,5488538629563413122
0.7,0.5,5,5,5252939772578710014
0.7,0.5,3,8,903817261577402629
0.7,0.5,7,6,1822279429618986469
0.7,0.3,9,5,2520927095593086194
0.7,0.1,7,4,7930251425826442284
0.7,0.1,9,3,464905576098196857
0.7,0.5,5,6,8541806404164304584
0.7,0.5,9,5,8401868306425592751
0.7,0.5,7,7,5523159894084378371
0.7,0.5,3,9,8884515781859811153
0.7,0.3,9,6,3487871231005521025
0.7,0.5,5,7,9187769993734767933
0.1,0.1,5,4,5383080187011347709
0.7,0.5,9,6,5745273739447300015
0.7,0.5,7,8,7213588848351286649
0.9,0.3,0,0,456480548310080692
0.7,0.1,1,4,8153356284152237036
0.9,0.1,4,3,8017160571447154599
0.7,0.5,5,8,3898515218915804248
0.7,0.5,9,7,7109483843000239427
0.7,0.5,7,9,3111529345787370076
0.7,0.3,9,7,4479761607212067271
0.9,0.1,8,1,1111352194251692783
0.9,0.3,0,1,5879948218238925755
0.9,0.1,2,4,7842607930788741350
0.9,0.1,0,4,34830323974526662
0.7,0.1,5,4,4710480194104910742
0.7,0.5,5,9,859646301031768737
0.9,0.1,6,3,4117392122447263950
0.7,0.1,3,4,7504953957962373486
0.9,0.3,2,0,5431571277908561628
0.7,0.1,7,5,8359616379255297328
0.7,0.5,9,8,4628114034105263918
0.7,0.1,9,4,7942426683382521412
0.9,0.3,0,2,6433503760176600860
0.7,0.3,9,8,1833616094368873104
0.9,0.3,4,0,6985185237440201642
0.9,0.3,2,1,2504740390623323836
0.7,0.5,9,9,6672506092179622840
0.1,0.1,1,5,7219612208010921062
0.7,0.1,1,5,2649077824599129340
0.7,0.3,9,9,8373786062893177067
0.9,0.3,6,0,63568464181988572
0.9,0.3,0,3,927302006180175756
0.9,0.3,4,1,696920636811262506
0.9,0.3,2,2,1481871599854929104
0.1,0.1,7,9,3005176282564836270
0.9,0.1,4,4,9027620737179885632
0.7,0.1,5,5,6280801103305413021
0.9,0.3,8,0,8659721557601367414
0.9,0.3,6,1,8011535472247931627
0.9,0.1,0,5,8437955826025362470
0.9,0.1,6,4,9220139239092345724
0.9,0.3,0,4,6904755514803505232
0.9,0.1,8,2,6791859694029818746
0.7,0.1,3,5,1155024664586104613
0.9,0.1,2,5,7199912685961104062
0.9,0.3,4,2,9029863554172054761
0.9,0.3,2,3,3510533506458437370
0.7,0.1,7,6,8569156501285733173
0.9,0.3,6,2,4920577320904017356
0.1,0.1,5,5,7793281056154127289
0.1,0.1,9,6,5229463232819971648
0.9,0.3,2,4,1392409569677198143
0.7,0.1,9,5,6078700154762459179
0.7,0.1,1,6,5264831874527492832
0.9,0.3,8,1,5958588340903609732
0.9,0.3,0,5,4284306255025874858
0.9,0.3,4,3,989027184761776810
0.9,0.3,6,3,1519012449846960972
0.9,0.3,2,5,3557119949581188016
0.9,0.3,0,6,1168891726705076452
0.9,0.3,8,2,7267619713002146731
0.9,0.1,6,5,8630033119314348924
0.9,0.3,4,4,5822582542993467338
0.7,0.1,5,6,1635922201765254078
0.9,0.1,0,6,4987978674433731884
0.9,0.3,6,4,5897881196467266445
0.7,0.1,7,7,8213243292647382329
0.9,0.1,4,5,2874790885228650540
0.9,0.3,2,6,5422159959119419954
0.9,0.1,8,3,7369284506779236180
0.9,0.3,8,3,30003280486925299
0.9,0.3,0,7,7332284209126719869
0.9,0.1,2,6,5277330391268872830
0.9,0.3,4,5,4401531145551102136
0.7,0.1,3,6,3916375710803586921
0.1,0.1,1,6,6307139972388959073
0.9,0.3,6,5,1621699466506568860
0.7,0.1,1,7,8207598720117255681
0.9,0.3,2,7,3235844685877067630
0.9,0.3,8,4,6204974055688677938
0.7,0.1,9,6,1966756331492123800
0.9,0.3,0,8,5738622526400232854
0.9,0.3,4,6,779888240529645366
0.9,0.3,2,8,4805276885671793279
0.9,0.3,6,6,8236084397822970521
0.7,0.1,7,8,1645323463127533489
0.9,0.1,6,6,619744191289104181
0.9,0.3,8,5,1573661904248667099
0.9,0.3,0,9,4415587515195940569
0.9,0.1,0,7,1974372053643459973
0.9,0.3,4,7,2909475302243298279
0.7,0.1,5,7,716369094385917497
0.9,0.3,6,7,3600027649724897404
0.9,0.3,2,9,6825666840742778722
0.9,0.1,8,4,3573978369250386260
0.9,0.5,0,0,3138083819676566131
0.7,0.1,3,7,5419923238222217671
0.9,0.3,8,6,2675275752158277248
0.7,0.1,1,8,4713212401713567496
0.9,0.1,4,6,4370780348004930497
0.9,0.3,3,0,7073145699532407131
0.9,0.1,2,7,1228204069320186729
0.9,0.5,0,1,4779401745742469839
0.9,0.3,4,8,8436076915041938921
0.9,0.3,1,0,4648420831961582601
0.9,0.3,6,8,7197094704619212607
0.9,0.3,8,7,3834239824902077715
0.1,0.1,9,7,7461425984796567364
0.9,0.5,0,2,6321868705160880745
0.7,0.1,9,7,3548415269312487020
0.9,0.3,4,9,3964398501858849957
0.9,0.1,6,7,5072327776233743505
0.9,0.3,1,1,8555944126649455721
0.9,0.3,3,1,3062944057054246272
0.9,0.3,6,9,176637069069157092
0.9,0.3,8,8,2310839248512125761
0.9,0.5,0,3,625685362723105665
0.7,0.1,7,9,5447720791466798637
0.9,0.1,8,5,385762832801482439
0.7,0.1,3,8,5675764929836400226
0.9,0.1,0,8,7394013112120304015
0.9,0.5,0,4,1548260487542963192
0.7,0.1,5,8,395973820140081428
0.9,0.1,4,7,8888727195695177839
0.9,0.3,5,0,5714604462751959096
0.9,0.3,7,0,921850671211237508
0.9,0.1,2,8,3931057850130726671
0.9,0.3,3,2,2004342420710372345
0.9,0.3,1,2,7155605570656184809
0.9,0.3,8,9,4987141850635829247
0.7,0.1,1,9,8271933101240685752
0.9,0.5,0,5,3341263830122030699
0.9,0.3,5,1,5530595752784721389
0.7,0.1,9,8,1069282025354853233
0.9,0.3,7,1,1698020333017728851
0.9,0.5,0,6,7060036334752331538
0.9,0.3,9,0,3496056324300051575
0.9,0.3,3,3,1514502197541498248
0.9,0.3,1,3,4384921120669143717
0.9,0.1,6,8,7281248346571751868
0.9,0.5,2,0,9187178583790943666
0.9,0.5,0,7,136614131068987233
0.9,0.3,5,2,3467218705929376431
0.9,0.3,7,2,3611480882034994828
0.9,0.5,2,1,4861500298480357384
0.9,0.3,9,1,5149211429103587878
0.9,0.5,0,8,2812384990966980627
0.9,0.1,8,6,6656332492943444897
0.1,0.1,5,6,7734134774064006537
0.9,0.3,1,4,6892210376399656886
0.9,0.3,3,4,873272319740449591
0.9,0.5,4,0,2026084812010659833
0.9,0.1,4,8,6047757340846987346
0.9,0.5,2,2,3388270314533851987
0.9,0.1,0,9,4072791563557512056
0.7,0.1,5,9,4413379682970118859
0.7,0.1,3,9,5895972162179278011
0.9,0.3,7,3,1846802854160208117
0.9,0.1,2,9,2374357194552819139
0.9,0.5,0,9,4810843822779979972
0.9,0.3,9,2,7997728303222519566
0.9,0.5,4,1,7809097718627930183
0.9,0.3,5,3,1390313236395440053
0.9,0.5,2,3,6160239943082334063
0.9,0.3,1,5,6463091180416879699
0.7,0.1,9,9,2350295966527349924
0.9,0.3,3,5,5943518219750771924
0.9,0.5,4,2,5960152946362280761
0.9,0.5,1,0,6717558257438158254
0.9,0.3,7,4,7571527255695458805
0.9,0.3,5,4,3941694099133319813
0.9,0.5,2,4,5768772353618108623
0.9,0.3,9,3,2195287068485063415
0.9,0.5,4,3,8226585691118690022
0.9,0.3,1,6,4995300528378912460
0.9,0.5,1,1,2643793941208035614
0.9,0.3,3,6,5353842892351174833
0.9,0.1,6,9,2956941230476437827
0.9,0.1,8,7,7894457068730916793
0.9,0.5,2,5,2917497226920205798
0.9,0.3,5,5,2997714802937142246
0.9,0.3,7,5,5778424048225994298
0.9,0.1,3,0,4260838434628364771
0.9,0.5,6,0,2301711750216402291
0.9,0.5,8,0,2411003024742052838
0.9,0.5,4,4,3797637208453777153
0.9,0.5,1,2,5057611082013672256
0.9,0.5,2,6,3272223874936576890
0.9,0.3,9,4,6468241299650761871
0.9,0.3,3,7,6993760272680092283
0.9,0.1,4,9,5686969425704904858
0.9,0.3,5,6,2161389404520948433
0.9,0.3,1,7,8436717906987975630
0.9,0.1,1,0,4783069607169446518
0.1,0.1,9,8,5236452716720999890
0.1,0.1,1,7,9175591822246984844
0.9,0.5,8,1,2026650946026468195
0.9,0.5,6,1,7562557068217841903
0.9,0.3,7,6,2748069554331286019
0.9,0.5,4,5,4176664523360923544
0.9,0.5,1,3,7477840091206047238
0.9,0.5,2,7,2927967993957654409
0.9,0.3,1,8,2222107789898177288
0.9,0.3,9,5,7005177313238778348
0.9,0.3,3,8,706499458506029242
0.9,0.5,8,2,2729799493069452594
0.9,0.5,6,2,8225539988010061711
0.9,0.3,5,7,5357298730972795682
0.9,0.5,4,6,4257312507944075264
0.9,0.5,1,4,8090589957696618769
0.9,0.5,2,8,1716379221180698345
0.9,0.3,7,7,5125923438500782689
0.9,0.5,8,3,3362988402906440031
0.9,0.1,7,0,6791110627501164743
0.9,0.5,6,3,6781956633670890870
0.9,0.3,1,9,2006838418924421948
0.9,0.5,4,7,2636380915597944136
0.9,0.5,1,5,4016191342146405273
0.9,0.3,5,8,3146032731974692635
0.9,0.5,6,4,7081404435318727161
0.9,0.5,8,4,6049542163891239952
0.9,0.3,9,6,3371443565002601886
0.9,0.3,3,9,3662003027450318312
0.1,0.1,5,7,659844075958962659
0.9,0.5,2,9,5478624478524122451
0.9,0.3,7,8,8999693445388066486
0.9,0.5,6,5,8001317877538934980
0.9,0.5,4,8,1971568215219078878
0.9,0.1,8,8,3131123804810666189
0.9,0.5,1,6,255063193351606928
0.9,0.5,8,5,6034153288791388895
0.9,0.5,3,0,2936901129086510799
0.9,0.1,1,1,3990472776669598931
0.9,0.3,5,9,4523010893130192250
0.9,0.1,3,1,8524442520041731699
0.9,0.3,9,7,7212849874057372990
0.9,0.5,1,7,6033071639819674415
0.9,0.5,6,6,260559063453176129
0.9,0.5,8,6,4384499826343647493
0.9,0.1,5,0,3461653969135561906
0.9,0.5,4,9,5046707123432168300
0.9,0.5,1,8,8313218736354127703
0.9,0.3,7,9,4452459216743440103
0.9,0.5,3,1,8025059723413651189
0.9,0.5,8,7,465423313370644130
0.9,0.3,9,8,3739671824221152142
0.9,0.5,6,7,5753721010642366291
0.9,0.5,5,0,4531432663108589998
0.9,0.1,7,1,1756613983674482026
0.9,0.5,3,2,3915094264985847278
0.9,0.5,1,9,7708080282411568888
0.9,0.5,8,8,5885427460620282025
0.9,0.5,6,8,5956859683619130830
0.9,0.5,5,1,3262218362671953044
0.9,0.3,9,9,2636186511349582734
0.9,0.5,3,3,6480320152855192615
0.9,0.5,8,9,505142698855097839
0.9,0.5,5,2,5496806753659610439
0.9,0.5,6,9,7509314703046070832
0.9,0.1,8,9,9157568084994944316
0.9,0.5,9,0,6239267299659405602
0.9,0.1,5,1,2343898669065169685
0.9,0.5,3,4,872187852949065251
0.9,0.5,7,0,733355312939378575
0.9,0.1,3,2,235819310546725241
0.9,0.5,5,3,3050174119314813056
0.9,0.1,1,2,6046110190628892694
0.9,0.5,3,5,6187437056332467171
0.9,0.5,7,1,4713082982581346310
0.9,0.5,9,1,6787703579928894637
0.9,0.1,7,2,1393975291988369125
0.1,0.1,1,8,8889867663046863151
0.9,0.5,5,4,4588082929284562558
0.9,0.5,7,2,1524348778129794668
0.9,0.5,3,6,3212184533017409259
0.9,0.5,9,2,4783946745675269422
0.9,0.5,7,3,5990815075179464918
0.9,0.5,5,5,7003829288938929543
0.9,0.5,3,7,2623710638128247368
0.9,0.5,7,4,2919093915860706236
0.9,0.1,5,2,6923868197386507190
0.9,0.5,5,6,4749385301774787137
0.9,0.5,9,3,727209831787074691
0.9,0.1,9,0,4089027897102975227
0.9,0.5,3,8,5037243424449020010
0.9,0.5,7,5,4660899981207947029
0.9,0.1,7,3,1630625498676044869
0.9,0.5,5,7,7480721389282670245
0.9,0.5,9,4,8191128016604227428
0.9,0.1,3,3,5692652323850195607
0.9,0.5,7,6,6518121574481447699
0.9,0.5,3,9,5346900420525564242
0.9,0.5,5,8,5900970405225240666
0.9,0.5,9,5,4571989323659474060
0.1,0.1,5,8,7594616775233664493
0.9,0.5,7,7,2842042120780198572
0.9,0.1,1,3,4269476465721398853
0.9,0.5,5,9,2049848412091227566
0.9,0.5,7,8,3525350809969559645
0.9,0.5,9,6,8202096348584861338
0.9,0.1,5,3,7822510909258262168
0.9,0.5,7,9,541588508277263288
0.9,0.5,9,7,7603311745156702921
0.9,0.5,9,8,8293208953698754253
0.9,0.1,7,4,3485865931754901598
0.9,0.1,3,4,685238892826421796
0.9,0.1,9,1,4738664021120378590
0.9,0.1,5,4,4016367565989539228
0.9,0.1,1,4,956009783191480505
0.9,0.5,9,9,4367953106076617548
0.9,0.1,7,5,3465215059954592445
0.9,0.1,1,5,3188647439457044404
0.9,0.1,5,5,2826881747513302660
0.9,0.1,3,5,5579227681752395639
0.9,0.1,9,2,2089814854858987654
0.9,0.1,7,6,7643638662824753317
0.1,0.1,5,9,2533101950559695904
0.9,0.1,1,6,6493469456565383881
0.9,0.1,7,7,5726192332696188136
0.9,0.1,5,6,5766676100236453886
0.9,0.1,7,8,7424675658024021099
0.9,0.1,9,3,4674328140596064821
0.9,0.1,3,6,5991433975457579433
0.1,0.1,9,9,2082549031988309100
0.9,0.1,1,7,6932380803202883586
0.9,0.1,5,7,4540668913587786748
0.9,0.1,9,4,9109039797564722812
0.9,0.1,7,9,3564644594397234049
0.9,0.1,3,7,2666528074108047288
0.9,0.1,1,8,6357760347738317350
0.9,0.1,9,5,3353181631321930053
0.9,0.1,5,8,6405204038835857880
0.9,0.1,3,8,2599987363013110907
0.9,0.1,1,9,8466925684066208329
0.9,0.1,9,6,8338811035036123609
0.9,0.1,5,9,8353028733352061099
0.9,0.1,3,9,7962901766249904974
0.9,0.1,9,7,2478844865119921357
0.9,0.1,9,8,3981993359671353028
0.9,0.1,9,9,8558702780282347973
0.1,0.1,1,9,1674301946870099161
0.2,0.1,0,0,6653586047793554754
0.2,0.1,3,6,1746813437613346577
0.2,0.1,1,8,8504513207797331017
0.2,0.1,9,0,5577844295565833552
0.2,0.3,4,4,5659297619666346360
0.2,0.1,7,2,8855921848869825456
0.2,0.3,8,0,8437062335123904032
0.2,0.5,3,4,683442562137936827
0.2,0.5,7,0,4383567937010044347
0.2,0.3,2,6,2130104421298594774
0.2,0.1,5,4,2832901164319465156
0.2,0.3,6,2,9015087514717722674
0.2,0.5,1,6,4698494880001925920
0.2,0.5,5,2,6041091538789995492
0.2,0.3,0,8,7980796286779512270
0.2,0.3,9,8,3505808343607211975
0.2,0.5,8,8,2845072768777842269
0.2,0.5,8,9,7017190084409916342
0.2,0.3,4,5,5043688062590072758
0.2,0.5,5,3,6695016823628634031
0.2,0.5,1,7,6736820963663305632
0.2,0.5,3,5,3401767599395134555
0.2,0.5,7,1,2942880305669442567
0.2,0.3,6,3,1513020780694134771
0.2,0.3,9,9,1168711781029650830
0.2,0.3,2,7,7074440483969199016
0.2,0.3,0,9,7243890390733709142
0.2,0.5,1,8,9160014902700677828
0.2,0.5,3,6,7313813618285187618
0.2,0.3,8,1,519645663140446547
0.2,0.3,4,6,5754072057022368172
0.2,0.5,7,2,6178115521914285918
0.2,0.5,9,0,3343530186940451305
0.2,0.5,9,1,4794230467553982148
0.2,0.5,1,9,3014853813230264500
0.2,0.1,1,9,6858841821591919400
0.2,0.1,9,1,3081402436142795140
0.2,0.5,3,7,5711187107850510214
0.2,0.5,5,4,8803163992788041139
0.2,0.3,8,2,4856717127885608247
0.2,0.3,1,0,800727629884402515
0.2,0.1,5,5,3346388858942122181
0.2,0.5,0,0,265603897524639422
0.2,0.5,7,3,1986501356977263499
0.2,0.5,2,0,7130200103096782630
0.2,0.1,3,7,9010594218356631970
0.2,0.3,4,7,7824414799911047464
0.2,0.5,3,8,6085874681265165203
0.2,0.5,5,5,8460810017107449055
0.2,0.5,9,2,2634491220253984408
0.2,0.3,8,3,8293353597953191529
0.2,0.5,2,1,9179608568978535373
0.2,0.3,6,4,2656857943628964120
0.2,0.5,0,1,58513623017865608
0.2,0.1,7,3,7286573703355175677
0.2,0.1,0,1,4895457142616185992
0.2,0.3,4,8,2155910403846478569
0.2,0.5,2,2,3523288941925592805
0.2,0.5,9,3,8969131071247084693
0.2,0.5,5,6,5039599192237519678
0.2,0.5,3,9,3022647930581374315
0.2,0.3,8,4,3402973844322173171
0.2,0.3,1,1,8840424145602300456
0.2,0.3,6,5,3047974292242971751
0.2,0.5,0,2,4917897012103084516
0.2,0.5,9,4,9192660765405405563
0.2,0.5,2,3,6946180534725876200
0.2,0.5,5,7,3116739596743036184
0.2,0.5,7,4,4027086175420827893
0.2,0.5,4,0,9144486265010389587
0.2,0.3,4,9,1320647168197306620
0.2,0.5,9,5,8951364071758751785
0.2,0.3,1,2,1276600962848509798
0.2,0.5,2,4,1242068561292335017
0.2,0.1,9,2,4250691687385144883
0.2,0.5,5,8,8076433878262098727
0.2,0.3,6,6,4234247694715845554
0.2,0.3,8,5,350821909935288849
0.2,0.1,2,0,1972970873276299523
0.2,0.5,0,3,6707844267227737601
0.2,0.5,7,5,5970724102957174578
0.2,0.1,3,8,5719812350954580769
0.2,0.5,2,5,4414533169516081933
0.2,0.5,9,6,3950037100603193905
0.2,0.3,2,8,7689319407446026334
0.2,0.1,7,4,3986301278656869749
0.2,0.3,1,3,4246696978784279066
0.2,0.1,5,6,2522472170537707668
0.2,0.3,5,0,8081531078949553975
0.2,0.5,4,1,6349668118808403588
0.2,0.5,7,6,91232978881792374
0.2,0.5,2,6,3508447775055555357
0.2,0.3,6,7,1061578557660498152
0.2,0.5,9,7,1596962547284190855
0.2,0.3,8,6,6274956956507273568
0.2,0.5,0,4,6569509363291327994
0.2,0.5,4,2,3659039870232819068
0.2,0.3,1,4,4068597499478850299
0.2,0.5,5,9,6245707239820722730
0.2,0.5,2,7,4496306112236755412
0.2,0.5,9,8,8302848769057171609
0.2,0.1,0,2,4671681116207244087
0.2,0.3,6,8,5982045880971486590
0.2,0.5,7,7,2361694616412712189
0.2,0.3,2,9,7670493439566957805
0.2,0.5,0,5,2160776716365853557
0.2,0.5,6,0,700606095105628884
0.2,0.5,2,8,8460545146377447641
0.2,0.3,8,7,7021164252670694978
0.2,0.3,1,5,4631201506745575795
0.2,0.5,7,8,6849816231100466561
0.2,0.3,5,1,4048457226578727553
0.2,0.3,6,9,4259245610258718745
0.2,0.5,9,9,6884647195096339626
0.2,0.5,4,3,3551969204184689390
0.2,0.5,6,1,2368808934062189993
0.2,0.5,0,6,8773468491782141290
0.2,0.5,2,9,5154722266780063312
0.2,0.1,9,3,6686423729019181760
0.2,0.3,8,8,5659947489071529780
0.2,0.3,3,0,6817986066229826667
0.2,0.5,7,9,693642975937928853
0.2,0.5,6,2,2525727045147657603
0.2,0.3,5,2,6476369483260057379
0.2,0.5,3,0,4910488969138907020
0.25,0.1,0,0,5221034603494829871
0.2,0.5,4,4,848541442524674569
0.2,0.5,0,7,6033977543671556212
0.2,0.1,5,7,2653812728130436287
0.2,0.5,6,3,2216901029733385723
0.2,0.3,7,0,5039941730118522161
0.2,0.1,7,5,1758685858758351521
0.2,0.3,8,9,1175562296160542017
0.2,0.3,3,1,3684923459966816783
0.2,0.5,3,1,1107304744423973253
0.2,0.3,1,6,7020789198854167336
0.2,0.1,3,9,1616585110695363937
0.2,0.5,8,0,3039974729944617648
0.2,0.1,2,1,9137255989790495963
0.2,0.5,4,5,1443804433780648730
0.2,0.5,0,8,6862109297237512610
0.2,0.3,5,3,8070807704842509561
0.2,0.5,6,4,2832514118497400626
0.2,0.3,7,1,1236681334792939029
0.2,0.5,3,2,4489191697107508325
0.2,0.5,8,1,304303609944701892
0.2,0.5,0,9,8112351954788651958
0.2,0.3,1,7,3992079874529820024
0.2,0.5,4,6,4457560867334735232
0.2,0.3,3,2,1552104984494948293
0.2,0.5,3,3,3893326918738080674
0.2,0.3,9,0,3752798186373519079
0.2,0.5,6,5,2171542493359445009
0.2,0.1,9,4,5694858420113552246
0.2,0.5,8,2,5998814313056157702
0.2,0.5,1,0,5935776650986180650
0.2,0.3,7,2,4669822061679077443
0.2,0.1,0,3,5543041280995842794
0.25,0.1,0,6,8572663726847156409
0.2,0.3,1,8,3734988181396879907
0.25,0.1,0,1,9110257315607781280
0.2,0.5,4,7,8949659548507397135
0.2,0.5,8,3,6571682732156873006
0.2,0.5,6,6,508764012990983000
0.2,0.3,5,4,7389052952945829632
0.2,0.1,7,6,4413768634017848463
0.2,0.3,3,3,1365696322267851300
0.2,0.3,9,1,1423194818166965012
0.2,0.5,1,1,5159272304313297903
0.2,0.5,6,7,2100310909201113220
0.2,0.3,1,9,4576324392471892523
0.2,0.3,7,3,5759414981489835336
0.2,0.5,4,8,1942467585561194562
0.2,0.5,8,4,7578746179926429421
0.2,0.5,6,8,2733442152435452928
0.2,0.3,3,4,9094041997985298732
0.2,0.5,1,2,7773846275187762485
0.2,0.3,5,5,4472034760865087977
0.2,0.5,4,9,8183854030233437816
0.2,0.5,8,5,2749732507845824534
0.2,0.5,6,9,7134014620684947002
0.2,0.3,7,4,8818583860087554380
0.2,0.5,1,3,4292140648085979146
0.2,0.5,5,0,8907909444639805944
0.2,0.3,9,2,4345016276850288172
0.2,0.1,4,0,6924206798256243604
0.25,0.1,2,4,3663499030169570854
0.2,0.3,3,5,8011097159263138151
0.2,0.1,2,2,5465422104909280735
0.2,0.5,1,4,9160366835866681121
0.2,0.5,8,6,9192560544705978015
0.2,0.3,5,6,3872414843728307253
0.2,0.5,5,1,95677631050862491
0.2,0.3,7,5,8258395397685683107
0.2,0.3,9,3,7051359551737363161
0.2,0.3,2,0,4840210020737521211
0.2,0.1,5,8,5886438797003657724
0.2,0.5,1,5,4721596206322663960
0.2,0.1,0,4,706783735291588550
0.2,0.3,3,6,1496412861274756049
0.2,0.5,8,7,1505279982851822411
0.25,0.1,4,2,3547963115454354963
0.2,0.1,9,5,1875013097846646482
0.2,0.3,5,7,2295579388988165632
0.2,0.3,7,6,194379288158588421
0.25,0.1,6,0,7370102835140054715
0.2,0.3,9,4,1888267524524437061
0.25,0.1,7,8,9177138230766565109
0.2,0.3,3,7,2277948511977741517
0.2,0.1,7,7,3661876545251434582
0.2,0.3,7,7,3683738932176683711
0.2,0.3,5,8,7740384974408460410
0.25,0.1,2,5,2161720223086813528
0.2,0.3,2,1,4564673656557274268
0.2,0.3,3,8,3330434465452615314
0.2,0.1,4,1,5311541210628313345
0.2,0.1,5,9,4677583039210924478
0.2,0.3,9,5,390707024059530795
0.25,0.1,4,3,2746449373516623626
0.2,0.3,7,8,5010219902050906635
0.2,0.1,2,3,2693690648024282820
0.25,0.1,0,7,6460204279632441594
0.2,0.3,5,9,4929816264136697495
0.2,0.3,3,9,7060365620157470392
0.2,0.3,2,2,5921326467589872894
0.2,0.1,0,5,325820435542074521
0.25,0.1,7,9,2582186711696179927
0.2,0.3,9,6,7887260483141359455
0.2,0.3,4,0,7824732654295791126
0.2,0.3,7,9,9077000403753087470
0.25,0.1,0,2,6463979153576348279
0.2,0.3,6,0,8410557389300238150
0.2,0.1,7,8,2901611521766371719
0.25,0.1,6,1,1147291918701008525
0.2,0.3,2,3,2361313930548672762
0.25,0.1,0,8,6303874177556067883
0.2,0.3,4,1,1866803366180737805
0.2,0.1,4,2,2728845051560246494
0.2,0.1,6,0,273402853287403003
0.2,0.3,6,1,5728787322164450935
0.25,0.1,2,6,347202820270522279
0.2,0.1,2,4,3725312434004792216
0.2,0.3,2,4,2661387651349388549
0.2,0.3,9,7,939208905278769244
0.25,0.1,4,4,6922995453524738047
0.2,0.3,4,2,628990316934573895
0.25,0.1,9,6,7911115668392276598
0.25,0.1,8,0,4629884400951234357
0.2,0.1,0,6,5602142890576588963
0.25,0.3,1,4,8524811076201167422
0.2,0.3,2,5,7337102569744190729
0.2,0.1,7,9,620828981371434647
0.25,0.3,3,2,7080661219610616694
0.25,0.1,6,2,3007290273904942443
0.2,0.3,4,3,3188682810755279164
0.25,0.1,0,3,8559667714587324368
0.25,0.3,5,0,1462550586761016726
0.2,0.1,4,3,7821534168139907050
0.25,0.3,3,3,972622210449462521
0.25,0.3,6,8,1806244407287590117
0.25,0.3,5,1,3831314792935577951
0.2,0.1,9,6,5492583554910960529
0.2,0.1,6,1,4327207265671369153
0.25,0.1,8,1,6475988482797562460
0.25,0.1,9,7,4929938152002174812
0.25,0.1,0,9,4876082314641730549
0.2,0.1,0,7,9049235021045284642
0.25,0.3,1,5,2850838123104266310
0.25,0.3,3,4,8793997625184894208
0.25,0.1,4,5,5088963896636553588
0.2,0.1,2,5,3054205999753164240
0.25,0.1,6,3,2623487270220541821
0.25,0.1,0,4,5582670221142414306
0.25,0.3,5,2,8233429333712768875
0.25,0.3,6,9,1200515463184181510
0.25,0.3,3,5,5208245989220758651
0.25,0.3,7,0,878599387806101133
0.25,0.3,1,6,3382951519166360698
0.25,0.1,2,7,4560359034892580210
0.25,0.3,5,3,3549136562307702606
0.2,0.1,6,2,8989921850085280287
0.25,0.3,3,6,4375054061751673921
0.25,0.1,9,8,7377861184806785243
0.25,0.1,8,2,7711497029147293812
0.25,0.1,4,6,7051779911153553104
0.25,0.3,7,1,1693855093596557356
0.25,0.1,6,4,7564352961478848238
0.2,0.1,4,4,7864182584209708623
0.25,0.3,3,7,2759664273686697520
0.25,0.1,0,5,5958848008684424377
0.2,0.1,2,6,6646163229442606113
0.25,0.1,1,0,4765130366216586077
0.2,0.1,9,7,9041169261719799536
0.25,0.1,2,8,6233234598304266321
0.2,0.1,8,0,4773479659645119739
0.25,0.3,3,8,8225410384792492566
0.25,0.3,5,4,9187801889149089870
0.25,0.3,1,7,3798617069428316032
0.25,0.3,7,2,1683373233551844121
0.2,0.1,6,3,7408838427183334
0.25,0.1,8,3,3503193165863994979
0.25,0.3,5,5,1604469433751440888
0.25,0.1,4,7,3028231429804270057
0.25,0.1,9,9,3510046164119376336
0.25,0.3,1,8,5184016571884793873
0.25,0.1,6,5,4186986313925810371
0.25,0.3,8,6,5213330620016696727
0.25,0.3,3,9,2094990632418324056
0.25,0.3,5,6,9054702226556932896
0.25,0.1,1,1,5691140628078860229
0.25,0.1,2,9,6398138946452011279
0.2,0.1,9,8,1239118639766909695
0.2,0.1,2,7,8121886162902386634
0.25,0.3,7,3,1238311775119760879
0.25,0.3,4,0,918941043739265417
0.25,0.3,8,7,8192566092119317526
0.25,0.3,1,9,8932183965708754399
0.25,0.3,5,7,7777190942993428234
0.25,0.1,4,8,6736207999998218196
0.25,0.1,8,4,6817015926914296189
0.25,0.3,4,1,6318748392032114566
0.25,0.3,0,0,9088618398210076815
0.25,0.3,7,4,6134718729915806163
0.25,0.3,8,8,6041230939215183660
0.25,0.1,6,6,1812706178754482781
0.25,0.3,5,8,1833506176842350697
0.25,0.3,4,2,2768489144561621535
0.25,0.1,3,0,8098412950408485824
0.2,0.1,8,1,7476881607302422786
0.25,0.3,8,9,713256035370947267
0.25,0.3,7,5,2269089770307461563
0.25,0.3,5,9,1625404050642723327
0.25,0.3,4,3,8341016839565513681
0.25,0.3,0,1,1712830187668791563
0.2,0.1,6,4,51839735382562227
0.25,0.1,8,5,6613509775034335949
0.25,0.1,4,9,6473038243743060852
0.2,0.1,9,9,4873518985490313896
0.25,0.3,7,6,316435932502418691
0.25,0.3,6,0,7564668693788408584
0.25,0.3,9,0,1573583438605758436
0.25,0.3,4,4,2197148400944359646
0.25,0.1,1,2,5977384433743983958
0.25,0.3,9,1,2944548724556342313
0.25,0.1,3,1,8270770990388218566
0.25,0.3,0,2,5809003650007273992
0.25,0.3,7,7,2884142648837942546
0.2,0.1,2,8,6663206772593279564
0.25,0.3,6,1,8327128800230063572
0.2,0.1,8,2,2212228372618403354
0.2,0.1,4,5,4842517946891578262
0.2,0.1,6,5,759135029952940496
0.25,0.3,9,2,3339654471981663105
0.25,0.3,0,3,424845242009762213
0.25,0.1,8,6,2228805864486244325
0.25,0.3,4,5,6631202596143468160
0.25,0.3,7,8,3791862183443698657
0.25,0.1,5,0,4638675232651136564
0.2,0.3,0,0,565102432013456319
0.2,0.1,0,8,1733817629169001942
0.25,0.3,9,3,5220449007718857952
0.25,0.3,4,6,2316087109559376201
0.25,0.3,6,2,1435681873755978289
0.25,0.3,7,9,780134151216090662
0.25,0.1,6,7,9164148952565606896
0.25,0.1,3,2,6812185510860299662
0.25,0.1,1,3,6676282764152448366
0.2,0.3,0,1,4114024871758044542
0.2,0.1,4,6,639801931606856411
0.2,0.1,2,9,8368056601600188663
0.25,0.3,9,4,8758584637124749189
0.25,0.3,6,3,4718383587921304951
0.2,0.1,6,6,1159056699096117822
0.25,0.3,2,0,3880332479687827363
0.25,0.3,4,7,4104303820358131434
0.25,0.3,8,0,1280625380365920769
0.2,0.3,0,2,5293319058094857868
0.25,0.3,6,4,360100273057943476
0.25,0.1,5,1,7504635810597311637
0.25,0.3,9,5,4955418163978434562
0.25,0.3,4,8,3112366755544984956
0.2,0.1,8,3,2145773950108440542
0.2,0.1,0,9,867809585302964105
0.25,0.3,8,1,4475744406807074234
0.25,0.1,8,7,3018642867037780110
0.25,0.3,2,1,5924519755117751106
0.25,0.1,1,4,5015964811949627759
0.2,0.3,0,3,8800045787213504192
0.25,0.3,4,9,2903999115284677948
0.25,0.3,0,4,3712465721409816292
0.25,0.3,8,2,8092226572448186181
0.25,0.1,3,3,1200696773991064574
0.2,0.1,3,0,1302339765570632297
0.2,0.1,6,7,3097818554314631876
0.25,0.3,2,2,598764413467585037
0.25,0.3,9,6,6854411913063043362
0.25,0.1,6,8,4161324359505266018
0.25,0.3,6,5,701529908932588685
0.2,0.3,0,4,7648434922958765129
0.25,0.3,0,5,9011106665325253489
0.25,0.1,5,2,3939594609632576010
0.2,0.1,4,7,7232461573912892513
0.25,0.5,0,4,481174083609121734
0.25,0.3,8,3,6167740655788337133
0.25,0.3,2,3,6595838342696697864
0.25,0.3,0,6,7464314970550051412
0.25,0.5,0,5,1545889864792583973
0.25,0.1,8,8,2207829338222760782
0.25,0.3,6,6,2809730282269074759
0.25,0.3,9,7,6376151628404704740
0.25,0.5,0,6,5784614833096078690
0.2,0.3,0,5,4241867796442434771
0.2,0.1,1,0,5373022833556534140
0.25,0.3,8,4,6697917163138612242
0.25,0.3,2,4,7805510474296521680
0.25,0.3,9,8,3596212968244615813
0.2,0.1,6,8,7792321549502410476
0.2,0.1,8,4,5023723723954578475
0.25,0.5,0,7,7827735619671989725
0.25,0.3,0,7,1738987887956461445
0.2,0.1,3,1,5203651152031170031
0.2,0.3,0,6,3457924354180846581
0.25,0.3,6,7,2809880183618468156
0.25,0.3,0,8,7658033298750321356
0.25,0.3,8,5,3674774349497182834
0.25,0.3,9,9,3759849790905420288
0.25,0.1,6,9,8901632799096923726
0.25,0.3,2,5,7852231054283934778
0.25,0.5,0,8,4234329178540347537
0.25,0.1,5,3,3655852240886798066
0.25,0.5,2,2,3508664282927919458
0.2,0.1,4,8,6474054140008616978
0.25,0.5,4,0,3197056789840768508
0.25,0.1,3,4,8664258361443478853
0.25,0.3,0,9,5824843160158009654
0.2,0.3,0,7,7404153724394991043
0.25,0.5,2,3,6652126604711160657
0.25,0.1,8,9,106003553357189285
0.25,0.5,0,0,7015727344695608853
0.25,0.5,0,9,8285106160222674060
0.25,0.3,2,6,2069540449226118721
0.25,0.5,4,1,6980206263579071297
0.25,0.5,2,4,4610520191207997859
0.25,0.5,0,1,5321255152963528746
0.25,0.5,1,0,2327767962383922283
0.25,0.5,4,2,5319916611459097612
0.25,0.3,1,0,9194026556656440003
0.25,0.1,5,4,4190602305886929687
0.2,0.1,3,2,81384326251439421
0.25,0.3,2,7,6736855124420679417
0.25,0.5,1,1,712319845095055746
0.25,0.5,4,3,3330099075435776114
0.25,0.5,2,5,8550809469894205002
0.25,0.5,0,2,2182397099311503887
0.2,0.1,8,5,1169060301970585539
0.25,0.3,1,1,660513091203395956
0.2,0.1,6,9,1119810301907434851
0.25,0.5,2,6,51389937564948887
0.25,0.5,0,3,2434984328945870377
0.25,0.1,7,0,1454293545836875961
0.25,0.5,4,4,7768053622133889242
0.2,0.1,4,9,3823490200628679682
0.25,0.1,1,5,7663603848404992473
0.25,0.5,1,2,2637011214752940953
0.2,0.1,1,1,3686670146005551195
0.25,0.5,5,8,1557212188171849578
0.25,0.3,2,8,7588148992847914646
0.25,0.1,3,5,689943207944789146
0.25,0.5,7,6,4254752610595867631
0.25,0.5,1,3,7392746436564662107
0.25,0.3,1,2,8204420898717566052
0.25,0.5,2,7,5941744943653229917
0.25,0.5,4,5,138786247581345916
0.25,0.5,5,9,1360236489147085717
0.25,0.3,2,9,8338143705152349508
0.25,0.5,7,7,7537512084143072726
0.25,0.5,1,4,1684217104497078851
0.25,0.5,2,8,4078802762509154392
0.25,0.3,1,3,7064226591081402644
0.25,0.5,4,6,5920048268277014303
0.25,0.1,7,1,6669565723620983305
0.25,0.5,7,8,4787527246865072336
0.25,0.1,9,0,460434646470555124
0.25,0.5,1,5,8204153367510723640
0.25,0.5,6,0,4054676906527931515
0.25,0.3,3,0,4009870263145379629
0.25,0.1,5,5,4117013018268858579
0.25,0.5,4,7,2265487642155428416
0.25,0.5,2,9,8508378620257031384
0.25,0.5,7,9,8377535368265563537
0.25,0.1,1,6,3713742088266822687
0.25,0.5,9,4,2639238735966543164
0.25,0.5,1,6,3364681803480134298
0.2,0.1,5,0,6064619406887566382
0.2,0.1,3,3,8870835217205840281
0.2,0.1,8,6,8553309953274077090
0.25,0.5,3,0,4929449668560169593
0.25,0.1,3,6,7545409545419275487
0.25,0.5,6,1,3534622327116245581
0.2,0.1,1,2,8721903501936295222
0.25,0.3,3,1,7910755952911700038
0.2,0.1,7,0,4936105454069821339
0.25,0.5,4,8,7569906653346689659
0.25,0.5,8,0,1643787118576804273
0.25,0.5,3,1,2116151503056499310
0.25,0.5,1,7,5867498816770827386
0.25,0.5,9,5,6112741243754612967
0.25,0.5,6,2,8300590125060641355
0.25,0.5,4,9,4552330928631354354
0.25,0.5,8,1,8094053521728293616
0.35,0.1,1,2,1576292841616105654
0.25,0.5,1,8,3172591108885068739
0.25,0.5,6,3,1830765951149648258
0.25,0.5,3,2,825599366245763564
0.25,0.5,9,6,6205307016011433750
0.25,0.5,5,0,6289031977213333777
0.25,0.5,1,9,8010770211564537316
0.25,0.5,8,2,5038917293638798844
0.25,0.1,7,2,1795890234077272639
0.25,0.5,3,3,2628883018501611252
0.25,0.5,5,1,9132514691188211610
0.25,0.1,3,7,7949708656463676284
0.25,0.1,5,6,6853295808912910725
0.25,0.5,9,7,2360813847445579239
0.25,0.1,1,7,492030655144315035
0.25,0.5,8,3,7579283891584337595
0.2,0.1,7,1,1376696125197738819
0.25,0.5,3,4,9041612917423908878
0.2,0.1,1,3,6501721449634806970
0.25,0.5,5,2,778294530918764735
0.25,0.5,6,4,2861052064218735441
0.2,0.1,3,4,8009743905163939449
0.25,0.5,9,8,3319212776431391227
0.25,0.5,8,4,4633844893063498211
0.25,0.5,5,3,7576556251994719356
0.35,0.1,1,3,1921168781975821850
0.2,0.1,8,7,3224952884976889734
0.25,0.5,6,5,8016690370008132626
0.2,0.1,5,1,2326128485159069637
0.25,0.5,3,5,265911666778309373
0.25,0.5,9,9,5339702543527483933
0.25,0.5,6,6,692365706205758026
0.25,0.5,8,5,1684310662202876540
0.25,0.5,2,0,3741474220844885833
0.25,0.5,5,4,4343319544927813807
0.25,0.1,3,8,2411465855681750896
0.35,0.1,0,0,7789271014680844891
0.25,0.1,9,1,3706941958249385291
0.25,0.5,6,7,4195797855295877251
0.25,0.5,8,6,4330496437766515539
0.25,0.5,3,6,6326444885142784774
0.25,0.5,2,1,277177545910319419
0.25,0.1,5,7,1317051865138716385
0.25,0.5,5,5,792706800578875955
0.25,0.5,6,8,2222657579602468389
0.25,0.5,8,7,473912768638511777
0.25,0.1,7,3,2875085899668621442
0.25,0.5,5,6,1735407300970788079
0.25,0.5,3,7,2730409472338243328
0.35,0.1,3,0,1061782306231566619
0.35,0.1,4,8,8615451927588991882
0.35,0.1,1,4,8924786435173584808
0.2,0.1,8,8,4589037113033313028
0.25,0.5,8,8,1787882514155018762
0.25,0.5,3,8,980544560955860688
0.25,0.5,6,9,8977767609280226648
0.25,0.5,5,7,8255598561468132116
0.25,0.1,1,8,5810547019940797180
0.2,0.1,1,4,8518211968439073309
0.2,0.1,3,5,1248926151276164194
0.25,0.5,8,9,136175461135240645
0.2,0.1,5,2,2175374626428156157
0.25,0.5,7,0,7642766186146239138
0.35,0.1,6,6,2384480272589108352
0.25,0.5,3,9,7647703971972294557
0.25,0.1,5,8,6386965871243985383
0.25,0.5,7,1,2021467135747196519
0.35,0.1,0,1,2815540888107748494
0.25,0.5,9,0,6687213318567086137
0.35,0.1,1,5,199586713484125622
0.35,0.1,8,4,6767720956975274557
0.35,0.1,4,9,4986377119790803140
0.35,0.1,3,1,5593635167448010900
0.25,0.5,7,2,1663371031119864967
0.25,0.5,9,1,5631994323649622934
0.2,0.1,8,9,5833593841587704363
0.35,0.1,6,7,3309820799448409134
0.25,0.5,9,2,4598073590269840761
0.35,0.3,0,2,9113597957117562105
0.2,0.1,1,5,905417589727102471
0.25,0.5,7,3,5558376992508651770
0.25,0.1,1,9,3671553950563823937
0.35,0.1,0,2,7849728835523544616
0.35,0.1,1,6,862248320143733107
0.25,0.5,9,3,5939509901910510935
0.35,0.1,8,5,130282835690122465
0.25,0.1,5,9,5401044995616505973
0.25,0.1,9,2,2098613129978971117
0.35,0.3,0,3,3293342181192068378
0.25,0.1,3,9,2543479533120295929
0.35,0.3,2,0,5995839529770392655
0.25,0.5,7,4,7288473514416569371
0.35,0.1,3,2,8322167931059328585
0.2,0.1,5,3,2936176206937515710
0.35,0.1,5,0,6520452088480408813
0.35,0.3,0,4,2300161920631075935
0.35,0.3,2,1,8211521425562696861
0.25,0.5,7,5,1030085312292555263
0.25,0.1,7,4,6922464297013799544
0.35,0.1,6,8,6760042509184847900
0.35,0.1,8,6,2958457584985532693
0.35,0.3,3,8,776365587521478330
0.35,0.3,0,5,826714581883846375
0.35,0.1,0,3,769496354961736700
0.35,0.1,1,7,5249856837394967921
0.35,0.3,2,2,3396443477305541710
0.25,0.1,2,0,861978946250745681
0.35,0.3,3,9,8078399815914719053
0.25,0.1,4,0,5760506751291874737
0.35,0.3,0,6,1589203009441086341
0.35,0.1,5,1,1893905247274625713
0.2,0.1,1,6,6331538375833740009
0.35,0.3,2,3,3940836820388850824
0.25,0.1,9,3,8698037975426608414
0.35,0.3,5,6,1646570874436003497
0.35,0.1,3,3,1757084267952255605
0.35,0.3,4,0,6523005400725913992
0.35,0.3,0,7,8862184892615288525
0.35,0.3,2,4,4205327205956878220
0.35,0.1,6,9,290934516307955586
0.35,0.1,8,7,8785783926040968441
0.35,0.1,0,4,5890724645945010714
0.35,0.1,1,8,4402289952144589969
0.35,0.3,0,8,2898641061687177874
0.35,0.3,7,4,5648958236570925545
0.35,0.3,5,7,8862730629926688818
0.35,0.3,2,5,7900883899553978762
0.25,0.1,4,1,8072245639913464924
0.25,0.1,7,5,4991156761035970139
0.35,0.3,0,9,3914333257354898982
0.35,0.3,4,1,7393393890449867635
0.35,0.3,9,2,3753907398684869120
0.35,0.3,7,5,412317494781215760
0.35,0.1,5,2,722164940996317659
0.25,0.1,2,1,45245399046588049
0.35,0.3,5,8,6534849675602756576
0.35,0.3,2,6,1198287962650938491
0.35,0.1,3,4,9083414123746878111
0.35,0.1,0,5,8516887449389729872
0.35,0.1,7,0,3235853683997669644
0.35,0.3,1,0,8395378353380093206
0.35,0.3,9,3,4248812179681435798
0.35,0.3,4,2,4138012975375925363
0.35,0.3,7,6,9036511543022659833
0.2,0.1,1,7,3825268656486635845
0.25,0.1,9,4,5977691452929975074
0.35,0.3,5,9,1900503286817294408
0.35,0.1,1,9,480821849333980591
0.35,0.3,9,4,5110988685726414335
0.35,0.3,7,7,816927400856272480
0.35,0.1,8,8,2366216339908229483
0.35,0.3,1,1,1611839633987180721
0.35,0.3,2,7,904043865722386699
0.35,0.3,6,0,2773586111483224789
0.35,0.3,9,5,1600394677821789631
0.35,0.1,3,5,6303349144130177986
0.35,0.1,5,3,5069094713613802102
0.35,0.3,7,8,911437532159569297
0.35,0.3,4,3,4028535285535143255
0.35,0.1,0,6,2662264668530181135
0.35,0.3,1,2,6883326969111853960
0.25,0.1,7,6,3215584572135626393
0.35,0.3,2,8,8766153716004438537
0.35,0.3,6,1,5907160042825683997
0.35,0.3,9,6,3479638245858745182
0.35,0.1,7,1,6485676774609761047
0.35,0.3,4,4,422659603613424199
0.35,0.3,2,9,9112112048056948425
0.35,0.3,7,9,6340005413910850876
0.35,0.3,1,3,811052454659271125
0.35,0.3,6,2,2331853434946739524
0.35,0.1,2,0,7996344741290346748
0.35,0.5,1,0,8121542797608492943
0.35,0.3,9,7,1417965216333606431
0.35,0.1,8,9,9029734105926489527
0.35,0.3,3,0,6985075798086463653
0.35,0.3,4,5,8251678488314304155
0.35,0.3,8,0,8791791556440643520
0.35,0.5,1,1,2292105039621116331
0.35,0.3,1,4,1963203088113031732
0.35,0.3,6,3,8253716119673876011
0.35,0.3,9,8,1359195317615856860
0.35,0.1,3,6,1594556266261670783
0.25,0.1,2,2,7093974101852049989
0.35,0.1,0,7,5732242156601995980
0.35,0.3,3,1,764610718774109000
0.35,0.3,4,6,2955182571134046348
0.35,0.5,1,2,896100123825725359
0.35,0.3,1,5,1144888614325243643
0.35,0.3,8,1,5716249537323604852
0.35,0.3,6,4,1164172324664746322
0.35,0.1,5,4,1519560748247080682
0.35,0.3,9,9,5398360164075874733
0.35,0.1,7,2,4138938358364969966
0.35,0.5,1,3,530779579528589683
0.35,0.1,9,0,2354122042075111023
0.35,0.3,4,7,5504056218605441996
0.35,0.1,2,1,7592138952905701691
0.35,0.3,1,6,8915708299700518182
0.35,0.3,8,2,3904860345145790694
0.35,0.5,1,4,1238516602919110972
0.35,0.5,0,0,6485352417396693559
0.35,0.3,6,5,4038396849554897012
0.25,0.1,7,7,1820943332062446413
0.25,0.1,9,5,4283816558899154277
0.35,0.1,3,7,1267888882219451375
0.35,0.3,4,8,6106885829462197930
0.35,0.3,3,2,627641473314521492
0.35,0.3,8,3,4820415668253144131
0.35,0.5,1,5,574889932841203340
0.35,0.5,0,1,1383316321864095320
0.35,0.3,1,7,8297571424758312550
0.35,0.1,0,8,3485397119194612719
0.35,0.3,6,6,1620237932858543051
0.35,0.5,1,6,1648233966520535468
0.35,0.3,4,9,5352460951715040526
0.35,0.5,0,2,9048175043952102414
0.35,0.3,1,8,4554972313834938701
0.35,0.3,8,4,7904669360679594429
0.35,0.1,5,5,1485087454724051791
0.25,0.1,2,3,6712983842933787479
0.35,0.5,1,7,4277349689118097686
0.35,0.1,7,3,8496215353703503753
0.35,0.5,0,3,8459859560968530926
0.35,0.3,3,3,4469228794725583383
0.35,0.3,6,7,8699670363543597301
0.35,0.1,2,2,6974479161589559243
0.35,0.1,9,1,3830606800581826538
0.35,0.3,8,5,7653487691060592587
0.35,0.3,1,9,2343687371809672147
0.35,0.3,5,0,8474888920719750254
0.35,0.1,3,8,4479669947047937105
0.35,0.5,1,8,8211355269515186726
0.35,0.5,2,8,980583499858629497
0.35,0.3,6,8,7675002575340100913
0.35,0.3,3,4,4507188764539773000
0.35,0.5,1,9,4683692384284685512
0.35,0.5,4,6,7628427526512659598
0.35,0.3,5,1,6409843664112814698
0.35,0.3,8,6,2984831112316164013
0.35,0.5,2,9,577276034962545565
0.35,0.5,6,4,7937679371619321958
0.35,0.1,5,6,5715870741146283575
0.35,0.1,0,9,1938103804898212073
0.35,0.5,4,7,521365170987780196
0.35,0.5,8,2,5290524257871565985
0.35,0.5,2,0,3361073975886319521
0.35,0.3,3,5,2023881537610314583
0.35,0.5,3,0,3959051611204963429
0.35,0.3,5,2,4402446475211378733
0.35,0.3,6,9,3190043488095921041
0.35,0.1,9,2,5374740704013159701
0.35,0.5,6,5,2557993149179520749
0.35,0.3,8,7,5125930837588850506
0.35,0.5,4,8,1478713680896869545
0.35,0.1,7,4,3485918352892833225
0.35,0.5,8,3,7816960926858481528
0.35,0.5,2,1,3794243800667162904
0.35,0.5,0,4,2114441817461799250
0.35,0.5,3,1,6140960398459274589
0.35,0.3,3,6,2789199899678301923
0.35,0.5,6,6,9016307967479257567
0.35,0.3,5,3,4795921117631736901
0.35,0.5,8,4,8981589459925247242
0.35,0.1,3,9,9116896556160199312
0.35,0.5,4,9,8666209767648737207
0.4,0.1,0,0,832820764696805114
0.35,0.5,2,2,7424614240955235214
0.35,0.3,8,8,6903331074917880631
0.35,0.5,3,2,7819628384171460298
0.35,0.5,0,5,2998197708372333979
0.35,0.3,7,0,3254566123021145104
0.35,0.1,2,3,3597911326472583715
0.35,0.5,5,0,6372273833756350977
0.35,0.3,3,7,2830529309941574215
0.35,0.5,6,7,6739390947464873310
0.35,0.5,2,3,6056997733288588155
0.35,0.1,1,0,5403121520223887080
0.35,0.5,3,3,832335340851478187
0.35,0.3,8,9,3099477070601153981
0.35,0.1,5,7,5089954680458629113
0.35,0.5,0,6,8269631997154797964
0.35,0.5,5,1,5281211459920261190
0.35,0.1,9,3,157949633319803324
0.35,0.5,6,8,7655594698931292590
0.35,0.5,2,4,5804040728918841362
0.4,0.1,1,8,3008863419800156228
0.35,0.3,5,4,2909857326052676859
0.35,0.5,3,4,252213658901135926
0.35,0.3,7,1,6415640860719347560
0.35,0.5,0,7,4360667417313211414
0.35,0.1,7,5,662299479398699874
0.35,0.5,5,2,6514513244428482950
0.35,0.5,6,9,7621297299329124072
0.35,0.5,8,5,6055664047163193300
0.35,0.3,9,0,1860257188400661258
0.35,0.5,2,5,8804207234668797715
0.35,0.5,3,5,3884762492168540501
0.35,0.5,0,8,8197172348460612225
0.35,0.3,5,5,7126249815342596370
0.35,0.5,5,3,4378905821670758703
0.35,0.3,7,2,6754837845925723343
0.35,0.5,7,0,3126578278106578865
0.35,0.5,8,6,3969983109284134627
0.35,0.1,4,0,205811338560672117
0.35,0.5,2,6,1091888033076979176
0.35,0.5,3,6,7964089911725200721
0.4,0.1,0,1,1238469585488569355
0.35,0.3,9,1,5721780844594668462
0.35,0.5,0,9,7701504688904396087
0.35,0.5,5,4,2943619044925637042
0.35,0.1,2,4,1033324898442539643
0.35,0.1,1,1,5724846376362968933
0.4,0.1,3,6,2199866464282137845
0.35,0.5,8,7,4848235002828752252
0.35,0.5,7,1,2601004810757568589
0.35,0.5,3,7,9018807974275095142
0.4,0.1,5,4,2869240627136651277
0.35,0.1,9,4,7190278989555811373
0.35,0.5,5,5,7171285451417018139
0.4,0.1,1,9,5609560672332388863
0.4,0.1,7,2,3649902776991191849
0.35,0.5,7,2,6383355198349294663
0.35,0.5,8,8,8179809394569081369
0.35,0.5,2,7,4074404341749050344
0.35,0.1,5,8,3548907117047039942
0.35,0.5,3,8,6011092030182940715
0.35,0.5,5,6,7166144623029560
0.4,0.1,9,0,1847332307921708530
0.35,0.5,8,9,3770623381676987151
0.35,0.5,3,9,2492730061629109915
0.35,0.5,7,3,6183279425500008364
0.35,0.5,5,7,736156269939720623
0.35,0.1,4,1,2344522730748145340
0.35,0.1,7,6,3034390133315444191
0.35,0.3,7,3,5020480632913423380
0.35,0.5,9,0,242035735210106316
0.35,0.5,4,0,3324808230457632217
0.4,0.1,0,2,6169990016836930509
0.35,0.5,7,4,1726472615496971785
0.35,0.5,5,8,6510161240854384438
0.4,0.1,5,5,8991919983844684152
0.35,0.1,2,5,325236544555558397
0.4,0.1,3,7,2753236899708451826
0.35,0.5,4,1,2396996078944589575
0.35,0.5,9,1,7252692978192655885
0.35,0.1,9,5,5315140635787515584
0.4,0.1,2,0,101646520104976617
0.4,0.3,0,8,3302607400845678651
0.4,0.3,2,6,463840433960842495
0.4,0.1,7,3,1723622044119200873
0.35,0.5,5,9,6112586597429040027
0.35,0.5,7,5,7996461337673022607
0.35,0.5,9,2,9137593013120704569
0.35,0.5,4,2,4624159295600330863
0.35,0.1,5,9,2320594027078995732
0.4,0.1,9,1,2484661751232457083
0.35,0.5,7,6,7677093748645621631
0.4,0.3,0,9,3579967388143808987
0.35,0.1,7,7,8558112400851816870
0.35,0.5,4,3,899125671319533888
0.35,0.5,9,3,4127160408013601097
0.4,0.3,2,7,4271304001434467088
0.35,0.5,6,0,6909062590799902429
0.35,0.5,7,7,7454709255553048254
0.4,0.1,0,3,1043078411449970981
0.35,0.5,4,4,3427250137236545954
0.4,0.1,5,6,4826938496781890518
0.35,0.5,9,4,2944956425891232550
0.4,0.3,1,0,897394239452424398
0.4,0.1,2,1,8885278240050996907
0.35,0.1,4,2,2664782561635757584
0.35,0.5,6,1,6302095804058395007
0.35,0.1,2,6,5371932165570896696
0.4,0.3,2,8,5412592425677981267
0.4,0.1,3,8,2186478496401755009
0.35,0.5,7,8,2437621398941683682
0.35,0.5,4,5,7319305066070787821
0.35,0.5,9,5,5570462247362474544
0.35,0.5,6,2,8168857891258816093
0.4,0.1,7,4,7577679126897785722
0.4,0.3,1,1,8133623923029826537
0.35,0.5,9,6,2181466247831695880
0.35,0.1,6,0,395911141612724160
0.4,0.3,2,9,888728897144143186
0.35,0.5,7,9,2475027791284019949
0.4,0.3,4,4,4438616413637785597
0.4,0.1,9,2,4885201509267215485
0.35,0.1,7,8,1091267527215822130
0.35,0.5,6,3,4556128460183715600
0.35,0.5,8,0,3233050618601311662
0.35,0.5,9,7,3807259632821356036
0.4,0.3,1,2,5981177325232201522
0.4,0.1,0,4,7019967803781535921
0.4,0.3,6,2,7740036986215957565
0.4,0.1,2,2,6788800268940660216
0.4,0.3,3,0,5837814471678029117
0.4,0.3,4,5,4598435300561683237
0.35,0.1,4,3,6396834694871113074
0.35,0.5,8,1,69687737925516893
0.35,0.5,9,8,2629902799603229917
0.4,0.1,5,7,8406534040419206146
0.4,0.1,7,5,67453049502700088
0.4,0.3,6,3,1412848942829444396
0.4,0.1,3,9,8456336003161185279
0.35,0.1,9,6,7270455999161407842
0.4,0.3,1,3,7445057658440743447
0.4,0.3,4,6,2922861594591346819
0.4,0.3,3,1,7286318802947637940
0.35,0.5,9,9,5501934663654216501
0.4,0.3,6,4,8397032251832742208
0.35,0.1,6,1,5389355636574039160
0.35,0.1,2,7,2465716877757831893
0.4,0.1,9,3,6662800104876606787
0.4,0.3,1,4,2698627404105927382
0.4,0.3,4,7,2639199073093723556
0.4,0.3,8,0,6166457494486982068
0.35,0.1,7,9,7368917413849904330
0.4,0.3,3,2,4343337850523885608
0.4,0.3,9,8,8279216140470739339
0.4,0.3,6,5,3895756762450894832
0.4,0.1,0,5,8367307309232301229
0.4,0.3,1,5,8533168022366950471
0.4,0.1,2,3,3441310827462937124
0.35,0.1,4,4,1030683034931161654
0.4,0.1,5,8,6344896226297942212
0.4,0.3,4,8,5167407598957062716
0.4,0.3,8,1,1265449751296538401
0.4,0.3,6,6,750403541289473668
0.4,0.3,9,9,8362207256226382072
0.35,0.1,6,2,4480934528268108771
0.35,0.1,9,7,8361884430385945944
0.4,0.3,3,3,6130707115264850210
0.4,0.1,7,6,7447714058576931322
0.4,0.3,1,6,6860546515227563089
0.4,0.1,4,0,7829787993999313508
0.4,0.3,8,2,7257756760945518342
0.4,0.3,6,7,8607468309251719319
0.4,0.5,0,0,8010217371446526275
0.4,0.3,4,9,4818243790185878379
0.35,0.1,2,8,6797638991628191845
0.4,0.3,1,7,7712698600431911684
0.4,0.3,3,4,6015439415836187615
0.35,0.1,8,0,8542349534855996336
0.4,0.1,0,6,6878757028917415065
0.4,0.1,2,4,8399103566777913015
0.4,0.5,0,1,340359666950077395
0.4,0.1,9,4,5168767688654846870
0.4,0.3,6,8,8143313009900982648
0.4,0.3,5,0,3547875352494013356
0.35,0.1,4,5,6286389356628317348
0.4,0.3,1,8,8177072405328016980
0.4,0.3,8,3,8209262128188760158
0.4,0.1,7,7,3735050972922990335
0.4,0.3,3,5,2152018976286089903
0.4,0.1,5,9,5265532217973350496
0.35,0.1,9,8,1126456815657408393
0.4,0.5,0,2,5361312273651947593
0.4,0.1,4,1,3103563541053192436
0.35,0.1,6,3,6860114785617080007
0.4,0.3,6,9,417163791495344200
0.4,0.3,5,1,2252766840077088491
0.4,0.5,0,3,1537841723935378438
0.4,0.3,1,9,4905911619236892185
0.4,0.3,8,4,5234905605925335378
0.35,0.1,2,9,2783614184808827307
0.4,0.3,3,6,7090515175672921122
0.4,0.5,0,4,5829537850595817913
0.4,0.1,9,5,5367871274113760668
0.4,0.3,7,0,535695137632837822
0.4,0.3,2,0,2212256490922194392
0.4,0.1,0,7,8473941534408987904
0.4,0.3,5,2,3311595892534122019
0.4,0.3,8,5,7503932020087350069
0.35,0.1,8,1,403187900944194387
0.4,0.3,3,7,4233940719414281094
0.4,0.5,0,5,4642704955968959874
0.4,0.1,2,5,8235132959103620190
0.4,0.1,7,8,489206345088134757
0.4,0.1,6,0,1370862467065499506
0.4,0.5,1,6,9006764509669720811
0.4,0.3,7,1,895124818850189530
0.35,0.1,6,4,7414903238093439102
0.35,0.1,4,6,1768385079202890310
0.4,0.3,2,1,1762955597520802816
0.4,0.1,4,2,9187357535456782320
0.4,0.3,8,6,8369070132704971241
0.4,0.5,0,6,6099249750247395528
0.4,0.5,1,7,6658331838295010791
0.4,0.3,3,8,2219563179662488118
0.35,0.1,9,9,7906838050640394270
0.4,0.3,5,3,959786042668800859
0.4,0.5,1,8,6510355432779001764
0.4,0.3,7,2,4570944090750498809
0.4,0.5,0,7,1362140423104748347
0.4,0.3,8,7,5827190615556987234
0.4,0.5,1,9,4749028374242001452
0.4,0.3,2,2,1249427655208659061
0.4,0.3,3,9,4598268468643220331
0.4,0.5,0,8,1600467668645659330
0.4,0.3,5,4,4703325142251354724
0.4,0.1,0,8,4301964359056354927
0.4,0.5,2,0,1589420046977607945
0.4,0.1,9,6,9086141929775121247
0.4,0.1,2,6,5207922893475163876
0.35,0.1,8,2,6910106370916886908
0.4,0.3,7,3,9107876968848222330
0.4,0.5,2,1,3669702177551311960
0.4,0.3,8,8,4768123128605079835
0.4,0.5,0,9,4465989110081683860
0.4,0.3,2,3,2053068916444209010
0.4,0.3,4,0,2999062724513230874
0.4,0.5,2,2,7596799442484579316
0.4,0.3,5,5,6901720125554421036
0.4,0.1,6,1,8003358860400278954
0.4,0.1,4,3,8462345060122683963
0.4,0.3,7,4,3308218680739485510
0.35,0.1,4,7,8203147512477062065
0.4,0.1,7,9,2522342723899147632
0.4,0.5,2,3,3719532516687802691
0.35,0.3,0,0,7171926017875071991
0.4,0.5,1,0,6084635427201601186
0.4,0.3,8,9,4259074585153829097
0.4,0.3,2,4,84986351799014358
0.35,0.1,6,5,3361960890391839149
0.4,0.3,4,1,4434654352439641330
0.4,0.5,2,4,3929126836269927139
0.4,0.3,5,6,152882913512452688
0.4,0.3,7,5,5820872914547942882
0.4,0.5,1,1,1927457250955537986
0.4,0.5,2,5,6463021781039029583
0.4,0.3,9,0,8521858179679347828
0.35,0.3,0,1,4957091761994955368
0.4,0.3,4,2,393167550317246694
0.35,0.1,8,3,3936693350192004459
0.4,0.3,2,5,4267891667632510651
0.4,0.1,2,7,8226781496083783510
0.4,0.5,2,6,2804714008323294453
0.4,0.1,9,7,5443789127407136599
0.4,0.1,0,9,1491734275381957295
0.4,0.1,6,2,4761486363432476775
0.4,0.5,1,2,7709939455250549078
0.4,0.3,5,7,4293154620195115855
0.4,0.3,7,6,8212614174474169898
0.4,0.5,2,7,1357502923631664437
0.4,0.3,4,3,2113495609313675829
0.4,0.5,3,4,32927588639620807
0.4,0.3,9,1,2226784516012962100
0.4,0.5,5,2,2208551957438759708
0.4,0.5,1,3,3490163993356452619
0.4,0.5,2,8,4154409640399459751
0.4,0.1,8,0,4443943275765336922
0.4,0.3,7,7,4746982100672851078
0.4,0.5,3,5,7184990815861767648
0.4,0.5,7,0,5860249901563051869
0.4,0.5,2,9,775910454060579625
0.4,0.5,5,3,3435131719627824831
0.4,0.1,4,4,5708895757319162865
0.4,0.5,1,4,4602346344325844771
0.4,0.5,8,8,7372809975952028631
0.4,0.5,3,0,984484162720239406
0.4,0.3,9,2,6573830396721009372
0.4,0.5,7,1,3760258001842620281
0.4,0.5,3,6,4622414014288252417
0.4,0.3,7,8,5337830911073136306
0.4,0.5,5,4,3231998289013030817
0.4,0.1,2,8,3806823227757378097
0.4,0.5,1,5,294806506004279530
0.4,0.5,8,9,3506968697121513567
0.4,0.5,3,1,6767359092097284477
0.4,0.1,9,8,8606031539906639406
0.4,0.1,1,0,3013640563874354659
0.4,0.3,5,8,3107052477147857951
0.4,0.1,6,3,3338756659736171236
0.4,0.5,3,7,6558381996486316801
0.4,0.5,7,2,6945758692862297967
0.4,0.5,5,5,3660994129032576149
0.4,0.3,9,3,4183891740107586661
0.4,0.5,9,0,6248392062356076846
0.4,0.5,5,6,279487697751002827
0.4,0.3,7,9,2744704964308462361
0.4,0.3,5,9,5910883271590219359
0.4,0.5,3,8,1796465414511593444
0.4,0.5,3,2,7959964840674442073
0.4,0.5,7,3,6998572265189452185
0.4,0.5,5,7,3481663095727670464
0.4,0.1,2,9,512778273294581558
0.4,0.3,6,0,7855716672266902348
0.4,0.5,9,1,3640798216947179974
0.4,0.1,4,5,1655929788816558421
0.4,0.3,9,4,2241063584339876111
0.4,0.5,7,4,4394727728741292232
0.4,0.1,8,1,2941960933169398545
0.4,0.5,3,9,7341280390676745277
0.4,0.5,5,8,1239552381204879774
0.4,0.5,3,3,5961634403767765178
0.4,0.5,7,5,2398560301750138487
0.4,0.5,9,2,5426020295504363699
0.4,0.1,6,4,4821568499859858403
0.4,0.3,6,1,7534247605248120704
0.4,0.5,4,0,5833530973771447673
0.4,0.3,9,5,5476429406450798670
0.4,0.5,5,9,6631962009897621724
0.4,0.1,1,1,8098028720808330810
0.4,0.5,9,3,6961039377644500562
0.4,0.5,7,6,2336234774847561846
0.4,0.1,9,9,4746500448638283252
0.4,0.5,4,1,384409077337753378
0.4,0.5,6,0,2312026888986408081
0.4,0.3,9,6,1207338294355641755
0.4,0.1,3,0,6521497260624832642
0.4,0.5,7,7,8437808937951269888
0.4,0.5,9,4,7349601589379288691
0.4,0.5,4,2,4935596847252805079
0.4,0.5,7,8,3722404435312161440
0.4,0.5,6,1,5504402487835823604
0.4,0.1,8,2,4707705240255213589
0.4,0.5,9,5,1722148592005451587
0.4,0.3,9,7,6670402835697187211
0.4,0.1,6,5,2640648721456223831
0.4,0.5,4,3,6667805634385509850
0.4,0.5,7,9,5631896870723743592
0.4,0.5,6,2,7307268285594857685
0.4,0.1,4,6,4620762328663014667
0.4,0.5,9,6,5226803255538938358
0.4,0.5,6,3,2984290130664737317
0.4,0.5,4,4,2442971642106454583
0.4,0.3,0,0,6793582404025821548
0.4,0.1,3,1,8291596961999224227
0.4,0.5,9,7,4513915165924804946
0.4,0.1,1,2,4191652975574282573
0.4,0.5,6,4,5724491614644772691
0.4,0.5,8,0,6208754856692692258
0.4,0.5,4,5,2822805330179990067
0.4,0.1,6,6,5911611514554239667
0.4,0.5,9,8,3344373929071752691
0.4,0.5,8,1,4295499469851876525
0.4,0.5,6,5,3313164483689018227
0.4,0.3,0,1,9135373063087678200
0.4,0.5,4,6,6681366307936211972
0.4,0.5,8,2,8949091317512120943
0.4,0.5,9,9,4085333309501638240
0.4,0.1,8,3,2663954570137052468
0.4,0.5,6,6,7730105852745854429
0.4,0.1,4,7,1026678944737263989
0.4,0.5,4,7,700893228450431696
0.4,0.1,1,3,1298790334767337991
0.4,0.3,0,2,1426950745234301226
0.4,0.5,6,7,6137167012551597492
0.4,0.1,6,7,6389152711903519782
0.4,0.1,3,2,8110514552046237594
0.4,0.5,8,3,2760366435415271565
0.4,0.5,4,8,7806983238695845802
0.4,0.5,6,8,6279162069825549375
0.4,0.5,8,4,8496586552316949731
0.4,0.3,0,3,6960546681386696655
0.4,0.5,4,9,4131630269932362513
0.4,0.5,6,9,799642908913992349
0.4,0.5,8,5,3854845138070813143
0.4,0.1,4,8,2519866876076772316
0.4,0.1,1,4,4923119395381691730
0.4,0.5,8,6,7746445588309322730
0.4,0.1,8,4,1124042606935899270
0.4,0.1,6,8,5875361569424242084
0.4,0.5,5,0,421576439378617988
0.4,0.3,0,4,5966448714224270971
0.4,0.5,8,7,5004623953464456803
0.4,0.5,5,1,5257094735411049150
0.4,0.3,0,5,8360722799708539336
0.4,0.1,1,5,6895300431928216172
0.4,0.1,4,9,917851761861854408
0.4,0.3,0,6,5156902749576914333
0.4,0.1,6,9,9133028170806421988
0.4,0.1,3,3,9134281333605874945
0.4,0.1,8,5,9145936503769654451
0.4,0.1,1,6,3292865981885628945
0.4,0.3,0,7,3626621810713111709
0.4,0.1,7,0,5417175420301554641
0.4,0.1,8,6,9137513093296410503
0.4,0.1,5,0,9143184192532128243
0.4,0.1,1,7,1513278633390773798
0.4,0.1,7,1,7046759718740996905
0.4,0.1,3,4,1474987730355695808
0.4,0.1,8,7,7878450522428102920
0.4,0.1,5,1,6977920589510971677
0.4,0.1,3,5,7355010304882005022
0.4,0.1,5,2,8974051217749176935
0.4,0.1,8,8,2559738269684852863
0.4,0.1,5,3,5242783260497385053
0.4,0.1,8,9,2884113443307017131
