d,mu,weight_set,opinion_set,sim_seed
0.1,0.3,1,0,5650968832416527565
0.1,0.3,7,0,8629317566181377776
0.1,0.3,9,0,4320635346285034398
0.1,0.5,2,0,7874201336043524010
0.1,0.3,0,0,2526113285652321991
0.1,0.3,3,0,259371986995223449
0.1,0.3,4,0,8660456890211079013
0.1,0.3,6,0,1913769724796883917
0.1,0.3,5,0,2252946110385411770
0.1,0.5,1,0,1995460448855524139
0.1,0.5,4,0,3439765681907056526
0.1,0.3,2,0,4434719253204298986
0.1,0.3,8,0,8645419583889359269
0.1,0.5,0,0,5406928947078604873
0.1,0.5,3,0,5677113382785811105
0.1,0.5,0,1,7625825373978011528
0.1,0.3,0,1,6333915576088402111
0.1,0.5,1,1,5007589796027614091
0.1,0.3,6,1,3258250750895154161
0.1,0.3,9,1,1972233840854072225
0.1,0.5,4,1,8820864247669141122
0.1,0.3,4,1,9150202790239202583
0.1,0.3,2,1,5217822835938334313
0.1,0.5,3,1,1807137172160359593
0.1,0.3,7,1,6827373005794914787
0.1,0.5,2,1,1453391123487714023
0.1,0.3,5,1,7960112192333010971
0.1,0.5,0,2,7276106830349125170
0.1,0.3,3,1,2816634886316312962
0.1,0.5,3,2,8401195717037432369
0.1,0.3,2,2,6254604235627073770
0.1,0.5,1,2,2318029911811937213
0.1,0.3,6,2,108485749386516014
0.1,0.3,5,2,6819917410148216315
0.1,0.5,0,3,4424398763925634468
0.1,0.5,2,2,2896678966625456754
0.1,0.3,4,2,2575731657008231325
0.1,0.5,3,3,2663049327913195162
0.1,0.3,6,3,8556291959254062233
0.1,0.5,1,3,256585166085320509
0.1,0.3,2,3,1575222823415086272
0.1,0.5,0,4,2247469052748233091
0.1,0.5,3,4,7163317787134881967
0.1,0.3,9,2,189561867180193771
0.1,0.5,2,3,2616799981139201184
0.1,0.3,5,3,5914306045723166321
0.1,0.5,1,4,3140359216743190679
0.1,0.3,6,4,814679446474474091
0.1,0.5,3,5,6714037357783172947
0.1,0.3,4,3,7355026899681898847
0.1,0.3,5,4,1160486680586095801
0.1,0.3,2,4,7110382302587306459
0.1,0.5,3,6,3428747393171839714
0.1,0.5,1,5,2330009080619474280
0.1,0.5,2,4,4381294568718216490
0.1,0.3,3,2,3144574347212855762
0.1,0.3,8,1,8540714774238898317
0.1,0.3,4,4,1728909787861727675
0.1,0.3,9,3,5213054001691901285
0.1,0.5,1,6,4051233406794356750
0.1,0.5,3,7,5700859233177520251
0.1,0.5,0,5,2718220667366847323
0.1,0.3,1,1,7460101868948853331
0.1,0.3,5,5,3529494396664771213
0.1,0.3,2,5,4359866868357988126
0.1,0.3,3,3,1446880916159519453
0.1,0.3,9,4,3308629971766336310
0.1,0.3,6,5,3392079401875890095
0.1,0.3,7,2,7845394921443026281
0.1,0.3,4,5,6604976769927666763
0.1,0.3,8,2,5962370901483301312
0.1,0.5,1,7,6690566242631523234
0.1,0.5,2,5,1377436527859282291
0.1,0.5,3,8,834657937851742553
0.1,0.5,0,6,9061065067104496344
0.1,0.3,5,6,4260707803956180294
0.1,0.3,1,2,1020808108536339590
0.1,0.3,3,4,8184373338674332397
0.1,0.3,8,3,6479111940435679481
0.1,0.3,7,3,4789169243632498511
0.1,0.5,3,9,3135908029134066874
0.1,0.3,2,6,1341089268915332629
0.1,0.3,0,2,1944088919100618061
0.1,0.3,4,6,6945704650517617653
0.1,0.3,6,6,7470952727097735030
0.1,0.5,2,6,9090190766236043112
0.1,0.5,0,7,4653031109131350534
0.1,0.3,3,5,6706924168863949840
0.1,0.3,5,7,2303358185373466713
0.1,0.3,8,4,9159188282562189111
0.1,0.3,7,4,2491410228615794566
0.1,0.3,2,7,384641992027063592
0.1,0.5,2,7,8928846894323830849
0.1,0.5,0,8,5105588394059607862
0.1,0.3,4,7,247967800397742743
0.1,0.3,6,7,649016514376281225
0.1,0.3,5,8,5498031346607204881
0.1,0.3,8,5,4813392826777122807
0.1,0.3,9,5,6490932337880567265
0.1,0.5,4,2,8194726452076382462
0.1,0.5,2,8,6733747960130146075
0.1,0.3,1,3,908272723390764715
0.1,0.5,0,9,916508104224058678
0.1,0.3,6,8,5669156651730807312
0.1,0.5,5,0,8769391034842867022
0.1,0.3,4,8,4745141304379867953
0.1,0.5,4,3,7198247938328286831
0.1,0.5,2,9,1065957548925844844
0.1,0.3,9,6,7117475404347040771
0.1,0.3,5,9,2268825388896810040
0.1,0.5,6,0,8416447702820279496
0.1,0.3,8,6,8616869103409288831
0.1,0.5,1,8,4201342392929901274
0.1,0.3,7,5,4297653706576995230
0.1,0.5,5,1,2610631149720972282
0.1,0.5,4,4,7452961149157353821
0.1,0.3,6,9,2035367891305594407
0.1,0.5,7,0,3152698854213371759
0.1,0.5,6,1,5129304087698447430
0.1,0.3,8,7,5207903170441223702
0.1,0.3,1,4,4018018489682567380
0.1,0.3,2,8,1472058050171164754
0.1,0.5,5,2,6510510932173948527
0.1,0.5,4,5,1906327958433237973
0.1,0.3,9,7,5425376715831787217
0.1,0.5,8,0,9164735286828608635
0.1,0.3,7,6,1362503259404912286
0.1,0.5,1,9,5154181592367005760
0.1,0.3,3,6,6365793829840081219
0.1,0.3,4,9,4554446041043162667
0.1,0.5,5,3,1577487978927345430
0.1,0.3,8,8,8932195435998171898
0.1,0.5,8,1,1134860003233821375
0.1,0.5,4,6,4814082765960911682
0.1,0.3,7,7,3778273923741018097
0.1,0.5,7,1,7173813027405591494
0.1,0.5,5,4,5635526162512071438
0.1,0.3,2,9,385519439815364094
0.1,0.5,9,0,6171205128037312210
0.1,0.5,6,2,4210694501046453171
0.1,0.3,3,7,7734069110740675873
0.1,0.3,8,9,8840731609789009655
0.1,0.3,1,5,2070004544627460300
0.1,0.5,8,2,5166953480263271941
0.1,0.5,9,1,297688988198380390
0.1,0.5,5,5,2783620653019171886
0.1,0.5,7,2,194046038350195659
0.1,0.5,4,7,2100765166623388998
0.1,0.3,1,6,6309669556613662634
0.3,0.3,0,0,3040231898971348795
0.3,0.3,1,0,4464440587696234466
0.1,0.3,3,8,799966343187860984
0.1,0.5,6,3,459686951508075456
0.1,0.5,5,6,240895783250255101
0.1,0.5,4,8,2178033804583100069
0.3,0.3,2,0,7755837268529868667
0.1,0.5,7,3,3413229219182103351
0.1,0.3,1,7,603532298068850159
0.1,0.5,9,2,7203616875947275290
0.3,0.3,1,1,8837220084743076019
0.3,0.3,0,1,1403329530562239249
0.1,0.5,6,4,1628840408854856083
0.1,0.3,9,8,4082453452923682650
0.1,0.5,7,4,6325263995000768518
0.1,0.5,5,7,7871109037309938616
0.1,0.5,8,3,4672382667665278404
0.1,0.3,1,8,2126591349955875916
0.1,0.3,3,9,527683152978560828
0.3,0.3,1,2,4471345377076831475
0.1,0.5,4,9,4887562622686795058
0.3,0.3,0,2,8683209515793891331
0.1,0.3,7,8,5899732551185198359
0.1,0.5,7,5,8688041714390972009
0.1,0.3,9,9,4265772219363142276
0.1,0.5,8,4,1059075228770357748
0.1,0.5,5,8,7750945163173926149
0.1,0.5,9,3,7083464996422600433
0.3,0.3,3,0,3427375154632924224
0.3,0.3,1,3,3926134202954995863
0.1,0.3,7,9,5009639121808605328
0.1,0.5,6,5,6329060042183601726
0.1,0.5,7,6,463540316307409802
0.1,0.3,1,9,3813079245450574892
0.1,0.3,0,3,7310597326134339161
0.3,0.3,4,0,5917430564429392431
0.3,0.3,5,0,6758039793272121157
0.1,0.5,9,4,2416577030237404243
0.1,0.5,8,5,6068481619296185892
0.1,0.5,6,6,2080233469686377397
0.1,0.5,7,7,1135712346145633794
0.3,0.3,3,1,5495025073222434802
0.1,0.5,5,9,8702409869120226780
0.3,0.3,6,0,2878210842672721737
0.3,0.3,1,4,8643155227575587327
0.1,0.5,9,5,5011389449762200230
0.1,0.5,8,6,9038142392882263885
0.3,0.3,7,0,7473675712504860627
0.3,0.3,4,1,470093737966886679
0.1,0.5,7,8,8065753184401079215
0.3,0.3,8,0,2555074997086755749
0.3,0.3,9,0,3994315913691341124
0.1,0.5,8,7,3104022836057575890
0.1,0.5,9,6,3181038307580961156
0.1,0.5,7,9,4674070738972289571
0.3,0.3,7,1,1906343652842917405
0.3,0.3,0,3,2345311776154982279
0.1,0.5,8,8,8827451192297263507
0.3,0.3,9,1,806590196031201696
0.3,0.3,4,2,162634484558319280
0.1,0.5,9,7,1965955532330737148
0.3,0.5,0,0,6364873733531610484
0.1,0.5,6,7,8750107643023246643
0.3,0.3,7,2,1559673692354226877
0.1,0.5,8,9,7990179186378566014
0.1,0.5,6,8,5105578760103171573
0.3,0.3,4,3,3832640469902058877
0.1,0.5,9,8,5911331440109636401
0.3,0.3,5,1,4017799446059554717
0.1,0.5,6,9,3266112275790802226
0.1,0.5,9,9,8075324492386618359
0.3,0.5,1,0,3629663768299560039
0.3,0.5,2,0,5927012219731902396
0.3,0.5,3,0,1040552037396384628
0.1,0.3,0,4,3890019951590167179
0.3,0.5,2,1,3290844125481443665
0.1,0.3,0,5,5977641238262860948
0.3,0.3,2,1,1503500936204555170
0.3,0.3,6,1,3069754922173021388
0.3,0.3,9,2,2578135260708335979
0.3,0.3,8,1,2955261424250160066
0.3,0.3,3,2,3547833539439250312
0.1,0.3,0,6,5743601449488899797
0.3,0.3,6,2,5739842648466922431
0.3,0.3,3,3,5045691973108921912
0.3,0.3,6,3,6591963781152730076
0.1,0.3,0,7,8363633022131439413
0.3,0.5,3,1,8715668807658052866
0.3,0.3,6,4,5086949300231387334
0.3,0.3,4,4,7995565442782329543
0.3,0.5,3,2,8603423483947702385
0.1,0.3,0,8,1384832837704698997
0.3,0.3,5,2,6317058254461829607
0.3,0.3,6,5,6777248225084761552
0.1,0.3,0,9,4311601802530900018
0.3,0.3,1,5,1375814838597899821
0.3,0.3,4,5,4544121599847538043
0.3,0.3,5,3,4260821557686974173
0.3,0.3,7,3,1907501917899039287
0.3,0.3,2,2,340970545493309657
0.3,0.5,4,0,7186605084010248831
0.3,0.3,5,4,7951022824829197340
0.3,0.5,4,1,4174536618871408127
0.3,0.3,7,4,230169827849804052
0.3,0.3,2,3,1288168205147919632
0.3,0.5,2,2,806392006163933172
0.3,0.3,5,5,1489753932605535508
0.3,0.5,1,1,6255587351286086174
0.3,0.3,0,4,5330900827291423875
0.3,0.3,2,4,7184068359264224598
0.3,0.3,4,6,7328110426432200772
0.3,0.5,2,3,6674986364797228869
0.3,0.3,5,6,7051963788200348195
0.3,0.5,1,2,3345396916865507018
0.3,0.3,2,5,5477156112498883481
0.3,0.5,2,4,4181547609801002939
0.3,0.5,4,2,7548069809633202231
0.3,0.5,3,3,7719757946951827259
0.3,0.3,5,7,560820218282029707
0.3,0.3,1,6,7753490973324781671
0.3,0.5,1,3,8314515064336294667
0.3,0.3,2,6,6988807635433062758
0.3,0.5,4,3,503191558894966932
0.3,0.5,1,4,1848000088752148681
0.3,0.3,5,8,8618855117279831308
0.3,0.3,1,7,1135979698097947965
0.3,0.3,2,7,8155116015683286993
0.3,0.3,1,8,1148722224792146336
0.3,0.3,5,9,2282479788007838805
0.3,0.3,2,8,3758079067850565702
0.3,0.3,1,9,9169266691768948938
0.3,0.3,2,9,3371243841746654260
0.3,0.5,0,1,6424323370703821692
0.3,0.5,5,0,2114374462172176478
0.3,0.3,9,3,5560527852073496921
0.3,0.5,0,2,6186316100784032093
0.3,0.3,4,7,2267598868094543272
0.3,0.3,9,4,7718544794303056332
0.3,0.3,4,8,7691353658708539355
0.3,0.5,4,4,3037844134757873295
0.3,0.3,9,5,1440714786016518424
0.3,0.5,4,5,3391819421741867055
0.3,0.3,6,6,4653195402320201008
0.3,0.3,9,6,6643123166527440234
0.3,0.5,4,6,9105159426390955111
0.3,0.5,2,5,840169556185243996
0.3,0.3,6,7,1432185802967784339
0.3,0.3,7,5,1643496222742251516
0.3,0.3,9,7,5798362582164259948
0.3,0.5,5,1,5801342830338369717
0.3,0.3,6,8,7617822160733492244
0.3,0.3,7,6,5630279309217306918
0.3,0.3,0,5,5724210976730432076
0.3,0.3,9,8,3371463885486360482
0.3,0.3,4,9,2041246123291754898
0.3,0.3,6,9,2198894257523756051
0.3,0.5,0,3,4298616288233512021
0.3,0.3,9,9,173931029465765471
0.3,0.3,0,6,7021144049011899598
0.3,0.5,2,6,4349915446051534214
0.3,0.5,0,4,5603472882396340602
0.3,0.5,6,0,534495533005718608
0.3,0.5,1,5,405187953866536551
0.3,0.5,2,7,7081465782999202251
0.3,0.3,0,7,8120351017672207449
0.3,0.5,7,0,2120117494744352076
0.3,0.3,3,4,254833930438393296
0.3,0.5,2,8,2632315259240939773
0.3,0.5,7,1,5221934161822155049
0.3,0.3,8,2,6181419323862183503
0.3,0.5,8,0,2770107460312652879
0.3,0.3,8,3,5544644784258415492
0.3,0.5,3,4,3764325184238552278
0.3,0.3,3,5,8540682710324936735
0.3,0.5,8,1,2335010804940666830
0.3,0.5,0,5,5806718896786068252
0.3,0.5,4,7,1615114606351476812
0.3,0.5,3,5,1222737353086375017
0.3,0.5,0,6,8298277361358833006
0.3,0.5,6,1,5598031399995036094
0.3,0.5,1,6,5078644005561298086
0.3,0.5,3,6,6188149158091359594
0.3,0.5,0,7,3261726484489921463
0.3,0.5,6,2,9076574055625763221
0.3,0.5,3,7,2216228542553804550
0.3,0.5,6,3,4730327554033088062
0.3,0.3,0,8,690913287252921551
0.3,0.5,4,8,1989912042633130188
0.3,0.5,3,8,2174025484763451953
0.3,0.5,1,7,2585664328127276825
0.3,0.5,9,0,7315815447080697827
0.3,0.5,6,4,5849703805165285594
0.3,0.5,8,2,846856349652236046
0.3,0.3,7,7,2210441570917289835
0.3,0.5,8,3,4648670397789289175
0.3,0.5,6,5,1118637466124293691
0.3,0.5,9,1,2230415688128199853
0.3,0.5,4,9,5892092741085397846
0.3,0.3,7,8,4978148419433415869
0.3,0.3,3,6,1489736030280620411
0.5,0.3,0,0,5268002057623312833
0.3,0.3,7,9,7634905004827951801
0.3,0.3,3,7,8063669228378297978
0.5,0.3,0,1,3302146459777468596
0.3,0.5,5,2,2972724981418923414
0.3,0.5,7,2,8525252977961368626
0.5,0.3,0,2,4534692207225440275
0.3,0.5,5,3,1287831323488605717
0.3,0.5,0,8,7654896367987789598
0.5,0.3,0,3,6490982002993617644
0.3,0.3,0,9,825980932370091674
0.5,0.3,0,4,5792376211257859063
0.3,0.5,5,4,8075935071762700605
0.3,0.3,3,8,6194317231391065499
0.5,0.3,0,5,657007872106142373
0.3,0.5,5,5,8362343276155115604
0.5,0.3,1,0,3398590801616330672
0.3,0.3,3,9,8228861008883462507
0.5,0.3,0,6,2984756851247683164
0.5,0.3,1,1,4711686999799532134
0.5,0.3,0,7,1259735772601747429
0.3,0.5,8,4,2221067418667673090
0.5,0.3,2,0,299417421132348153
0.3,0.5,0,9,6588840528732068862
0.5,0.3,1,2,228851717803765827
0.5,0.3,0,8,3754656406502079564
0.5,0.3,2,1,6131091303053216563
0.5,0.3,0,9,6271461878559534033
0.5,0.3,1,3,3111517635245383467
0.3,0.5,9,2,6379055975116188278
0.5,0.3,2,2,935326708700121141
0.5,0.3,3,0,1267324745192095972
0.5,0.3,1,4,525191564601830179
0.3,0.5,9,3,8978786336323660580
0.5,0.3,2,3,4521800546295174041
0.5,0.3,3,1,3838134155862520177
0.5,0.3,1,5,1264054810903154553
0.5,0.3,2,4,1968229026136850815
0.5,0.3,3,2,8659126247496721858
0.3,0.5,9,4,6890145770838879166
0.5,0.3,1,6,8433869101367458092
0.5,0.3,4,0,7444879692503514809
0.5,0.3,2,5,6633776113968109611
0.5,0.3,3,3,2619476948484418706
0.5,0.3,1,7,3818474951922388370
0.3,0.5,3,9,4844373197080449582
0.5,0.3,2,6,5024697742871262999
0.3,0.5,2,9,8885721469489591959
0.5,0.3,3,4,9042001773772910483
0.5,0.3,4,1,6597203227361337849
0.5,0.3,1,8,8478051972954106510
0.5,0.3,2,7,562968864290480727
0.5,0.3,3,5,452396800859745779
0.5,0.3,4,2,814665765778147302
0.5,0.3,2,8,8126890507678830377
0.5,0.3,1,9,6802541115103263868
0.5,0.3,5,0,1603193757542046571
0.5,0.3,3,6,6870002248689481432
0.5,0.3,6,0,3645656055632625823
0.5,0.3,4,3,5351499004155952491
0.5,0.3,2,9,3746299485277232658
0.5,0.3,5,1,6801728123662393541
0.5,0.3,7,0,953688527522017354
0.5,0.3,8,0,454680557609869489
0.5,0.3,6,1,4930188916547821974
0.5,0.3,3,7,5042278294591672086
0.5,0.3,4,4,7353017242863328946
0.5,0.3,9,0,8025666638932503757
0.3,0.5,5,6,8477061120172981621
0.5,0.3,5,2,976256238932626958
0.5,0.3,7,1,7531663001437524682
0.5,0.3,8,1,3129663022204322575
0.5,0.3,6,2,7690614269599495731
0.5,0.3,3,8,3560356046036644324
0.5,0.3,9,1,8352375396285951401
0.5,0.3,4,5,4616084660661714727
0.3,0.5,8,5,8758108921569862694
0.5,0.3,7,2,140199513687116827
0.5,0.3,5,3,5452159879459574296
0.5,0.3,8,2,5915545842305845791
0.5,0.3,6,3,574688648150148230
0.5,0.3,9,2,32030870735677408
0.5,0.3,3,9,5075773512272300634
0.3,0.3,8,4,7065803821838441414
0.5,0.3,4,6,4729636222856469198
0.5,0.3,9,3,250531971844727185
0.3,0.5,8,6,7715044302081758435
0.5,0.3,5,4,8820755200130844960
0.5,0.3,7,3,2151826600716693805
0.5,0.3,8,3,4071085183331085968
0.3,0.5,7,3,417758329911621486
0.5,0.3,6,4,290726164874061546
0.5,0.5,0,0,378999775053919581
0.5,0.3,4,7,896088810197703159
0.3,0.5,1,8,4355536702727039014
0.5,0.3,9,4,1630493666507797129
0.3,0.3,8,5,1631131926676370106
0.5,0.3,5,5,2257566924559379640
0.5,0.5,0,1,4312755532784308160
0.5,0.3,7,4,7213338665821871609
0.3,0.5,8,7,167953439725613211
0.5,0.5,1,0,6895923311384530306
0.5,0.3,8,4,1624765930865074541
0.5,0.3,6,5,5095518514778486436
0.5,0.3,4,8,4594950664861639764
0.3,0.5,7,4,8085454887620316198
0.5,0.3,9,5,6643660813980578852
0.3,0.5,6,6,8032896938444222404
0.5,0.5,0,2,5998449955965761504
0.5,0.5,1,1,8343190681138510035
0.5,0.3,5,6,7061428439324578703
0.3,0.5,1,9,1506820946908050879
0.5,0.3,6,6,473547640370998361
0.5,0.3,7,5,9197647162655059071
0.3,0.5,8,8,3079794571463757094
0.5,0.3,4,9,7377265084339104126
0.3,0.3,8,6,2513000588981082641
0.5,0.3,8,5,5972564514392541606
0.5,0.3,9,6,532231447334639916
0.3,0.5,6,7,3090813532667738509
0.3,0.5,7,5,214409527793397146
0.5,0.5,1,2,6398595789918211266
0.5,0.5,0,3,8248019880595430457
0.5,0.3,5,7,1642123680213848518
0.5,0.3,9,7,3695072746391393337
0.5,0.3,6,7,2320954647732636889
0.5,0.5,2,0,2294261441414280096
0.5,0.3,7,6,3540779138100855046
0.5,0.5,3,0,5818494517896702409
0.5,0.3,8,6,8212581375596540033
0.5,0.5,0,4,197915044206935941
0.5,0.5,1,3,1999216900725381315
0.3,0.5,6,8,4134513054302111050
0.3,0.3,8,7,3267708546961786655
0.5,0.3,5,8,3820868418520954191
0.5,0.3,9,8,2124598869969496469
0.5,0.5,2,1,8356213398760691297
0.5,0.3,6,8,5999380899486635214
0.5,0.5,3,1,1693278453075509408
0.5,0.3,7,7,5599169699053018579
0.5,0.5,1,4,6860245378379077822
0.5,0.3,8,7,37016838879389156
0.5,0.5,0,5,6616155766470747231
0.5,0.5,2,2,2160492888859084723
0.5,0.3,9,9,1198594690118896245
0.5,0.3,5,9,3011810488338263880
0.3,0.5,9,5,2343862467905946573
0.5,0.3,6,9,7397987838714715244
0.5,0.5,3,2,5231017901332216739
0.5,0.5,1,5,4373977993748803266
0.5,0.3,7,8,3464387456688142613
0.3,0.3,8,8,5131633463217050180
0.5,0.5,0,6,2454606581933793293
0.3,0.5,5,7,1490496236877193396
0.5,0.3,8,8,6731612021330084655
0.5,0.5,2,3,4433657061837057760
0.5,0.5,4,0,7684692823945725965
0.5,0.5,5,0,6481822357209281706
0.5,0.5,3,3,6889422934028996648
0.5,0.5,6,0,3186099565335790593
0.5,0.5,1,6,58147680140434475
0.5,0.5,0,7,9191010257132802999
0.5,0.5,2,4,1933329307748207337
0.5,0.3,7,9,3119922668644225539
0.5,0.5,4,1,6649033052044820773
0.5,0.3,8,9,6289915447579384021
0.5,0.5,5,1,7621628701808877591
0.5,0.5,3,4,4275145822921436888
0.5,0.5,6,1,4087505744772718607
0.5,0.5,2,5,1176939194126745227
0.5,0.5,1,7,7900158760979445715
0.5,0.5,0,8,157193068056949000
0.5,0.5,4,2,7413213562728242187
0.5,0.5,7,0,9089271788627800656
0.3,0.5,6,9,1426308416939938889
0.5,0.5,8,0,1630650009978187043
0.5,0.5,5,2,6807843171011676765
0.5,0.5,3,5,3092096992971208235
0.5,0.5,6,2,5452597334100536256
0.3,0.5,8,9,3994331727058590530
0.5,0.5,2,6,4142553402130303979
0.5,0.5,1,8,7759536660295619775
0.5,0.5,4,3,139249381138698337
0.5,0.5,0,9,9038416160694933364
0.5,0.5,7,1,2875128126566361806
0.3,0.5,5,8,4105816560181529010
0.5,0.5,9,0,8210515799851683091
0.3,0.5,7,6,8280759521417402816
0.5,0.5,5,3,6789431987693397484
0.5,0.5,8,1,3607167067785151685
0.5,0.5,6,3,4208857072842918105
0.5,0.5,1,9,4227142041127976750
0.5,0.5,3,6,7600506528459998929
0.5,0.5,4,4,5003094815603807375
0.5,0.5,2,7,3180862844247855672
0.5,0.5,7,2,2198443396289735323
0.5,0.5,8,2,4523988667784297333
0.5,0.5,9,1,6186441792919488370
0.5,0.5,5,4,8027304041797012739
0.3,0.5,7,7,604723905223335943
0.5,0.5,6,4,1087102105069831783
0.3,0.5,5,9,314548466670275888
0.5,0.5,2,8,9048100608950522957
0.5,0.5,3,7,6939967172005466766
0.5,0.5,7,3,6322607361335253222
0.5,0.5,4,5,7705001019489578783
0.5,0.5,5,5,7322452603308989451
0.5,0.5,8,3,1146533055855731048
0.5,0.5,9,2,5744000724929224074
0.5,0.5,7,4,8325177070604750011
0.5,0.5,6,5,2321037001003812171
0.3,0.5,7,8,1328789705332765302
0.5,0.5,3,8,3456392948818961676
0.5,0.5,2,9,2412339416158861610
0.5,0.5,4,6,3113429314958472437
0.5,0.5,8,4,4653218227850145695
0.5,0.5,5,6,1514193419939867461
0.5,0.5,9,3,3341006750060636900
0.5,0.5,7,5,608613272902256063
0.5,0.5,6,6,8454944390884888029
0.5,0.5,3,9,1624148932720686187
0.5,0.5,8,5,7703316246114747860
0.5,0.5,4,7,8862417431026596334
0.5,0.5,9,4,7984009736892035807
0.5,0.5,5,7,5761063002608351701
0.5,0.5,6,7,1059548015238464138
0.5,0.5,7,6,8092843810174769456
0.5,0.5,4,8,4677146495028414894
0.5,0.5,8,6,1792624834318498374
0.5,0.5,9,5,4475653312880705979
0.5,0.5,6,8,8158964956392474025
0.5,0.5,7,7,3477169875773961897
0.5,0.5,5,8,8057917474575492483
0.5,0.5,4,9,5209562440339412764
0.5,0.5,9,6,1637271963786091111
0.5,0.5,6,9,2655758053154919290
0.5,0.5,8,7,5868461607295635916
0.5,0.5,7,8,2593489448968136381
0.5,0.5,5,9,8582286359960059106
0.5,0.5,9,7,4020307801234176603
0.5,0.5,8,8,2735424215417528040
0.5,0.5,7,9,4585537563224150066
0.5,0.5,9,8,2326311903467805120
0.5,0.5,8,9,2125054180634247592
0.5,0.5,9,9,5435794043547115745
0.3,0.3,8,9,6788891595216613810
0.3,0.5,9,6,2198270755730311178
0.3,0.5,7,9,1191401993398484218
0.3,0.5,9,7,5052681656065714177
0.3,0.5,9,8,3936200590094688838
0.3,0.5,9,9,10790284596478143
0.1,0.1,0,4,3757260166011760421
0.1,0.1,1,6,8777676218437978435
0.1,0.1,3,2,4015348192370062299
0.1,0.1,4,4,6349534979812338222
0.1,0.1,4,8,7368310450834306856
0.1,0.1,6,4,5845007692734174115
0.1,0.1,6,0,5968036129066528716
0.1,0.1,7,2,8909456993431927471
0.1,0.1,2,0,4938121104679502120
0.1,0.1,2,8,6778225325418260457
0.1,0.1,2,4,8551083084571451605
0.1,0.1,4,0,4054062309304035511
0.1,0.1,3,6,5718615917002743669
0.1,0.1,5,6,7720430972504627643
0.1,0.1,7,6,6349423507060143600
0.1,0.1,0,8,3203167244315579216
0.1,0.1,1,2,5849792987129967346
0.1,0.1,0,0,6495827511644397297
0.1,0.1,5,2,3361599679590215178
0.1,0.1,6,8,8008142215204454281
0.1,0.1,7,3,8619162514458857708
0.1,0.1,3,3,3671076209674598187
0.1,0.1,6,1,2165603139060651892
0.1,0.1,0,1,5762041133454162815
0.1,0.1,6,9,9027837680436992055
0.1,0.1,4,5,5453522500548637882
0.1,0.1,0,5,3538970627431391329
0.1,0.1,2,1,5173404227170266590
0.1,0.1,1,3,7214359157203858281
0.1,0.1,1,7,4972222090016217865
0.1,0.1,0,9,4454567224045262949
0.1,0.1,5,3,7882859110207104714
0.1,0.1,6,5,3154977446224142446
0.1,0.1,4,9,5518677544044283906
0.1,0.1,7,7,4248860542073513440
0.1,0.1,2,5,2877802571333006544
0.1,0.1,0,2,5926283028817147286
0.1,0.1,6,2,4326706787897521104
0.1,0.1,0,6,5952981018606086080
0.1,0.1,7,0,5319971075603326517
0.1,0.1,2,2,1156606808669339550
0.1,0.1,1,0,2347107516847433265
0.1,0.1,4,6,7140733757946224022
0.1,0.1,5,4,7808973954366677422
0.1,0.1,4,1,8240461920612113767
0.1,0.1,1,8,7476080267234794648
0.1,0.1,7,4,5653792908807446067
0.1,0.1,3,4,3637093930620243379
0.1,0.1,6,6,8638657112078171438
0.1,0.1,5,0,1131309283346237784
0.1,0.1,2,6,574348593587507073
0.1,0.1,5,5,5683184002508485530
0.1,0.1,2,9,375035696856177392
0.1,0.1,0,7,641256615488998585
0.1,0.1,1,1,1221685647592361604
0.1,0.1,5,1,8235834683745991587
0.1,0.1,6,3,2809545853334207174
0.1,0.1,6,7,1137689145509787342
0.1,0.1,3,5,3739595153241799571
0.1,0.1,1,9,788366130877127735
0.1,0.1,4,2,4238539697441473733
0.1,0.1,3,7,1965529849432331770
0.1,0.1,2,7,1281457684170425513
0.1,0.1,7,1,5721312002794352298
0.1,0.1,5,7,4290510472100540690
0.1,0.1,3,0,8363565967098660493
0.1,0.1,8,0,7206107081679075919
0.1,0.1,4,7,3916885065542668581
0.1,0.1,8,4,5164896602695819898
0.1,0.1,8,8,5449514352677049370
0.1,0.1,2,3,346058364115287083
0.1,0.1,9,2,5802363701801768654
0.1,0.1,3,8,7093383150267823680
0.1,0.1,7,8,5595881356748869917
0.1,0.1,9,6,3102775490832723937
0.1,0.1,8,9,2506127596904290923
0.1,0.1,8,5,5781893766684453764
0.1,0.1,8,1,7714081718284366937
0.3,0.1,0,0,2509609448655022934
0.1,0.1,0,3,4375123697739872996
0.3,0.1,0,4,7883126426822608515
0.3,0.1,0,8,1787773467427324895
0.1,0.1,7,5,2774463208223250002
0.1,0.1,7,9,772470013745114001
0.3,0.1,1,2,5401944782618191371
0.1,0.1,3,9,6420043450672736403
0.1,0.1,4,3,1269586966338823584
0.1,0.1,9,7,6143603750602727762
0.1,0.1,5,8,6470068469325356801
0.3,0.1,0,1,8331347437666003314
0.3,0.1,0,5,6918878832254503145
0.1,0.1,9,3,3779301921379297063
0.1,0.1,8,2,8782081697935576694
0.3,0.1,0,9,1403820163415602649
0.3,0.1,1,3,1841014138682405354
0.3,0.1,1,6,3735232026158553346
0.3,0.1,2,0,5366684148048775042
0.1,0.1,8,6,5707409029229670123
0.3,0.1,0,6,2611961847287422841
0.3,0.1,0,2,3770318206937418944
0.3,0.1,1,0,4554796173935744533
0.3,0.1,2,4,5412516256542821814
0.3,0.1,2,8,3446069988450724564
0.3,0.1,3,2,5239333853657488472
0.3,0.1,3,6,8732918721144573666
0.3,0.1,1,7,8107170931826192694
0.3,0.1,1,4,130533739665142234
0.1,0.1,9,8,4759001619105116529
0.1,0.1,8,7,1211259568109175612
0.3,0.1,4,0,8383390401493071291
0.3,0.1,0,7,6274553525469521081
0.3,0.1,1,1,2910823348616533062
0.1,0.1,3,1,1796288464532074608
0.3,0.1,2,5,3929861561831106685
0.3,0.1,3,3,7888458724822562259
0.3,0.1,2,9,5812561532406284790
0.3,0.1,1,5,8453899976403176236
0.3,0.1,3,7,7691024784783063538
0.3,0.1,1,8,3754346098869668766
0.1,0.1,9,0,3680871839170473271
0.1,0.1,8,3,7856577571803393184
0.1,0.1,9,9,8386199688637205903
0.3,0.1,4,4,1425971687409890171
0.3,0.1,4,1,5495617229360700920
0.3,0.1,4,8,3698557869874168499
0.3,0.1,5,2,5185956886263933905
0.3,0.1,5,6,6487234235982496811
0.3,0.1,2,6,7718416847950160094
0.3,0.1,3,4,8987785111106220776
0.3,0.1,3,0,2002481576069326946
0.3,0.1,6,0,7483013524091239124
0.3,0.1,6,4,3683698150112445897
0.3,0.1,3,8,1957135330686162709
0.3,0.1,1,9,1838730388332750133
0.3,0.1,6,8,7149782127375472875
0.3,0.1,4,5,7443254147151786330
0.3,0.1,7,2,217478838635852625
0.3,0.1,4,9,589412206978377717
0.3,0.1,4,2,4641060821267429260
0.3,0.1,5,3,6210797092328269874
0.3,0.1,5,7,1199226896450314707
0.1,0.1,9,1,3864189903725443352
0.3,0.1,2,7,8617015848305168705
0.3,0.1,3,5,3847920917321972081
0.3,0.1,6,1,2432844603544576319
0.3,0.1,6,5,5789526228508580984
0.3,0.1,3,1,4746786315272506904
0.3,0.1,3,9,7772715555067056145
0.3,0.1,7,6,4203333570843776262
0.3,0.1,6,9,4066493962452361498
0.3,0.1,4,6,1137993618132645033
0.3,0.1,7,3,3974753136849190906
0.3,0.1,5,0,8448819879030608424
0.3,0.1,5,4,2004434854295795123
0.3,0.1,4,3,7108459551553366357
0.3,0.1,5,8,1122607348028935087
0.3,0.1,8,0,7592401402072882678
0.3,0.1,8,4,6669449424008543857
0.3,0.1,8,8,3909636235438456337
0.3,0.1,7,7,3208369717377536473
0.3,0.1,9,2,3068483302032898460
0.3,0.1,7,0,1092661211927820505
0.3,0.1,4,7,4738292678582238887
0.1,0.1,5,9,1038977873834298906
0.3,0.1,5,1,4436958429870013071
0.3,0.1,7,4,3750808818932628327
0.3,0.1,9,6,1677651622559912810
0.3,0.1,5,5,5065347791770357945
0.5,0.1,0,0,2416745398337125781
0.3,0.1,5,9,2530461727123038708
0.3,0.1,8,5,68265538932636049
0.3,0.1,8,9,1925367749678422367
0.3,0.1,9,3,6738467742433480993
0.3,0.1,7,1,8626623631221745864
0.5,0.1,0,4,2114899379834889421
0.3,0.1,8,1,8980270815063219412
0.3,0.1,7,5,1469820812030438230
0.5,0.1,0,8,5067336548640433927
0.5,0.1,0,1,3121033366218327535
0.3,0.1,9,7,8311163298519225056
0.5,0.1,1,2,1160085847081387280
0.5,0.1,1,6,2412216540787774067
0.5,0.1,2,0,4794129147668622576
0.3,0.1,8,6,7198724599287829856
0.3,0.1,7,8,3755265708443679670
0.3,0.1,9,4,7751544574636308404
0.3,0.1,9,0,3088498416713261465
0.5,0.1,0,5,7568203540315517087
0.5,0.1,0,9,7514635388914453361
0.3,0.1,8,2,9145721335411529287
0.5,0.1,2,4,7276630651324618088
0.5,0.1,0,2,2522231486725873414
0.5,0.1,2,8,2230898839778528120
0.5,0.1,1,3,5963422206282377280
0.5,0.1,1,7,373644897426785118
0.5,0.1,2,1,882569756377138957
0.3,0.1,9,8,8938579618095452322
0.1,0.1,9,4,6204718493796900098
0.5,0.1,0,6,5167549824522497798
0.3,0.1,8,7,1461871225742425350
0.3,0.1,9,5,9125089892810849655
0.3,0.1,7,9,2974193574753236894
0.5,0.1,1,0,3501178057722330742
0.5,0.1,2,5,2055551593970788845
0.3,0.1,9,1,6353702671352110627
0.5,0.1,0,3,2360571276137907972
0.5,0.1,1,4,2860183243628344709
0.5,0.1,1,8,7177278655066492205
0.3,0.1,8,3,6279924347842666435
0.3,0.1,6,6,3662323479823630127
0.5,0.1,2,9,4034458777868527801
0.5,0.1,2,2,6248319168619272302
0.3,0.1,0,3,1212664917105421318
0.3,0.1,9,9,2319199605191237979
0.5,0.1,0,7,4991048719023175113
0.5,0.1,1,1,97836130361728088
0.5,0.1,3,2,2647855535070178444
0.5,0.1,3,6,6146545275853623017
0.5,0.1,2,6,4657532713016947472
0.5,0.1,4,0,902704115308839136
0.5,0.1,4,4,7434599350877303583
0.5,0.1,1,5,529737564468501290
0.5,0.1,1,9,6316704359037661648
0.5,0.1,4,8,4398254303801437102
0.5,0.1,3,0,1017002390349501242
0.5,0.1,5,2,9083098550479050111
0.5,0.1,2,3,8141948710689358108
0.3,0.1,6,7,3885548508183689522
0.5,0.1,5,6,7436596939658840529
0.5,0.1,6,0,6568172193883503786
0.5,0.1,6,4,901618476331433026
0.5,0.1,3,3,8574166709640576973
0.5,0.1,6,8,5416324483790542481
0.5,0.1,3,7,4075126897257788
0.5,0.1,2,7,4458423614899870989
0.5,0.1,4,1,2525547563395133201
0.5,0.1,4,5,255265815616129753
0.5,0.1,7,2,1288545312546240173
0.5,0.1,7,6,5608463165110602132
0.5,0.1,4,9,7517974156937471453
0.5,0.1,3,1,6558577232901369177
0.1,0.1,1,4,7620066714536819611
0.5,0.1,8,0,8956502450336327258
0.5,0.1,5,3,6807291850617534963
0.5,0.1,6,1,7486583876980095075
0.5,0.1,5,7,2690005056398348951
0.5,0.1,6,5,8542917481344990129
0.5,0.1,8,4,9103607573542713067
0.5,0.1,3,4,7401877266443757917
0.5,0.1,3,8,6707285401759817362
0.5,0.1,6,9,3942187064673574185
0.5,0.1,8,8,7061826835132023153
0.5,0.1,4,2,4665672395298378081
0.5,0.1,7,3,8463516683146419811
0.5,0.1,4,6,5233365723276701627
0.5,0.1,7,7,4390839395270855755
0.5,0.1,9,2,4423362382816359923
0.5,0.1,5,0,4931876729059314134
0.5,0.1,8,1,940757175662768598
0.5,0.1,5,4,383474353448144328
0.5,0.1,6,2,6118807445767650437
0.5,0.1,6,6,6549766600158483049
0.5,0.1,5,8,5695951028993210012
0.5,0.1,8,5,3038548969483533752
0.5,0.1,3,5,6151681157662230426
0.1,0.1,1,5,5549792084376116141
0.5,0.1,3,9,1597584153906652313
0.5,0.1,8,9,49671769960698414
0.5,0.1,7,0,7856267439148553006
0.5,0.1,4,3,5988476453490560638
0.5,0.1,7,4,4172843605285687860
0.5,0.1,4,7,2182846877414968146
0.5,0.1,7,8,8136020223387269290
0.1,0.1,9,5,6261194794718805317
0.5,0.1,9,3,6047524253028405275
0.5,0.1,5,1,359630550502971695
0.5,0.1,8,2,6971744766587976397
0.5,0.1,5,5,2627826471667755087
0.5,0.1,6,3,7252750882037330760
0.5,0.1,5,9,2418267762635828120
0.5,0.1,6,7,1603425118334740834
0.5,0.1,8,6,4717672511503946450
0.5,0.1,9,6,4158127121454134162
0.5,0.1,7,5,5922776779570327250
0.5,0.1,9,0,485995141561672774
0.5,0.1,7,1,2247959355392306793
0.5,0.1,7,9,7149459289068926014
0.5,0.1,9,4,7317740933228714975
0.5,0.1,8,3,578639368856795605
0.5,0.1,8,7,1854804640453975899
0.3,0.1,2,1,6043072775284187703
0.5,0.1,9,7,3699212962458953201
0.5,0.1,9,1,2434875587298201330
0.5,0.1,9,5,4687529384209523069
0.5,0.1,9,8,2265055361954108004
0.3,0.1,2,2,1677984302453321917
0.5,0.1,9,9,1987580326683960998
0.3,0.1,2,3,4928435858964349651
0.3,0.1,6,2,7947172598278245413
0.3,0.1,6,3,733331295297836181
