d,mu,weight_set,opinion_set,sim_seed
0.1,0.5,0,5,8096338512559089981
0.1,0.3,0,0,1315431787326961433
0.1,0.3,1,5,4208888241062516220
0.1,0.3,3,0,5303944035012806885
0.1,0.3,6,0,1646533122091412449
0.1,0.3,4,5,992208546280066967
0.1,0.3,7,5,470833442915536239
0.1,0.3,9,0,8865919294689530101
0.1,0.5,3,5,8951002066049941298
0.1,0.5,2,0,3447876587942113023
0.1,0.3,1,6,1095826612738396568
0.1,0.3,3,1,7188503368126207967
0.1,0.5,3,6,1047203087878062147
0.1,0.3,4,6,1436901579068554988
0.1,0.3,9,1,5087120695071321559
0.1,0.5,2,1,3962365497788922008
0.1,0.5,3,7,1779596720985947790
0.1,0.3,7,6,7426368658253371142
0.1,0.3,1,7,2553140049952614801
0.1,0.3,3,2,4602415165917996299
0.1,0.5,0,6,2616887168259868186
0.1,0.3,6,1,1261635875214369376
0.1,0.5,3,8,6452460319833723758
0.1,0.3,4,7,2863351347248967190
0.1,0.3,1,8,8183262129538122213
0.1,0.3,3,3,7770745507669987819
0.1,0.3,0,1,1762690413107363044
0.1,0.5,3,9,3785123380611656823
0.1,0.5,2,2,6053118522943410801
0.1,0.5,0,7,6251496034901724273
0.1,0.3,4,8,3978721332901482916
0.1,0.3,1,9,2494976945975106740
0.1,0.3,0,2,6256089843129221142
0.1,0.3,9,2,3021435853354635321
0.1,0.3,3,4,846846634879763095
0.1,0.5,2,3,858990752355411525
0.1,0.3,6,2,4326411127640591741
0.1,0.3,4,9,2689294271274347436
0.1,0.3,7,7,3081274818688482492
0.1,0.5,2,4,4267079268091320283
0.1,0.3,2,0,4394674160379224241
0.1,0.3,0,3,5380192674389383248
0.1,0.5,4,0,5737947007195246413
0.1,0.5,2,5,105324689879953141
0.1,0.3,0,4,7092319189700190146
0.1,0.3,6,3,7637275370789940989
0.1,0.5,0,8,3311521233277413282
0.1,0.5,4,1,7351044753502486703
0.1,0.3,3,5,1480378315245483355
0.1,0.3,0,5,4748367562782970397
0.1,0.5,2,6,2484174039435772157
0.1,0.5,0,9,4714914388212161847
0.1,0.3,7,8,8121890465893282422
0.1,0.3,6,4,124501904161266601
0.1,0.3,3,6,6310264104807976567
0.1,0.3,0,6,4507631234224182957
0.1,0.3,5,0,8996779305769438963
0.1,0.5,1,0,6476580209267354077
0.1,0.3,6,5,2807206239247386733
0.1,0.3,7,9,6076122843910295231
0.1,0.3,0,7,2080094120519165311
0.1,0.3,3,7,989618067491753149
0.1,0.5,1,1,1959942089246986899
0.1,0.3,9,3,3063863774608342245
0.1,0.3,2,1,2767488152726506303
0.1,0.3,6,6,1301574745284407717
0.1,0.3,3,8,5170807457593149434
0.1,0.3,0,8,1889102314843335673
0.1,0.5,1,2,2086713815095823019
0.1,0.3,5,1,6702767911015712612
0.1,0.3,3,9,8391649654298498552
0.1,0.3,6,7,2294213781415372116
0.1,0.3,0,9,5557554103208134215
0.1,0.5,2,7,1544191924309356816
0.1,0.3,9,4,4418406682764282845
0.1,0.3,2,2,5881461213955561595
0.1,0.3,8,0,2312932092449066802
0.1,0.5,1,3,8610346288622497533
0.1,0.3,1,0,4064124482701344726
0.1,0.3,2,3,7658845105813015484
0.1,0.3,9,5,4262610067010517711
0.1,0.5,2,8,2598250571469168945
0.1,0.3,6,8,8497846529725383185
0.1,0.3,2,4,8053559299909907993
0.1,0.3,5,2,4519046963768396854
0.1,0.3,1,1,16351255959744644
0.1,0.5,2,9,3583954471458978953
0.1,0.3,4,0,6352704229601428961
0.1,0.3,8,1,3432403995940926779
0.1,0.5,4,2,7675534034428087726
0.1,0.3,9,6,536983172262640713
0.1,0.3,8,2,1704127874975793171
0.1,0.5,4,3,1579644396432005695
0.1,0.3,4,1,7729207272511364425
0.1,0.3,2,5,2825137349484877053
0.1,0.3,5,3,5344046516905208573
0.1,0.3,6,9,6104488795106321844
0.1,0.3,1,2,3406338002922812019
0.1,0.5,4,4,4674473310564280643
0.1,0.3,8,3,6008187736717379258
0.1,0.5,4,5,4966962769396931820
0.1,0.3,9,7,4887977732325299549
0.1,0.3,2,6,7536136722860417654
0.1,0.3,8,4,5541716011122821680
0.1,0.3,4,2,1425061195559152916
0.1,0.5,1,4,1306536767698815996
0.1,0.5,4,6,2668676664682786252
0.1,0.3,1,3,2615571736961116155
0.1,0.3,7,0,7271563914608562069
0.1,0.3,5,4,7292589664553951064
0.1,0.3,2,7,8829098474517410615
0.1,0.5,1,5,6967916892962503297
0.1,0.3,9,8,1012305437922636688
0.1,0.3,4,3,151956003093710174
0.1,0.3,7,1,2619015078703558020
0.1,0.5,4,7,3776482598763610442
0.1,0.5,3,0,387531823649739400
0.1,0.3,1,4,3197381145260653290
0.1,0.3,9,9,7516933137502455422
0.1,0.5,1,6,6476991081573640480
0.1,0.5,3,1,3088388957068068944
0.1,0.3,2,8,1785391282526453987
0.1,0.3,8,5,5831752128401501115
0.1,0.5,3,2,6893564256344145593
0.1,0.3,7,2,4524840618511857196
0.1,0.5,0,0,5566929400248015599
0.1,0.5,3,3,5761638524795396652
0.1,0.5,5,0,3601000294848791119
0.1,0.3,2,9,6116538313083615991
0.1,0.3,5,5,547554074282995013
0.1,0.5,1,7,5835505835100907394
0.1,0.3,8,6,5898403640063586422
0.1,0.5,3,4,3649547225859151222
0.1,0.3,7,3,5784587965265634786
0.1,0.5,0,1,5500222472382134251
0.1,0.3,4,4,3723415613031277606
0.1,0.5,1,8,420498691859600284
0.1,0.3,8,7,2084679894990467911
0.1,0.5,6,5,2873287109066577063
0.1,0.5,8,0,6231806407453630127
0.1,0.5,0,2,506077395084588742
0.1,0.3,5,6,1068201459100405306
0.1,0.3,7,4,5846554614214028664
0.1,0.5,6,6,8400687393806269380
0.1,0.3,8,8,7577897266054965617
0.1,0.5,6,7,2694425340057033175
0.1,0.5,1,9,3743929822398260575
0.1,0.5,8,1,7969776725631141967
0.1,0.5,9,5,2861525694797051751
0.1,0.5,0,3,1105300442665569657
0.1,0.5,5,1,4785315531513552074
0.1,0.3,8,9,2085918726831384426
0.1,0.5,6,8,3319042869287580665
0.1,0.5,4,8,2649433667659870099
0.1,0.5,0,4,1937515436450953972
0.1,0.3,5,7,658324856849465088
0.1,0.5,5,2,4031090925946759248
0.1,0.5,6,9,4058960290626237970
0.3,0.3,1,0,4085197432904471435
0.3,0.3,2,5,7929542199453866715
0.1,0.5,9,6,2816877847012387070
0.1,0.5,9,7,1149766642196465794
0.3,0.3,2,6,3009698457351054091
0.1,0.5,7,0,5114475687494192612
0.3,0.3,4,0,1090887588437203506
0.1,0.5,8,2,174408499414076581
0.1,0.5,9,8,3387761473911794959
0.3,0.3,1,1,3170649796632176206
0.1,0.5,5,3,8112447384392948144
0.1,0.5,4,9,8417308256209537541
0.3,0.3,4,1,1242677633913016252
0.1,0.5,7,1,3297072104240246605
0.1,0.5,9,9,1629345175093371643
0.1,0.5,8,3,183707833456218804
0.1,0.5,5,4,1027660071385896803
0.1,0.5,7,2,7559002366713385815
0.3,0.3,5,5,6595431617749174593
0.1,0.5,8,4,1788355900494856245
0.1,0.3,5,8,3997172073009785508
0.3,0.3,7,0,7568662497483786103
0.1,0.5,5,5,7666468874647170830
0.3,0.3,5,6,4823500657096076432
0.3,0.3,1,2,5865672356639362762
0.3,0.3,0,0,2486302521935770136
0.1,0.5,5,6,1068712976333504589
0.3,0.3,5,7,3141603675551321390
0.3,0.3,0,1,4832073474846912239
0.3,0.3,1,3,6293432474938872414
0.3,0.3,5,8,5919860630566639063
0.1,0.5,7,3,6187595110386986472
0.3,0.3,5,9,6832463484109694086
0.3,0.3,0,2,7344377196630402691
0.3,0.3,1,4,715976638930881773
0.1,0.5,5,7,4976542858154511552
0.1,0.5,8,5,2613325538086137228
0.1,0.5,7,4,1512939696059209172
0.3,0.3,6,0,5348975474113311500
0.1,0.5,5,8,5935977511749949859
0.1,0.3,5,9,3780864822521967550
0.1,0.5,8,6,4008290009367122147
0.3,0.3,6,1,995931523632476797
0.3,0.3,4,2,8251278530731408257
0.1,0.5,7,5,2297873862557773214
0.3,0.3,6,2,6900220977129856725
0.3,0.3,6,3,8289526246728595377
0.3,0.3,8,5,3547256600166694428
0.1,0.5,7,6,6049902623812447430
0.3,0.3,1,5,1353936685572697237
0.3,0.3,6,4,4209712841990930132
0.3,0.3,0,3,2502981195444985728
0.3,0.3,1,6,9172796580036913214
0.1,0.5,7,7,2096300159772341277
0.3,0.3,1,7,3229601770263346699
0.3,0.3,0,4,1553541223098808476
0.1,0.5,8,7,2060014044505412787
0.3,0.3,8,6,8125542911462842096
0.1,0.5,5,9,419415310614040182
0.3,0.3,6,5,1176037923033480907
0.3,0.3,1,8,2788304390385727360
0.3,0.3,4,3,846539522702814087
0.3,0.3,6,6,1473737550499332624
0.3,0.3,0,5,3070921292504364918
0.3,0.3,1,9,8049674119240111090
0.1,0.5,6,0,1291039303594669516
0.1,0.5,8,8,1815229521608701140
0.3,0.3,6,7,591046295638750387
0.3,0.3,4,4,2527912752303291239
0.1,0.5,7,8,5386139056358329307
0.3,0.3,8,7,2932244438244609945
0.3,0.3,7,1,1459503568436095063
0.3,0.3,2,0,6615399448039303843
0.3,0.3,6,8,7399529958656024492
0.1,0.5,6,1,5714630227799399679
0.1,0.5,8,9,6641570272947051496
0.3,0.3,2,1,8148517990888227280
0.3,0.3,8,8,1220882267145328393
0.3,0.3,6,9,1428948886463453720
0.1,0.5,7,9,1475048082750216756
0.1,0.5,6,2,5908387638565927377
0.3,0.3,2,2,6445662501829456386
0.3,0.5,0,0,5562198674466745250
0.3,0.3,8,9,7880524552040603179
0.3,0.3,7,2,7197127715316521803
0.3,0.5,0,1,701256611885650190
0.3,0.5,1,5,6313217481368962518
0.1,0.5,9,0,6906957926600988341
0.3,0.3,4,5,2320245074121877902
0.3,0.5,0,2,8994005827246094137
0.3,0.3,9,0,1654342196022230810
0.1,0.5,6,3,4712805591491933313
0.3,0.3,2,3,688895838774393159
0.1,0.5,9,1,5493470996071300927
0.3,0.5,0,3,2462827873036672200
0.3,0.5,0,4,4719202723522743474
0.1,0.5,6,4,1911216440380521120
0.3,0.3,7,3,5124336892850336724
0.3,0.3,0,6,7483478937628354275
0.3,0.5,0,5,145366265984188914
0.3,0.5,1,6,5792125092285798500
0.1,0.5,9,2,2270556280633549417
0.3,0.5,3,0,5321673859679687162
0.3,0.5,0,6,1749533254198704397
0.3,0.3,7,4,2612360225226533329
0.3,0.5,3,1,8913024785178337224
0.1,0.5,9,3,739801020617576307
0.3,0.3,9,1,8965928354559777121
0.3,0.3,0,7,6641550356907351203
0.3,0.5,0,7,2577740663027560146
0.3,0.3,7,5,5050756744495421465
0.3,0.3,9,2,8581015518464264187
0.3,0.5,1,7,4979109518294354447
0.3,0.3,0,8,8098131563922957351
0.1,0.5,9,4,6186885971330181642
0.3,0.3,9,3,4412226784401215712
0.3,0.5,1,8,5518401148755215851
0.3,0.5,0,8,5533506356159493890
0.3,0.5,0,9,792464205244581099
0.3,0.5,4,5,2688165576173039014
0.3,0.5,1,9,3802858726210227426
0.3,0.5,1,0,6720098411999404044
0.3,0.5,1,1,7033125481091621567
0.3,0.5,3,2,2857002030704412823
0.3,0.5,4,6,7176269061337501761
0.3,0.3,9,4,8985096550632169028
0.3,0.5,3,3,5504083504217913976
0.3,0.3,9,5,4327946160398712904
0.3,0.5,3,4,2406213356656719242
0.3,0.5,1,2,6054238832766166759
0.3,0.5,2,0,7039796627140885532
0.3,0.5,4,7,3976056822715949851
0.3,0.3,9,6,6544872602643913906
0.3,0.5,1,3,9065651556839646125
0.3,0.5,1,4,8643497287960128011
0.3,0.5,4,8,5373499540797256753
0.3,0.3,9,7,992866119367822490
0.3,0.5,2,1,7542703215234299670
0.3,0.5,3,5,4494726347128777041
0.3,0.3,0,9,4446669715141844525
0.3,0.5,3,6,2282800431431022832
0.3,0.3,9,8,7836286891146115971
0.3,0.5,4,9,6464547477990287808
0.3,0.5,3,7,2002648049642204628
0.3,0.5,2,2,760857072040003619
0.3,0.5,6,0,7679082830522851789
0.3,0.3,9,9,6023059286591527414
0.3,0.3,2,4,9112525677355290213
0.3,0.5,3,8,2376021018397611643
0.3,0.5,5,0,8182054049263544360
0.3,0.5,6,1,6487343109486805666
0.3,0.5,7,5,4305473095531074450
0.3,0.5,9,0,141020284753243668
0.3,0.5,3,9,2675175246826815129
0.3,0.5,9,1,4379702601646122821
0.3,0.5,2,3,7363716351710231980
0.3,0.5,6,2,340669101114799249
0.3,0.3,2,7,5726683479914200623
0.3,0.5,9,2,8623024110081174446
0.3,0.5,6,3,6757471230674103001
0.3,0.5,7,6,1597008055342441944
0.3,0.5,9,3,8335637342604162189
0.3,0.5,9,4,120968735546394282
0.3,0.5,2,4,1438836597801083772
0.3,0.5,5,1,7418081215394688485
0.3,0.5,9,5,7225894862230417803
0.5,0.3,0,5,2569297340629545796
0.3,0.5,9,6,6907207527995437936
0.3,0.5,5,2,1745463799749065866
0.5,0.3,0,6,5325197086796180293
0.3,0.5,4,0,979986694599575973
0.5,0.3,0,7,6126836931491083053
0.3,0.5,5,3,7505741607480367928
0.3,0.5,7,7,5621582272444220206
0.3,0.5,2,5,2283933705487497320
0.5,0.3,0,8,8071855088058242093
0.3,0.5,4,1,178650621216181593
0.3,0.3,4,6,1997186319985408300
0.5,0.3,0,9,2188057576276506925
0.3,0.5,5,4,5836156031778998630
0.3,0.5,9,7,7284903397554711720
0.3,0.5,6,4,6960037081785588419
0.3,0.3,7,6,5484255950235827565
0.3,0.5,9,8,6095208575324170965
0.5,0.3,1,0,5439012645328462646
0.3,0.3,2,8,2119239457534065540
0.3,0.5,4,2,3242603214162086284
0.3,0.5,9,9,7661478070005317943
0.3,0.5,2,6,8303095430467393914
0.3,0.5,5,5,3320880062907509160
0.5,0.3,1,1,8273741988318698809
0.5,0.3,0,0,5143191316928942794
0.3,0.5,7,8,498757355241095179
0.3,0.3,2,9,5029944173673556397
0.5,0.3,1,2,7999492747747848661
0.5,0.3,0,1,8468947518024438186
0.3,0.5,5,6,4098162032318194111
0.3,0.5,7,9,3235868425525766664
0.5,0.3,0,2,4058703461055904291
0.3,0.3,4,7,290794088840013162
0.5,0.3,1,3,8537613390178918486
0.3,0.5,5,7,2375033273065140667
0.3,0.5,8,0,6120494748177183220
0.5,0.3,0,3,2550314974219297329
0.5,0.3,1,4,8066967462944485966
0.5,0.3,0,4,5728284097024201567
0.3,0.3,4,8,5434559273484757436
0.5,0.3,2,0,6754416844485008953
0.5,0.3,1,5,475642214512159654
0.3,0.5,8,1,8052491666023819935
0.5,0.3,2,1,7695956259382240475
0.5,0.3,1,6,2995405526062416214
0.3,0.5,8,2,4569649127885677860
0.3,0.5,4,3,2593209348433042876
0.3,0.5,2,7,4218171275231794399
0.5,0.3,2,2,7634163385051784912
0.5,0.3,1,7,6591880107045390219
0.3,0.5,4,4,6939575394902638854
0.3,0.5,8,3,3824706093664675012
0.5,0.3,2,3,1932676393766862244
0.3,0.5,2,8,3628539104909990310
0.3,0.5,5,8,3641151296490139263
0.5,0.3,1,8,6478979850738581791
0.3,0.5,8,4,1044473757325329914
0.5,0.3,3,5,6058740504757921598
0.3,0.5,2,9,9005107654624638022
0.5,0.3,2,4,6310172208017863231
0.3,0.5,5,9,5327428830958137597
0.5,0.3,3,6,561776591575696385
0.5,0.3,1,9,7337552242835919034
0.5,0.3,2,5,1415074908599275898
0.3,0.5,8,5,3761327266411051789
0.5,0.3,3,7,6299382177547277710
0.3,0.3,3,0,8116113843505485605
0.5,0.3,5,0,9101717547331701966
0.5,0.3,2,6,3613853323209712284
0.5,0.3,6,5,4327512359269692871
0.5,0.3,3,8,5162015161513675025
0.5,0.3,2,7,3332824226930108966
0.5,0.3,3,9,2145514725181175352
0.5,0.3,6,6,6268387367171924491
0.3,0.5,6,5,7269352555954473668
0.5,0.3,2,8,6330046267839110007
0.5,0.3,5,1,3669797662288617439
0.3,0.3,4,9,575033001935580378
0.3,0.5,8,6,8324908452073918935
0.5,0.3,4,0,2798410780956152373
0.3,0.5,6,6,7077446299921210036
0.5,0.3,2,9,6046429576701469235
0.5,0.3,6,7,6267637135508132712
0.5,0.3,8,0,8981014350750351590
0.5,0.3,5,2,1686757831459392609
0.3,0.5,8,7,344177606904898302
0.5,0.3,4,1,4984461239928630541
0.5,0.3,3,0,1314072230035772171
0.3,0.3,5,0,4994841244787065610
0.5,0.3,6,8,4430525118174241428
0.3,0.5,8,8,7146383007644856235
0.5,0.3,4,2,5686258267909682861
0.5,0.3,8,1,3253757457536949269
0.5,0.3,3,1,6036697883873271606
0.5,0.3,6,9,4249872865061577008
0.3,0.3,7,7,1529887737033589917
0.5,0.3,5,3,3514558200573189130
0.5,0.3,4,3,4083410589962052007
0.5,0.3,3,2,8076920949079852446
0.3,0.5,8,9,8562576688770161013
0.5,0.3,8,2,8914653913455278854
0.5,0.3,7,0,7940008783343059922
0.5,0.3,3,3,1977508719873948718
0.5,0.3,4,4,7981012700499770479
0.5,0.3,5,4,4096078185455262997
0.5,0.3,3,4,5423607843064064842
0.5,0.3,4,5,7391230609823952062
0.5,0.3,7,1,7810187151741643744
0.5,0.3,9,5,1856350992105582513
0.5,0.3,8,3,1921280442563849823
0.5,0.3,4,6,7930541911798424931
0.5,0.3,7,2,2946030286930165784
0.5,0.3,5,5,3864376931030055693
0.5,0.3,9,6,5318911821699212326
0.5,0.3,7,3,931236004165493495
0.5,0.3,4,7,3807369513511342210
0.3,0.3,3,1,8875524268161212957
0.5,0.3,8,4,7840793009635532077
0.5,0.3,9,7,1116330294557086723
0.3,0.3,7,8,8986003098102390038
0.5,0.3,7,4,7844170391236162300
0.5,0.3,4,8,5044746244517810368
0.5,0.3,5,6,5331431188388835094
0.3,0.3,3,2,3464143493812721128
0.5,0.3,9,8,6861905926732742266
0.3,0.3,7,9,2087289286135518438
0.5,0.3,7,5,6920115046742612146
0.5,0.3,8,5,3975564751862172506
0.3,0.3,3,3,3018979253205298650
0.5,0.3,4,9,2277420722471847013
0.5,0.3,9,9,9187810517902181727
0.5,0.3,7,6,6062786261409073922
0.3,0.3,5,1,9029038122566965064
0.5,0.3,5,7,4679604881733390480
0.5,0.5,1,0,736833559848185029
0.5,0.5,0,0,4455878896532762482
0.3,0.3,8,0,3783847363342912172
0.5,0.3,7,7,2729422355925830898
0.5,0.3,8,6,6889252899635085518
0.5,0.3,5,8,2396536494196874718
0.5,0.5,1,1,1447880252464142319
0.5,0.5,0,1,2617257156140083199
0.3,0.3,3,4,6049711092946226257
0.5,0.3,7,8,955561693459868224
0.5,0.5,0,2,5236278467804443459
0.5,0.3,5,9,8109657939941477249
0.5,0.5,1,2,7548628553962977363
0.3,0.3,3,5,8004671563143239618
0.3,0.5,6,7,4075861009214963714
0.5,0.5,0,3,5419979318883761877
0.5,0.3,8,7,7779304589225992568
0.5,0.3,7,9,812381073384122512
0.5,0.5,1,3,7407507480618258898
0.3,0.3,3,6,7242003853109414361
0.5,0.5,0,4,1666222055030644352
0.5,0.3,6,0,8978983693397328993
0.5,0.5,2,5,152390984109760417
0.5,0.5,0,5,8010436456807646852
0.3,0.5,6,8,662570080124082390
0.3,0.3,3,7,608069757751357685
0.5,0.3,6,1,8652273743503024512
0.5,0.3,8,8,2723801810681468505
0.5,0.5,2,6,3971850992743984940
0.5,0.5,1,4,6587548719199841150
0.5,0.5,0,6,1540266387745933503
0.3,0.3,8,1,7521032132410097829
0.3,0.5,6,9,8667863869252394530
0.5,0.3,6,2,7751821037146738686
0.5,0.5,2,7,6206062109493629320
0.5,0.5,1,5,910361383313589129
0.5,0.3,8,9,611436287286071159
0.5,0.5,2,8,1687240810752830850
0.5,0.3,6,3,1609176835207088634
0.3,0.3,8,2,4452149311380614119
0.5,0.5,1,6,3399001784386150352
0.3,0.5,7,0,6267892685838901237
0.5,0.5,0,7,3191809612714645268
0.5,0.5,2,9,6394409667647014615
0.5,0.3,6,4,2005336750258738160
0.5,0.5,1,7,5206283494972367695
0.5,0.5,0,8,7024916187531513557
0.5,0.5,3,0,5530713731597973908
0.5,0.3,9,0,7940883365554356179
0.5,0.5,0,9,278750462229603240
0.5,0.5,4,0,6603427371248796494
0.5,0.5,3,1,5106931586149986284
0.5,0.5,1,8,4109334471398224654
0.5,0.5,5,5,3651590895844644842
0.5,0.5,7,0,4447834344970589100
0.5,0.5,4,1,1133440750683493455
0.5,0.5,3,2,5999259073254507827
0.5,0.5,7,1,3951771521402599545
0.5,0.5,1,9,4744933412732516535
0.5,0.5,4,2,1760296530217240714
0.3,0.3,5,2,6165060947992480751
0.5,0.5,5,6,3509282456974073540
0.5,0.3,9,1,2727419338367039471
0.5,0.5,3,3,1859286290395545236
0.5,0.5,7,2,1123931897221238186
0.5,0.5,2,0,2900694036398954650
0.5,0.5,4,3,3104937424292901539
0.5,0.5,3,4,4551207380150292946
0.5,0.5,7,3,548950816579353502
0.5,0.5,5,7,2484665015541553888
0.5,0.5,4,4,7948332010715470183
0.5,0.5,3,5,8685123654010347194
0.5,0.5,2,1,2878839098399121931
0.5,0.5,7,4,6616681042275980948
0.5,0.3,9,2,4571872795638224104
0.3,0.5,7,1,461403685756702818
0.5,0.5,4,5,4681587249703289472
0.5,0.5,3,6,1889997511804062499
0.5,0.5,7,5,2038854629322190696
0.5,0.5,2,2,4619532126994624409
0.5,0.5,3,7,5405197343341272496
0.5,0.5,5,8,3748010079259220442
0.5,0.5,7,6,1414727139180487794
0.5,0.5,4,6,5465832249387953955
0.5,0.3,9,3,5471057772289531658
0.5,0.5,3,8,2550974885834758738
0.5,0.5,4,7,2942941078620638248
0.5,0.5,3,9,3402167488360929118
0.5,0.5,7,7,6435871060141453298
0.5,0.5,2,3,3683748164122438181
0.5,0.5,5,9,1606538444962633360
0.3,0.3,3,8,5334661511086107466
0.5,0.5,4,8,5025466538077886647
0.5,0.5,8,5,478907860694901854
0.5,0.3,9,4,4791296268030031873
0.5,0.5,7,8,5037178375611283002
0.5,0.5,4,9,542141921582089948
0.5,0.5,8,6,6783329485253886795
0.5,0.5,2,4,5378650367483627036
0.5,0.5,5,0,7653951332508680081
0.5,0.5,6,0,1421943551624033537
0.3,0.3,3,9,627423249733512444
0.5,0.5,8,7,4224604389946050014
0.5,0.5,7,9,5668620159275689165
0.5,0.5,5,1,6676764287376253410
0.5,0.5,8,8,7093864292736181427
0.5,0.5,6,1,6566514033415013543
0.5,0.5,5,2,2729101890784569611
0.5,0.5,8,0,5865366579895822725
0.5,0.5,8,9,6750948055529350243
0.5,0.5,6,2,2744335299862821453
0.5,0.5,5,3,3063886979573391670
0.5,0.5,9,0,1177875205714309025
0.5,0.5,8,1,3239622664377058346
0.5,0.5,6,3,7990943066615254307
0.5,0.5,5,4,999973806896002249
0.5,0.5,9,1,6278790052495744447
0.5,0.5,6,4,7954935069001523010
0.5,0.5,9,2,9187309001432377551
0.5,0.5,8,2,5456880385574791424
0.3,0.3,8,3,2934222749244749486
0.5,0.5,9,3,1058884824619334702
0.5,0.5,6,5,1413225402428600502
0.3,0.5,7,2,4661776693382778388
0.5,0.5,9,4,500575677000357566
0.5,0.5,8,3,1343471694995145105
0.3,0.3,8,4,5156603591468585713
0.5,0.5,9,5,772023796452775671
0.5,0.5,6,6,5307698666081098593
0.5,0.5,8,4,4919881955902788769
0.5,0.5,9,6,6628313596723956193
0.5,0.5,6,7,8349584214568300161
0.3,0.5,7,3,8536072058652100828
0.3,0.3,5,3,1749413991786118316
0.5,0.5,9,7,1425010671919778063
0.5,0.5,6,8,229688923932734559
0.5,0.5,9,8,7364598022309538994
0.3,0.3,5,4,495035487823729974
0.5,0.5,6,9,5146905345648828412
0.5,0.5,9,9,6477226777656201381
0.3,0.5,7,4,6814528076998362243
