d,mu,weight_set,opinion_set,sim_seed
0.1,0.3,3,0,2290525475788736155
0.1,0.3,9,0,9019932661472468899
0.1,0.3,1,0,6527147710483891666
0.1,0.3,0,0,2023284925097125955
0.1,0.3,2,0,3009749185896043154
0.1,0.3,5,0,8602266843220126459
0.1,0.3,6,0,4159994907288611593
0.1,0.3,7,0,6057384995863519826
0.1,0.3,8,0,5436439499142085883
0.1,0.5,1,0,8796133343592426376
0.1,0.5,2,0,1809191451957968396
0.1,0.5,3,0,2811494010716780475
0.1,0.3,4,0,6291147888021575884
0.1,0.5,4,0,405118221532698263
0.1,0.5,0,0,5965254413393237754
0.1,0.5,2,1,7338449375123091859
0.1,0.3,9,1,6851991841147326366
0.1,0.3,5,1,7460084727473379689
0.1,0.3,4,1,5763532411682983862
0.1,0.3,1,1,6187628817697748789
0.1,0.5,1,1,1330287703600736088
0.1,0.5,3,1,5227192439100277629
0.1,0.5,0,1,2406197813227092141
0.1,0.3,2,1,8625004197296441453
0.1,0.3,6,1,1723742961000008004
0.1,0.5,4,1,1284339542490731721
0.1,0.3,8,1,7503780694669681357
0.1,0.5,2,2,8613886108334646823
0.1,0.5,3,2,3886904784586109438
0.1,0.3,0,1,2526591585966998884
0.1,0.5,0,2,5378146621834424840
0.1,0.5,4,2,8730553478571316927
0.1,0.3,4,2,3588479287301029006
0.1,0.5,2,3,8626611238547947942
0.1,0.3,9,2,3423499649060142640
0.1,0.5,3,3,2732608716886042837
0.1,0.3,6,2,680165984050943952
0.1,0.3,1,2,3863288496684853562
0.1,0.5,0,3,2564287890629594236
0.1,0.3,0,2,9004781693579122407
0.1,0.3,8,2,2102251353113505909
0.1,0.5,2,4,5093661854821059063
0.1,0.3,2,2,7837275899633521718
0.1,0.5,3,4,6529308052932860162
0.1,0.3,4,3,1761346597022295693
0.1,0.3,9,3,5691751049247813939
0.1,0.3,6,3,3590402972794380595
0.1,0.5,2,5,4866918465612469652
0.1,0.3,0,3,7913149606932402625
0.1,0.5,3,5,625405700007622106
0.1,0.3,8,3,7281009118415012973
0.1,0.3,2,3,8585989490841696669
0.1,0.5,4,3,7293158150082542049
0.1,0.5,2,6,4815469290224794277
0.1,0.3,3,1,3301415999419930060
0.1,0.3,0,4,8929040891341309354
0.1,0.3,8,4,3742604796774664923
0.1,0.5,4,4,1721064742877809774
0.1,0.3,1,3,6157372174756627407
0.1,0.3,4,4,5378249026060618202
0.1,0.3,6,4,2472307245737107027
0.1,0.5,2,7,2883867537693424616
0.1,0.3,0,5,5802005995015480696
0.1,0.5,4,5,7433903911754850573
0.1,0.3,8,5,1465975176945821616
0.1,0.5,3,6,6408623207557973003
0.1,0.3,3,2,1993544254021395263
0.1,0.5,2,8,7145775978483802193
0.1,0.3,4,5,4429066625582990271
0.1,0.5,3,7,2869783760205746252
0.1,0.3,0,6,6279650224478843458
0.1,0.5,4,6,8569121406644398588
0.1,0.3,5,2,9059543996546164204
0.1,0.5,3,8,3127072595977122138
0.1,0.3,9,4,3672779743316260088
0.1,0.5,0,4,8276944580910423304
0.1,0.5,1,2,33580558908453889
0.1,0.5,4,7,5400518416662337152
0.1,0.3,4,6,3544775172101317372
0.1,0.5,2,9,700856881877925650
0.1,0.5,3,9,8378547309609466964
0.1,0.3,5,3,907419532395756408
0.1,0.5,1,3,1598532655394955158
0.1,0.3,1,4,1935041308229537257
0.1,0.5,5,0,6823425463763536663
0.1,0.5,0,5,3173095725234860683
0.1,0.3,5,4,7515177620927543599
0.1,0.5,6,0,6586762931113706473
0.1,0.3,4,7,6461305329011045241
0.1,0.5,5,1,6803511292144514359
0.1,0.5,0,6,5670854019304725059
0.1,0.3,2,4,7508236748875090057
0.1,0.5,4,8,3421163994758511829
0.1,0.5,5,2,6970512061022988774
0.1,0.3,6,5,3503404457502707852
0.1,0.3,5,5,842323208526393134
0.1,0.3,4,8,7311164517537670864
0.1,0.5,4,9,8782502128069034594
0.1,0.5,5,3,6106015975696261661
0.1,0.3,8,6,9139286984392964350
0.1,0.3,6,6,7574353289763549396
0.1,0.3,4,9,3638464799553307577
0.1,0.3,5,6,9160048701749361465
0.1,0.3,9,5,1782026062622832492
0.1,0.3,1,5,1756715450884629852
0.1,0.5,5,4,2910967317706230298
0.1,0.3,7,1,7148385924284752736
0.1,0.3,6,7,2246808268701124724
0.1,0.5,7,0,716107668601404667
0.1,0.5,5,5,4369203708234597131
0.1,0.5,1,4,3631338746359473704
0.1,0.3,1,6,4136698244072664022
0.1,0.3,6,8,1404143961039887261
0.1,0.3,7,2,6420315965230554242
0.1,0.3,3,3,8152680679731277632
0.1,0.5,0,7,3328704493556804687
0.1,0.5,7,1,5071286861525658724
0.1,0.3,2,5,3612670152618554305
0.1,0.5,5,6,5299683186152979555
0.1,0.5,1,5,9016109583395848366
0.1,0.3,6,9,9158551799505818561
0.1,0.3,8,7,26037112148744571
0.1,0.3,3,4,3254604609527112692
0.1,0.5,6,1,8776864783796741682
0.1,0.3,9,6,8231047950057648233
0.1,0.5,8,0,552167873942600754
0.1,0.5,7,2,5178129267909746814
0.1,0.3,1,7,2490915317329272141
0.1,0.5,5,7,8895952769448231797
0.1,0.5,1,6,5315159298665061256
0.1,0.5,9,0,6597340106964208763
0.1,0.3,3,5,1023260028503886557
0.1,0.5,8,1,250227298214590776
0.1,0.3,9,7,7091551489529974118
0.1,0.3,8,8,2985930662324655175
0.1,0.5,5,8,4897574412043242157
0.1,0.5,9,1,8740178370245667823
0.1,0.5,6,2,4910102300661395031
0.1,0.5,7,3,1985051799360145621
0.1,0.3,1,8,3174183916819050368
0.1,0.5,8,2,3723742835068987931
0.1,0.3,9,8,1019379346416938948
0.1,0.5,7,4,1908835877731308705
0.1,0.5,6,3,8867355363797781955
0.1,0.5,9,2,7866250460343399071
0.1,0.5,1,7,2247308890686988470
0.1,0.5,8,3,683274374579561648
0.1,0.3,2,6,8379351744704657700
0.1,0.3,8,9,2746579520482195702
0.1,0.5,1,8,2132001216236069228
0.1,0.5,6,4,2771594891342267237
0.1,0.5,8,4,8037313733036914470
0.1,0.5,0,8,6548220243923356501
0.1,0.5,9,3,9137501353171893966
0.1,0.3,1,9,3788934770547611329
0.1,0.3,0,7,2239213168215536889
0.1,0.3,2,7,7824951569462273774
0.3,0.3,0,0,2754366691109219699
0.1,0.5,8,5,850578597559411937
0.1,0.3,0,8,8164940490869157427
0.1,0.5,0,9,2015704730205806406
0.3,0.3,1,0,6420106252752914984
0.1,0.3,9,9,3345194822568354183
0.1,0.3,5,7,60189330301544106
0.3,0.3,0,1,8760162561277652298
0.1,0.5,8,6,4178763696666618956
0.1,0.3,0,9,8941861717143096271
0.1,0.3,2,8,5823505366396291701
0.1,0.3,5,8,1788496450495150937
0.1,0.5,8,7,1697539652314164604
0.3,0.3,2,0,5021749519407389648
0.1,0.5,6,5,2909889947189721660
0.1,0.3,7,3,6086545464042605887
0.1,0.5,8,8,6229259822337835510
0.1,0.5,5,9,1593035252880010705
0.1,0.3,5,9,2458217047992938414
0.1,0.3,2,9,4928834113091695698
0.3,0.3,2,1,1898909456569389202
0.3,0.3,3,0,8579803199067429489
0.1,0.5,8,9,4753122745768392981
0.3,0.3,4,0,8811058173854100577
0.3,0.3,5,0,7301619876594472702
0.3,0.3,6,0,5457979230515568777
0.1,0.5,9,4,8487529514801392257
0.3,0.3,2,2,8732331791810494537
0.1,0.5,6,6,2214869608773671669
0.1,0.3,7,4,5894581482854593423
0.3,0.3,7,0,85305338503594563
0.3,0.3,8,0,6430934481688147675
0.1,0.5,9,5,6416766896153088288
0.1,0.3,3,6,8836036621597172291
0.3,0.3,5,1,3249372214887275429
0.1,0.5,6,7,1441059936535730394
0.3,0.3,2,3,7851801239596253256
0.1,0.5,9,6,4305962091093731797
0.1,0.5,6,8,5343993428052708198
0.3,0.3,2,4,4307535786065559844
0.1,0.3,3,7,1639407289322635197
0.1,0.5,6,9,6938152227642654654
0.1,0.3,7,5,2005385887701643962
0.1,0.5,7,5,5581096508448026932
0.3,0.3,9,0,8668522375073749
0.1,0.5,9,7,278141348715970151
0.3,0.3,1,1,1871094928396601543
0.1,0.5,7,6,6026178023951286956
0.1,0.3,7,6,3847503034332588278
0.1,0.5,9,8,4950515765187429020
0.1,0.5,7,7,6397969166403863472
0.3,0.3,9,1,102397641636303266
0.1,0.5,7,8,1886380834869467615
0.1,0.3,7,7,1082115887418598892
0.1,0.5,9,9,6152026804815207293
0.1,0.3,7,8,1975681939944228208
0.1,0.5,7,9,3023702317387680899
0.1,0.3,3,8,1107664884735915198
0.3,0.5,0,0,7854481042272722607
0.1,0.3,7,9,5539240701800456315
0.3,0.5,1,0,4647077874305899744
0.3,0.3,3,1,670441902981579588
0.1,0.5,1,9,2179850478358512734
0.3,0.5,2,0,682347848188876551
0.1,0.3,3,9,1612169100314719158
0.3,0.3,3,2,1840116040915742075
0.3,0.5,3,0,7766196964333476338
0.3,0.5,2,1,8428791243995474766
0.3,0.5,4,0,7719122070506621493
0.3,0.5,4,1,1253888081987986184
0.3,0.5,0,1,6887582764047350247
0.3,0.3,2,5,821897682010253161
0.3,0.3,1,2,6489710542822659818
0.3,0.3,1,3,8565174232566311035
0.3,0.3,1,4,2453618356166669447
0.3,0.3,0,2,8414569535683615319
0.3,0.3,8,1,2428796619217432323
0.3,0.5,2,2,3522696286560881879
0.3,0.3,8,2,4889269091499879064
0.3,0.3,8,3,2928130046518138611
0.3,0.5,4,2,1101753145407999556
0.3,0.5,0,2,4285179118864450193
0.3,0.3,2,6,4601962855410255850
0.3,0.5,4,3,4443951764318740850
0.3,0.3,2,7,8988775943803171550
0.3,0.3,5,2,4475093938237590013
0.3,0.5,4,4,3654655464728125420
0.3,0.3,6,1,2246181318154485260
0.3,0.3,1,5,565944556030176761
0.3,0.5,4,5,1584902238052649370
0.3,0.3,1,6,4220622357566271759
0.3,0.3,6,2,8323717130947638063
0.3,0.5,3,1,6401155767872806288
0.3,0.3,6,3,3472635196594016499
0.3,0.5,1,1,8060099467991416183
0.3,0.5,3,2,3779805171337548015
0.3,0.5,0,3,544256753464815103
0.3,0.3,9,2,3710388987612753361
0.3,0.5,1,2,6599669952773881858
0.3,0.3,4,1,8828454507515743156
0.3,0.3,0,3,5074879042244429838
0.3,0.5,3,3,8697736289707505455
0.3,0.3,0,4,5686250218812292124
0.3,0.3,0,5,3863594980894260233
0.3,0.3,1,7,6450892728508985801
0.3,0.3,0,6,129006340069426120
0.3,0.5,3,4,6401247357307906012
0.3,0.3,1,8,8157961029496437034
0.3,0.5,0,4,8346261329507381767
0.3,0.3,8,4,6417072166672036194
0.3,0.5,4,6,1853767284169563020
0.3,0.3,7,1,7158363387738930753
0.3,0.5,0,5,1516518222962011018
0.3,0.3,8,5,961587405233319146
0.3,0.5,0,6,4884593402759791083
0.3,0.3,0,7,4878842100798409169
0.3,0.3,8,6,8654166128154264389
0.3,0.5,2,3,8675807762487743553
0.3,0.3,0,8,1444902301865233935
0.3,0.3,8,7,5200895880031131313
0.3,0.3,6,4,1809908319585707309
0.3,0.3,3,3,164907762723078575
0.3,0.3,3,4,6649236947359494473
0.3,0.3,1,9,9011564173316895175
0.3,0.5,3,5,113956334826156391
0.3,0.5,3,6,4059475686914943674
0.3,0.5,2,4,5926902824697662270
0.3,0.5,0,7,9103284391690582210
0.3,0.5,4,7,1923410310746529333
0.3,0.3,4,2,8919482367727042611
0.3,0.3,6,5,2814152450260856470
0.3,0.3,4,3,4712312218656035679
0.3,0.3,3,5,8357268478750955260
0.3,0.3,4,4,1386920236965429664
0.3,0.3,3,6,3335181294303984717
0.3,0.3,4,5,1004892995225349250
0.3,0.5,4,8,7135923110002204031
0.3,0.5,2,5,8510229952937077330
0.3,0.5,1,3,4703976289351474813
0.3,0.3,8,8,6470844013141917192
0.3,0.3,2,8,1383631564586618642
0.3,0.5,5,0,7190912124654731809
0.3,0.5,1,4,8517420111937738211
0.3,0.5,3,7,2365107763451606200
0.3,0.5,4,9,4093293976365165655
0.3,0.5,5,1,1297793471332375441
0.3,0.5,1,5,5733660661687547572
0.3,0.3,7,2,4288531348695210133
0.3,0.5,2,6,6501919715114841945
0.3,0.3,7,3,263357291308989126
0.3,0.5,2,7,838659106928436305
0.3,0.5,2,8,6796255788119439797
0.3,0.5,0,8,3505165636442663124
0.3,0.5,1,6,7286778589896459006
0.3,0.3,0,9,1189900545279268806
0.3,0.5,6,0,7042579581996089449
0.3,0.3,4,6,7910452343676954085
0.3,0.5,0,9,8041723735038126775
0.3,0.3,4,7,773716665417160846
0.3,0.3,8,9,2705318038113943131
0.3,0.5,7,0,4321682121782906016
0.3,0.5,6,1,8348514640562638452
0.3,0.5,6,2,1388610516781386716
0.3,0.3,9,3,8976360017429426732
0.3,0.3,4,8,6956634949789259867
0.3,0.3,7,4,4446829809659827486
0.3,0.5,6,3,5989726241442249808
0.3,0.5,3,8,4322524261907247968
0.3,0.3,9,4,2514391446446257908
0.3,0.3,4,9,2253348130214295383
0.3,0.3,7,5,7993253680022863601
0.3,0.5,3,9,5207510717864290891
0.3,0.3,9,5,1487232157989861880
0.3,0.3,7,6,986294466742514486
0.3,0.5,8,0,9043140474558766147
0.3,0.5,9,0,7235192649281019301
0.3,0.3,9,6,4705777661166711038
0.3,0.5,8,1,4948121355100552634
0.3,0.5,1,7,941415553027611773
0.3,0.3,9,7,4717077165680497128
0.3,0.5,1,8,8113990845646345025
0.3,0.3,9,8,8205855934448835640
0.3,0.3,6,6,3024887674970111781
0.3,0.5,1,9,9050735115821080118
0.3,0.3,9,9,3104840762693848896
0.3,0.3,6,7,8238794449852769577
0.5,0.3,0,0,6515684486018808245
0.3,0.3,6,8,5210337060063262622
0.5,0.3,0,1,5736473024220194005
0.3,0.5,7,1,4666969440888681421
0.3,0.5,8,2,3276376488300251766
0.3,0.3,6,9,3017608559039864310
0.5,0.3,0,2,58030399955950746
0.5,0.3,0,3,1499225777989692777
0.5,0.3,0,4,177132091385630716
0.5,0.3,0,5,46280532621992889
0.5,0.3,1,0,8902638182292350576
0.5,0.3,0,6,3571665492960662974
0.3,0.3,3,7,8161480511137875047
0.5,0.3,1,1,2177245184988398967
0.5,0.3,0,7,4303702029807353093
0.5,0.3,1,2,7211667512200286172
0.5,0.3,0,8,8774234370229292345
0.3,0.5,5,2,3826791070984343391
0.5,0.3,1,3,6503628206515095166
0.5,0.3,0,9,5443334798059619592
0.3,0.5,5,3,5011003374466411551
0.5,0.3,1,4,2459260819333965398
0.5,0.3,2,0,9219789308365226877
0.5,0.3,3,0,734993970377623044
0.5,0.3,2,1,456942698597372980
0.5,0.3,1,5,6682714672723294235
0.5,0.3,3,1,85684177767092310
0.5,0.3,4,0,7293771230902356300
0.5,0.3,2,2,8352561607503259665
0.5,0.3,1,6,1647710522862461341
0.3,0.5,5,4,8065355904775713197
0.5,0.3,3,2,1382589620455002708
0.5,0.3,2,3,5579924718236628216
0.5,0.3,4,1,6412908575703263934
0.5,0.3,1,7,394042198781918106
0.3,0.5,5,5,4796234924457184252
0.5,0.3,2,4,5779774433560468835
0.5,0.3,3,3,1674309558226269186
0.5,0.3,4,2,4337346487717336853
0.5,0.3,1,8,3334647111733716564
0.5,0.3,2,5,7711835444783809591
0.3,0.3,7,7,8814579630335918864
0.5,0.3,3,4,3501161901459670480
0.5,0.3,1,9,4433559259023364855
0.5,0.3,4,3,6437887338529700215
0.3,0.5,9,1,3700393178317215556
0.5,0.3,3,5,6356466076755696692
0.5,0.3,2,6,6776932893518374704
0.5,0.3,5,0,7900143319791012873
0.3,0.3,7,8,7962549084321776448
0.5,0.3,4,4,6552454787845204657
0.3,0.5,6,4,4653827235670573999
0.3,0.5,2,9,3181202502287114131
0.5,0.3,2,7,7908450302327751591
0.5,0.3,4,5,6162170252872830412
0.5,0.3,3,6,123794729957313762
0.5,0.3,5,1,2070430527909869255
0.3,0.3,7,9,8453191646444141830
0.5,0.3,2,8,464582458554317884
0.5,0.3,4,6,4305918122367941707
0.3,0.5,9,2,6533374520679461663
0.5,0.3,3,7,5577613099394207313
0.5,0.3,5,2,7125163186007300011
0.5,0.3,6,0,1175675047023851806
0.5,0.3,2,9,1958873055068623421
0.5,0.3,3,8,3675610242357034796
0.3,0.3,2,9,5582951525678988652
0.5,0.3,4,7,1881345267639398613
0.5,0.3,5,3,8864061525363182057
0.3,0.5,9,3,8683132092568302340
0.5,0.3,6,1,3943320829021945587
0.5,0.3,7,0,7674367578528347450
0.5,0.3,4,8,1138275861872559155
0.5,0.3,3,9,3899311316671034213
0.5,0.3,5,4,7866448931951163568
0.3,0.5,9,4,3177028472741052126
0.5,0.3,6,2,7744306826215525901
0.3,0.5,7,2,4743619290987772337
0.5,0.3,7,1,7722697860632393594
0.5,0.3,8,0,393049357109086471
0.5,0.3,4,9,7714679330757298738
0.5,0.3,5,5,8358981658449595722
0.5,0.3,6,3,4859877560209839306
0.5,0.3,7,2,8965038953135074630
0.3,0.5,7,3,2888773484267728205
0.5,0.3,8,1,8699902318638596597
0.5,0.3,5,6,6533906506510927113
0.5,0.3,9,0,9187296019378811683
0.5,0.3,6,4,499245559997840885
0.5,0.3,7,3,1766487105322153157
0.3,0.5,7,4,6795289980507168469
0.5,0.3,5,7,5725183763033135890
0.5,0.3,8,2,6953452899581091988
0.5,0.3,6,5,3779578563015869528
0.5,0.3,9,1,1349135611817123066
0.5,0.3,7,4,4714222600587052667
0.3,0.5,6,5,9153814771511669845
0.3,0.5,7,5,2995326275574175737
0.5,0.3,8,3,3348843135161548910
0.5,0.3,5,8,4795630085314760017
0.5,0.3,6,6,3494016076256124646
0.5,0.3,9,2,1720378229086183448
0.5,0.3,7,5,7174205145920509803
0.5,0.3,8,4,4830654181307891678
0.5,0.3,6,7,7508640327804011646
0.5,0.3,5,9,3222433362264193779
0.5,0.3,9,3,7016160550765231281
0.5,0.3,7,6,2991317060304558422
0.5,0.3,6,8,1391145242979092621
0.5,0.3,8,5,3870530213482713458
0.5,0.5,0,0,2198493582577426307
0.5,0.3,9,4,4220742937609596073
0.5,0.3,7,7,4327919543771598830
0.5,0.5,0,1,8632471430594625543
0.5,0.3,6,9,1714500757991367951
0.5,0.3,9,5,875069255708762695
0.3,0.3,5,3,5468338041389853199
0.5,0.3,8,6,6292387117243272772
0.5,0.3,7,8,2502747388870774156
0.5,0.5,0,2,3239746113791965174
0.5,0.5,1,0,3827675021970988918
0.3,0.5,5,6,2709442104189111136
0.5,0.3,9,6,873783913414603673
0.3,0.5,9,5,7297128264440293370
0.5,0.3,7,9,327115753579968142
0.5,0.5,0,3,8857492362882085348
0.5,0.3,8,7,1473833485124485426
0.3,0.3,5,4,7115900348463972900
0.5,0.5,1,1,1256812784645164457
0.5,0.5,0,4,5245428294166532485
0.3,0.5,5,7,7134909779547911457
0.5,0.5,2,0,6439853136380115600
0.5,0.3,9,7,2697199867317088423
0.5,0.3,8,8,3860876018169854596
0.5,0.5,1,2,5033782441883856909
0.5,0.5,0,5,6184303373414000673
0.5,0.5,2,1,1568751948675197832
0.5,0.5,1,3,7928255533399967964
0.5,0.3,8,9,2497797614182448580
0.5,0.3,9,8,7466959863426327229
0.5,0.5,0,6,5419908470615467430
0.5,0.5,2,2,1987926018638577091
0.5,0.5,1,4,2230745720668194020
0.5,0.3,9,9,4816008089151320297
0.5,0.5,3,0,4184834148292590171
0.5,0.5,0,7,6632762774115720881
0.5,0.5,2,3,3281147708060110326
0.5,0.5,1,5,7168215253829122488
0.5,0.5,2,4,3231009806350807462
0.5,0.5,3,1,2891211785617130699
0.5,0.5,4,0,426698789115007974
0.5,0.5,0,8,4038027420592427150
0.5,0.5,1,6,159682418736294763
0.5,0.5,2,5,6744674312797636159
0.5,0.5,3,2,3344366684113660008
0.5,0.5,0,9,3352157014569631435
0.5,0.5,4,1,7733454453006910258
0.5,0.5,1,7,8095000965678531467
0.5,0.5,2,6,6363328838238624436
0.5,0.5,5,0,8024583806820957367
0.5,0.5,3,3,4544390074217228790
0.5,0.5,4,2,4832739106425800930
0.5,0.5,1,8,486936770856617480
0.5,0.5,2,7,5741575413516679036
0.5,0.5,5,1,2104577766036164266
0.5,0.5,3,4,539364800003591468
0.5,0.5,4,3,8465006162729243729
0.5,0.5,1,9,84670314483118434
0.5,0.5,2,8,1289799387185313871
0.5,0.5,5,2,315257540529251790
0.5,0.5,4,4,7010755503586232007
0.5,0.5,3,5,899043508652155608
0.5,0.5,6,0,4941930146521919487
0.5,0.5,2,9,4649418427509425608
0.5,0.5,7,0,5400072047533548977
0.5,0.5,5,3,6991866248959121477
0.5,0.5,4,5,1584212059612672691
0.5,0.5,3,6,6663266956868044733
0.5,0.5,6,1,684360083731949994
0.5,0.5,8,0,8589323053840544401
0.5,0.5,7,1,1314179063056127456
0.5,0.5,5,4,3983589043664466830
0.5,0.5,4,6,2818662950527931638
0.5,0.5,3,7,6077881512223534266
0.5,0.5,6,2,8105252977461738084
0.5,0.5,8,1,7611053508915759094
0.5,0.5,7,2,5487052237405149014
0.5,0.5,5,5,3781685732611300320
0.5,0.5,4,7,2611022069831209713
0.5,0.5,3,8,5716967472220558329
0.5,0.5,6,3,3333108393662852765
0.5,0.5,9,0,2241134875337683984
0.5,0.5,8,2,5093363245860193816
0.5,0.5,7,3,4019988215049029132
0.5,0.5,5,6,6585508555603468627
0.5,0.5,6,4,4243757674383321506
0.5,0.5,4,8,5094887965996677268
0.5,0.5,3,9,3759727621967317133
0.5,0.5,8,3,729980040591518885
0.5,0.5,9,1,4834276329213186859
0.5,0.5,7,4,2208353517932649132
0.5,0.5,5,7,7339923514142972581
0.3,0.5,8,3,8808008127416892362
0.5,0.5,8,4,6680364147724947684
0.5,0.5,6,5,5332248174886101957
0.5,0.5,4,9,2621218448035056971
0.5,0.5,7,5,2398931939072498753
0.5,0.5,9,2,3973508666750800885
0.5,0.5,5,8,5960252965076565467
0.5,0.5,8,5,3589705017976387005
0.5,0.5,6,6,8472318867340543875
0.5,0.5,7,6,5838489778483214664
0.5,0.5,9,3,1396250559614483977
0.5,0.5,5,9,6101514054981348100
0.5,0.5,8,6,5136242777394351932
0.5,0.5,6,7,6442671907859768811
0.5,0.5,7,7,3428176638170864443
0.5,0.5,9,4,2300129789326991624
0.5,0.5,8,7,3185271914472694684
0.5,0.5,6,8,5591923588586500658
0.5,0.5,7,8,140011060153094351
0.5,0.5,9,5,5114033810677652062
0.5,0.5,8,8,8238117165855512084
0.5,0.5,6,9,8298775490653565403
0.5,0.5,7,9,7903369350815146846
0.5,0.5,9,6,5006456044207809605
0.5,0.5,8,9,6817992362468546601
0.5,0.5,9,7,405472422981150677
0.5,0.5,9,8,2854166540628241397
0.3,0.5,7,6,4351367680686596721
0.5,0.5,9,9,4579633779841808434
0.3,0.5,9,6,6161811675862963487
0.3,0.5,7,7,920340672513304914
0.3,0.3,3,8,6349916295053689456
0.3,0.5,6,6,5381775526929988920
0.3,0.3,5,5,8385914176874729692
0.3,0.5,6,7,721977949532380057
0.3,0.5,6,8,2524303250007617485
0.3,0.5,6,9,2946065166160445633
0.3,0.5,8,4,7384023877669882346
0.3,0.5,5,8,6704284487299861319
0.3,0.3,5,6,7665854194114154616
0.3,0.5,7,8,4214348928677272639
0.3,0.5,7,9,2436242368939862565
0.3,0.3,3,9,7510669937627119038
0.3,0.5,8,5,3612285096505334326
0.3,0.5,8,6,397638114846584553
0.3,0.5,8,7,7164106419847735091
0.3,0.3,5,7,1911080486642381246
0.3,0.3,5,8,563660707826260423
0.3,0.5,8,8,1358179223571485608
0.3,0.5,5,9,1958651851849704004
0.3,0.3,5,9,6825778632369938808
0.3,0.5,8,9,6106377864312220185
0.3,0.5,9,7,1939652984800870667
0.3,0.5,9,8,6895399303837297574
0.3,0.5,9,9,8581686532398469753
0.1,0.1,2,0,3600360792363261432
0.1,0.1,2,4,5027487671404742313
0.1,0.1,3,6,2540961135096261882
0.1,0.1,4,4,72023542299852557
0.1,0.1,5,6,9145145516785518303
0.1,0.1,6,0,8421281556990651221
0.1,0.1,0,0,2850282772962098583
0.1,0.1,0,4,6282475832723572263
0.1,0.1,7,2,8631618993717264003
0.1,0.1,1,6,354803952379756601
0.1,0.1,2,8,885035920240471530
0.1,0.1,3,2,7335558340533292940
0.1,0.1,4,8,4138427883597872412
0.1,0.1,5,2,6323595114413860516
0.1,0.1,6,8,8715685742250580863
0.1,0.1,7,6,1241971958894998456
0.1,0.1,0,8,390812057216067466
0.1,0.1,4,0,5927610878929271209
0.1,0.1,6,4,2437966907489860825
0.1,0.1,1,2,7841445555241741975
0.1,0.1,7,7,4993972386647951102
0.1,0.1,6,1,2737026647304711113
0.1,0.1,1,7,5924821712897476930
0.1,0.1,6,9,618108598379372964
0.1,0.1,3,3,3177543749441523969
0.1,0.1,4,5,7506468156797851938
0.1,0.1,0,9,3866161810882136574
0.1,0.1,7,3,2653574265228207682
0.1,0.1,2,5,2825929439938516845
0.1,0.1,1,3,998649317363778487
0.1,0.1,0,5,7101800440833196253
0.1,0.1,3,4,6194044403990385600
0.1,0.1,1,8,6326653908590969694
0.1,0.1,7,8,2954892047682277937
0.1,0.1,7,0,4725234460161849045
0.1,0.1,5,3,5895965552124917120
0.1,0.1,4,1,9210473344094599972
0.1,0.1,0,1,3784896421412978210
0.1,0.1,4,9,4138031262882414946
0.1,0.1,0,6,7663524269261896503
0.1,0.1,3,5,3571715033478667731
0.1,0.1,1,9,6097815861687032047
0.1,0.1,7,4,4135806535512798354
0.1,0.1,1,4,6291726372983052091
0.1,0.1,6,5,8114332230284308501
0.1,0.1,3,7,5763077008172952523
0.1,0.1,7,9,4501826342550874182
0.1,0.1,4,6,6445809138890508326
0.1,0.1,8,0,4100276311588826106
0.1,0.1,8,4,1525414681603872928
0.1,0.1,5,4,5842867758567859993
0.1,0.1,2,9,5853853667355514503
0.1,0.1,6,6,110232999070496360
0.1,0.1,0,2,1758635935075580690
0.1,0.1,0,7,1705424142530600423
0.1,0.1,2,6,6126640780119891422
0.1,0.1,8,8,8853450639019115364
0.1,0.1,6,2,7666447390400539671
0.1,0.1,8,1,6136665782732758779
0.1,0.1,1,0,986552864267251063
0.1,0.1,7,1,5828470940374449585
0.1,0.1,3,8,7273583642349619031
0.1,0.1,3,0,3792564976060465133
0.1,0.1,4,7,2564137613119902942
0.1,0.1,2,1,4117724111627333800
0.1,0.1,6,7,7595333272610907539
0.1,0.1,6,3,5791045608347953132
0.1,0.1,0,3,5132014036393367547
0.1,0.1,5,0,2368391813658528615
0.1,0.1,9,2,3995639643145152772
0.1,0.1,8,9,5113973817803952761
0.1,0.1,9,6,4822345668578546577
0.1,0.1,3,9,3651257151434774076
0.1,0.1,3,1,3846637164611977690
0.1,0.1,1,1,3745085839694722882
0.3,0.1,0,0,5260687838595123211
0.1,0.1,7,5,6671210003218298397
0.1,0.1,1,5,5896828129051767
0.3,0.1,0,4,2331194003538692922
0.1,0.1,5,1,732930045511817921
0.3,0.1,0,8,424351411692765175
0.1,0.1,4,2,3221868665319519767
0.1,0.1,5,5,4009841446043154191
0.1,0.1,2,2,1122164041922313959
0.1,0.1,8,5,5321350586999777486
0.1,0.1,5,7,8847531053604294221
0.1,0.1,9,0,3145522114315878710
0.3,0.1,0,1,8536356628025439914
0.3,0.1,1,2,1620693499102456070
0.3,0.1,0,9,7677131487866494021
0.1,0.1,8,2,1096313162372695681
0.3,0.1,1,6,927252253188844310
0.3,0.1,0,5,5024482078301199399
0.3,0.1,2,0,1737266878642352782
0.3,0.1,2,4,1335893842106719964
0.3,0.1,2,8,6686915182758902968
0.3,0.1,3,2,1699185443784340317
0.3,0.1,0,2,8139114420083352606
0.3,0.1,1,0,1113796079913488625
0.1,0.1,2,3,5193538974883161976
0.1,0.1,9,1,7778160220371481756
0.3,0.1,1,3,8441429945023164660
0.1,0.1,4,3,4732962347830352242
0.3,0.1,2,1,2188996527476542998
0.3,0.1,2,9,6815030106127340679
0.3,0.1,0,6,4197906973916465797
0.3,0.1,1,7,4401407649179718254
0.3,0.1,3,3,2734366762376350077
0.3,0.1,1,1,2573821146388916550
0.3,0.1,0,3,7207659141440929129
0.1,0.1,8,6,1451092661300221863
0.3,0.1,3,6,2453165202038336846
0.3,0.1,1,4,2025207394341975423
0.3,0.1,4,0,6242577982375907568
0.1,0.1,5,8,5046743013041500975
0.3,0.1,4,4,3536771755335557737
0.3,0.1,3,0,3931993673467005135
0.3,0.1,1,8,3660205440676033413
0.3,0.1,4,8,8915936291930000487
0.3,0.1,3,4,4463367428639863997
0.3,0.1,5,2,5553708022907136773
0.3,0.1,0,7,3573157279958039543
0.3,0.1,5,6,5116162690479917182
0.3,0.1,3,7,84852777986837497
0.1,0.1,9,7,7974506576142615519
0.3,0.1,6,0,1768383286196514643
0.3,0.1,1,5,8561307104312313367
0.3,0.1,4,1,5923813658378487172
0.3,0.1,3,1,8353487252269392738
0.3,0.1,5,3,5980292553590473159
0.3,0.1,4,9,7089211605595332064
0.1,0.1,2,7,3713942593706618113
0.3,0.1,1,9,2618947727624507082
0.3,0.1,4,5,1032293109338880608
0.1,0.1,9,3,5770263335163049217
0.1,0.1,9,8,3430536523157318846
0.3,0.1,6,4,8786804980378367308
0.3,0.1,6,1,3483703447115044771
0.3,0.1,5,7,2588484416727717794
0.3,0.1,6,8,5870853961814693042
0.3,0.1,5,4,6830692157697062230
0.3,0.1,7,2,969800703623849279
0.3,0.1,7,6,2921003418331930964
0.3,0.1,5,0,4517425710069527231
0.3,0.1,8,0,8440910380541696956
0.3,0.1,4,6,1604977741497640374
0.3,0.1,6,2,3712766186562837852
0.3,0.1,5,8,2837207216437707694
0.3,0.1,5,5,4304677540795140172
0.3,0.1,7,3,4160733567522046290
0.3,0.1,6,9,723172889508047243
0.1,0.1,8,7,3515185900680556565
0.3,0.1,7,7,7079574577542285207
0.3,0.1,5,1,6865848699772408617
0.3,0.1,8,1,7192530124939905448
0.1,0.1,9,4,8935937957265014890
0.1,0.1,8,3,3329293296827296886
0.3,0.1,4,7,8146127774563096856
0.3,0.1,6,3,963318548916993516
0.3,0.1,7,4,3591231712230409898
0.3,0.1,8,4,3931923987651720325
0.3,0.1,7,0,1920311514509730475
0.3,0.1,7,8,6323389747154040319
0.3,0.1,5,9,487889448453332935
0.3,0.1,8,2,8500505251541236392
0.3,0.1,8,8,4899684316305018672
0.1,0.1,9,5,6505648778185054151
0.3,0.1,8,5,7687428601683959273
0.3,0.1,7,5,5534864691473660178
0.3,0.1,9,2,2394230230512467427
0.3,0.1,9,6,6191084541140981779
0.5,0.1,0,0,1003021467544227540
0.3,0.1,7,1,8290235010303171507
0.3,0.1,7,9,1565825997793455041
0.3,0.1,8,3,6889259277737491107
0.3,0.1,8,9,829534706315521533
0.5,0.1,0,4,1615740192443909398
0.5,0.1,0,8,6783542359416943413
0.1,0.1,9,9,5172265575151806108
0.5,0.1,1,2,7554333215647897688
0.3,0.1,8,6,6037369525721507209
0.3,0.1,9,3,5676805958938731502
0.5,0.1,1,6,24790809055275578
0.5,0.1,0,1,7562463413568101086
0.1,0.1,5,9,1804936085215647650
0.5,0.1,2,0,3223799772672820996
0.5,0.1,0,5,1807727335373111787
0.5,0.1,2,4,967210776131969916
0.3,0.1,9,7,7256276292956222886
0.5,0.1,1,3,1424310088978242275
0.5,0.1,0,9,6827010668573485486
0.3,0.1,9,0,675088779089229094
0.5,0.1,1,7,13674778337573361
0.3,0.1,8,7,1217032725732106325
0.5,0.1,0,2,6393474310974975058
0.3,0.1,9,4,4379338668054836648
0.5,0.1,0,6,293235750457811614
0.5,0.1,2,1,172608380376623387
0.5,0.1,2,5,7335720764372821645
0.5,0.1,1,4,9128950379685466342
0.5,0.1,2,8,5725307601625071365
0.3,0.1,9,8,4146440254003905111
0.3,0.1,9,1,6911787356744702003
0.5,0.1,1,0,5100622038537748737
0.5,0.1,0,7,8434172485152907673
0.5,0.1,2,2,2941385794770164439
0.5,0.1,1,8,5558672040230933240
0.5,0.1,3,2,46177724089451699
0.5,0.1,1,5,2216770613361001566
0.5,0.1,3,6,8382585256741380198
0.5,0.1,0,3,7543832966743193307
0.3,0.1,9,5,3048469868458576071
0.5,0.1,2,6,4657655993949215121
0.5,0.1,2,9,1667458099793669399
0.5,0.1,2,3,4183544604792050355
0.5,0.1,4,0,6371061985666820412
0.5,0.1,1,1,7334972818619706228
0.5,0.1,1,9,182867110421681900
0.5,0.1,3,3,6416924390184359487
0.5,0.1,3,7,8737071248430511744
0.5,0.1,4,4,4987023420261076804
0.3,0.1,9,9,5901534039426223051
0.5,0.1,2,7,8508100783349642327
0.5,0.1,4,8,5137272466372385146
0.5,0.1,3,0,8392461079174703066
0.5,0.1,5,2,4683783127463696498
0.5,0.1,4,1,5722069947717523835
0.5,0.1,3,4,648865303083888779
0.5,0.1,5,6,3650736059183649176
0.5,0.1,3,8,4269662090944771375
0.5,0.1,4,5,768448649242257483
0.5,0.1,6,0,809089370726479948
0.5,0.1,6,4,7532222890551106635
0.5,0.1,3,1,3599088193525270952
0.5,0.1,5,3,1247907675718538573
0.5,0.1,4,2,2336273706336364021
0.5,0.1,4,9,4794627039280909265
0.5,0.1,6,8,4554372656985065608
0.5,0.1,3,5,1231494651257677196
0.5,0.1,4,6,5091895987215595735
0.5,0.1,3,9,7638461638902591602
0.5,0.1,5,7,1613115845523070073
0.5,0.1,7,2,7393261266918241725
0.5,0.1,5,4,2159119504126792244
0.5,0.1,7,6,8237507671967086947
0.5,0.1,6,5,4183401053420459278
0.5,0.1,4,3,7767158864083951663
0.5,0.1,6,1,4535486494511842744
0.5,0.1,6,9,7745230871140585172
0.5,0.1,5,0,1818711904215808485
0.5,0.1,4,7,8368340294667190207
0.5,0.1,8,0,925612342228900096
0.5,0.1,8,4,7529490841047627258
0.5,0.1,7,7,5950206210365544945
0.5,0.1,5,8,1998278422271311723
0.5,0.1,5,5,7392819342183839632
0.5,0.1,8,8,2626047899127393823
0.5,0.1,7,3,8545152025624312647
0.5,0.1,6,6,6465082612074470980
0.5,0.1,7,0,7023054435490521119
0.5,0.1,6,2,3988363899412813221
0.5,0.1,9,2,3176688636438792708
0.5,0.1,8,1,2269901672206775534
0.5,0.1,8,5,4096832387240185399
0.5,0.1,9,6,1890892270860212345
0.5,0.1,8,9,7068160403380272102
0.5,0.1,7,8,4924228978883121231
0.5,0.1,5,1,3106523660780760415
0.5,0.1,5,9,8489539589711297676
0.5,0.1,7,4,4298052688395896295
0.5,0.1,6,7,5850010943319220542
0.5,0.1,7,1,3773524961925775768
0.5,0.1,9,3,1395934540148936661
0.5,0.1,6,3,6316225596736033279
0.5,0.1,8,2,2177522438207246566
0.5,0.1,9,7,4553781496612220935
0.5,0.1,9,0,7041893552564727657
0.5,0.1,7,9,7190849120300315211
0.5,0.1,8,6,1290260237836845281
0.5,0.1,7,5,3133836350730566325
0.5,0.1,9,4,3958402513706779333
0.5,0.1,9,1,8008222074963388632
0.5,0.1,8,3,3081492827712825759
0.5,0.1,8,7,248547225855061773
0.5,0.1,9,8,343920480629827366
0.5,0.1,9,5,8923794478334334153
0.5,0.1,9,9,6031147997157093044
0.3,0.1,2,2,6874329638677667756
0.3,0.1,3,8,2142196388253339719
0.3,0.1,2,3,1544889952958386806
0.3,0.1,3,9,8152915897903316351
0.3,0.1,3,5,5787522117966746961
0.3,0.1,2,5,3453310340554694374
0.3,0.1,2,6,9195685752571948208
0.3,0.1,2,7,8346099551013380824
0.3,0.1,4,2,8275875772667832889
0.3,0.1,4,3,4722521575800371411
0.3,0.1,6,5,2540905384548697141
0.3,0.1,6,6,4269387843391178779
0.3,0.1,6,7,581791489661127392
