d,mu,weight_set,opinion_set,sim_seed
0.1,0.3,0,0,3668070995401245307
0.1,0.3,1,0,1998218227413631910
0.1,0.3,3,0,3372374390298567704
0.1,0.3,4,5,4880722845370284411
0.1,0.3,6,5,4926833715614026946
0.1,0.3,7,0,703630283506997155
0.1,0.3,8,5,1473142318051666524
0.1,0.3,9,5,4601704246100460011
0.1,0.5,4,0,7260872234158522503
0.1,0.5,5,0,6769353860877474042
0.1,0.3,1,5,2769404605304533356
0.1,0.3,2,5,2435107888179161744
0.1,0.3,5,0,4862104393493453248
0.1,0.3,6,0,783146986936712927
0.1,0.3,5,5,7024054845365648004
0.1,0.3,7,5,5607871802870674676
0.1,0.5,0,0,8624511029888438925
0.1,0.5,1,0,3062647577423784807
0.1,0.5,1,5,3145965262286051066
0.1,0.5,2,0,643121824931472836
0.1,0.5,2,5,3233646678658189035
0.1,0.5,3,5,2236684338476480356
0.1,0.5,3,0,8752062385628440463
0.1,0.5,4,5,136710055073186966
0.1,0.5,6,0,7717630095661067563
0.1,0.5,7,0,4833835714367940861
0.1,0.3,0,5,6880752571858947094
0.1,0.3,2,0,4770435849725212486
0.1,0.3,3,5,5565368201336230308
0.1,0.3,4,0,7087025105566410275
0.1,0.3,1,1,381875941454116517
0.1,0.3,8,0,4987741755527585840
0.1,0.3,9,0,7368039482383628764
0.1,0.5,0,5,7768246408124139455
0.1,0.5,5,5,7129113911034473471
0.1,0.5,6,5,7653240160806212447
0.1,0.5,5,1,5843890413301443693
0.1,0.3,0,1,671977052492037246
0.1,0.3,4,6,1050118734985134099
0.1,0.3,6,1,6774886179744437872
0.1,0.3,7,1,6644145175175885851
0.1,0.5,4,1,3397236268182272527
0.1,0.5,6,1,6406154832178619974
0.1,0.3,8,6,6875607835922509782
0.1,0.5,1,1,2711926926699780482
0.1,0.5,1,6,6078493701820201838
0.1,0.3,9,6,4635763385097516650
0.1,0.5,0,1,423096285199226940
0.1,0.5,2,6,6660206990256077955
0.1,0.5,3,6,5587214075210274902
0.1,0.3,2,1,6945675724141714109
0.1,0.3,5,1,4149576694276876100
0.1,0.3,2,6,7178692445736090691
0.1,0.3,7,2,890329840851024760
0.1,0.5,5,6,2181828951505719946
0.1,0.3,0,6,3431407574681723583
0.1,0.5,7,1,4157084751765262747
0.1,0.3,3,1,9050245307116164168
0.1,0.5,6,6,8617504106652758746
0.1,0.3,3,6,5946434934810089140
0.1,0.3,6,6,8619130975830483518
0.1,0.3,4,1,6912418323957779375
0.1,0.3,5,6,8063599185974208303
0.1,0.3,0,2,4930623417006413906
0.1,0.3,1,2,2393910676376627131
0.1,0.3,8,1,5160250429546276106
0.1,0.3,6,2,7425341118660636406
0.1,0.5,2,1,2290095283865441940
0.1,0.5,6,2,8334710551074286366
0.1,0.3,4,7,5565686778403363145
0.1,0.3,9,1,5478642332191412891
0.1,0.5,0,6,3026963591868826149
0.1,0.5,3,1,4167588189748337922
0.1,0.5,1,7,2393923439070573661
0.1,0.5,0,2,9155904909263017439
0.1,0.5,3,7,363895697257390213
0.1,0.3,7,6,2371995097508253109
0.1,0.3,2,2,1914994726223360678
0.1,0.3,8,7,1163109120964260243
0.1,0.3,9,7,8932688775361911129
0.1,0.5,2,7,1133441581847742861
0.1,0.5,4,2,6240075318226363251
0.1,0.5,5,7,5063174015600439155
0.1,0.5,7,2,3887550767232712001
0.1,0.3,2,7,7629579635920373117
0.1,0.5,6,7,6817720046423478265
0.1,0.3,5,7,6599612031085761513
0.1,0.3,0,3,2129078465878991331
0.1,0.5,1,2,2817241494197549319
0.1,0.5,4,6,2037808394328744364
0.1,0.3,6,3,915174200835744400
0.1,0.5,2,2,8135444458646958407
0.1,0.5,5,2,5766522745621672265
0.1,0.3,7,3,3057256284087459546
0.1,0.3,0,7,3192435248104129973
0.1,0.3,6,7,1552125098897460620
0.1,0.3,4,2,5705901626438523067
0.1,0.3,1,3,7611555860087450047
0.1,0.3,9,2,3509977094603431910
0.1,0.3,1,6,5050685735260471460
0.1,0.5,1,8,4640350209072366749
0.1,0.5,0,7,1781316455761169049
0.1,0.3,3,2,6241817743421222160
0.1,0.3,5,2,9028877073617924133
0.1,0.3,3,7,353629793830959350
0.1,0.5,3,8,6057824965626274312
0.1,0.3,4,8,6280038267694875711
0.1,0.5,3,2,978224103447585330
0.1,0.5,6,3,3724314460215513608
0.1,0.3,7,7,6160357652136167993
0.1,0.3,8,2,7256180370982510117
0.1,0.5,6,8,6871653338949771264
0.1,0.3,2,8,5102230387538037099
0.1,0.5,4,7,2302356539077034638
0.1,0.5,1,3,4759359564555589895
0.1,0.3,6,4,4512604522873946701
0.1,0.3,9,8,8671718294196650685
0.1,0.5,2,3,5516492198532016056
0.1,0.5,5,3,3891715835436156433
0.1,0.5,5,8,7217565083772544664
0.1,0.5,7,3,7927458474877748000
0.1,0.3,4,3,3679810913522504448
0.1,0.3,6,8,5604273974297761319
0.1,0.3,2,3,7065632064040368934
0.1,0.3,8,8,3026353985222395534
0.1,0.3,9,3,2674688723285162164
0.1,0.5,4,3,6755269131380782226
0.1,0.3,7,4,7600224427995198995
0.1,0.5,0,8,5387533805587327334
0.1,0.3,0,8,3347921816314986571
0.1,0.3,0,4,3506844301412663836
0.1,0.5,6,9,1503019962429536433
0.1,0.3,1,4,3661049203873319782
0.1,0.5,1,9,3269305621155822575
0.1,0.5,0,3,9005333781611987412
0.1,0.3,3,3,3753672915669406
0.1,0.3,5,8,441296693899183040
0.1,0.3,8,3,4522165096086250574
0.1,0.5,2,8,6728104939454368788
0.1,0.5,4,8,5808074634989439402
0.1,0.5,1,4,1524489075119330497
0.1,0.5,7,5,2601258530361816495
0.1,0.3,5,3,4956655378614588274
0.1,0.3,3,8,8131763883828920426
0.1,0.5,6,4,7689396522032906872
0.1,0.5,5,9,5600935744343014436
0.1,0.5,3,9,6947364489693361605
0.1,0.3,7,8,8379617922410972995
0.1,0.5,8,0,6567813240979336237
0.1,0.3,8,9,5867042617946108062
0.1,0.3,9,9,2936034816555210398
0.1,0.5,2,4,66916392835012989
0.1,0.5,4,4,5718758920264629265
0.1,0.5,5,4,1359903630101445354
0.1,0.3,3,4,5316760495310707429
0.1,0.3,4,9,8598395055324804279
0.1,0.3,1,7,3496937500955679776
0.1,0.3,2,9,8421595977906030483
0.1,0.3,2,4,7333419702367222761
0.1,0.3,6,9,3848772106134739257
0.1,0.5,3,3,1815201443455058971
0.1,0.5,8,5,8550372505362789988
0.1,0.5,9,5,1405194237589498396
0.1,0.5,0,9,945114881420414269
0.1,0.5,7,4,1392129061740712913
0.1,0.3,0,9,2912093692417720961
0.1,0.3,5,9,1005751969578977102
0.3,0.3,0,0,2174926467055159593
0.1,0.5,2,9,829329988759657324
0.1,0.3,9,4,5535003861643758821
0.1,0.5,4,9,3401741478454006823
0.1,0.3,5,4,8154298996635409573
0.1,0.3,4,4,4968904079210278071
0.3,0.3,3,0,8827030374940153649
0.1,0.5,0,4,9018873142531027345
0.1,0.5,7,6,3760535599989846717
0.3,0.3,0,5,7706757381903938446
0.3,0.3,1,0,8764292286438463297
0.3,0.3,1,5,1249347557555192851
0.3,0.3,5,0,4798362601942515327
0.3,0.3,6,0,5089646353893328905
0.1,0.3,7,9,7709872062092378152
0.3,0.3,6,5,4101753534653167356
0.1,0.3,8,4,1995893371086910746
0.3,0.3,7,0,8044342106190234824
0.1,0.5,3,4,8557764601147631509
0.3,0.3,2,0,7969636959046973167
0.3,0.3,3,5,2579372449593066264
0.3,0.3,4,0,7527800242263666681
0.1,0.5,8,6,1289313224911044593
0.1,0.3,3,9,5376304481358612374
0.3,0.3,7,5,7597193623338642311
0.1,0.3,1,8,7878733316701896278
0.3,0.3,5,5,397302472110075079
0.3,0.3,8,5,5393287437060512763
0.3,0.3,4,5,4099045218960557148
0.3,0.3,9,0,5444563815270125819
0.3,0.3,8,0,2986329155612840600
0.3,0.3,9,5,8143957494245112586
0.3,0.5,0,0,5532096883579422107
0.3,0.3,0,1,1146518603694559039
0.3,0.5,0,5,3839531290985174965
0.3,0.3,3,1,8081593934323343992
0.1,0.5,9,6,8995698273030357357
0.3,0.3,7,6,7270514984822882602
0.1,0.5,9,0,1432067681987392752
0.3,0.3,1,6,3384405148060130723
0.1,0.5,8,1,4318992059441080750
0.3,0.3,5,1,3140511748519203522
0.3,0.3,2,5,1408453617994298771
0.3,0.5,2,0,6075877492855416924
0.3,0.3,5,6,5796298878984524393
0.3,0.3,7,1,5725802702445984274
0.3,0.5,3,5,190560960493135049
0.3,0.3,3,6,1862997073127461883
0.3,0.3,4,1,3125764525592631769
0.3,0.3,0,6,6047058728949990006
0.3,0.5,1,5,1511366511875877478
0.3,0.3,6,1,6031627112085110123
0.3,0.3,6,6,1918313184885846978
0.3,0.5,2,5,2747456050597779268
0.3,0.5,3,0,3742331330179063978
0.3,0.5,0,6,2904658459193840944
0.1,0.5,7,7,1406716242533284914
0.3,0.3,8,6,5805554560436617482
0.1,0.3,1,9,2564775828497056462
0.3,0.5,4,0,8794865673336539676
0.3,0.3,8,1,5234530896753829754
0.3,0.5,0,1,8160251874154584110
0.3,0.5,1,0,6460348178265099961
0.3,0.3,1,1,1300927925761206023
0.3,0.3,3,2,5845567915097146665
0.3,0.3,4,6,668447907378446541
0.3,0.3,9,1,8371955305079045368
0.1,0.5,9,1,2972109224195294620
0.3,0.3,9,6,3414070026122908855
0.3,0.3,2,1,5305445679122429091
0.3,0.3,5,7,3242257640732896362
0.1,0.5,8,7,2917462495102968204
0.3,0.3,7,2,3388039033051613966
0.1,0.5,9,7,5431409567557914524
0.3,0.3,7,7,2535895336520412567
0.3,0.3,0,7,4172065605448184977
0.3,0.3,1,7,6840279280254257074
0.3,0.3,5,2,5981381860175764459
0.3,0.3,6,2,2212054182317625440
0.3,0.3,2,6,1921256633049370208
0.3,0.3,0,2,6997146315856942693
0.3,0.3,4,2,7173467565664838424
0.3,0.5,1,6,7185085224363556356
0.3,0.5,4,1,2130846662179248908
0.3,0.5,2,6,4627048582753736664
0.3,0.3,9,7,2403902576214245028
0.3,0.5,3,6,2766178721939612301
0.3,0.5,1,1,6111109197139862722
0.3,0.5,0,7,7065341265632798799
0.3,0.3,3,7,2384385393317816309
0.3,0.3,1,2,68938955886957812
0.3,0.3,9,2,458333140622993036
0.3,0.3,6,7,8339343519151309251
0.3,0.5,3,1,1236657826868027687
0.3,0.3,8,2,1949095628253958691
0.3,0.3,5,8,5759560650212776888
0.3,0.5,0,2,1044569493285515631
0.1,0.5,7,8,1272698532780595391
0.3,0.3,4,7,1692223719456407721
0.3,0.3,7,3,7920485863143815930
0.3,0.3,3,3,4017232734741558710
0.3,0.5,4,5,3370819522648779216
0.1,0.5,8,2,4460690920014763443
0.3,0.5,2,1,8223482970421703506
0.3,0.3,2,2,5587514114039836981
0.3,0.3,0,3,1467590946325453453
0.3,0.3,8,7,5191927398290332799
0.1,0.5,9,8,2074784555098742490
0.3,0.3,0,8,8314312364061546493
0.3,0.3,1,8,4684211762269867834
0.3,0.5,1,7,6576587102511157915
0.3,0.3,5,3,6099934994913401782
0.3,0.5,2,7,208108507378307596
0.3,0.3,9,8,3408447378865608176
0.3,0.3,7,8,1287183783045486351
0.3,0.3,4,3,4168458890190048694
0.1,0.5,9,2,981428835143880253
0.3,0.3,6,3,6315963912927015866
0.3,0.5,4,2,3038437036902432770
0.3,0.3,9,3,6332502085360947339
0.3,0.3,6,8,1663982767087555240
0.3,0.5,3,2,2192760880974243188
0.3,0.3,3,8,913763906521329146
0.1,0.5,8,8,124925065162794735
0.3,0.5,1,2,3940017228456779055
0.3,0.3,8,3,1112161284644390078
0.3,0.3,5,9,4454819564925050099
0.1,0.5,7,9,3629239438532934641
0.3,0.3,3,4,2540546095740229907
0.3,0.3,1,3,6943701291968188481
0.3,0.5,4,6,7353023810748325390
0.1,0.5,8,3,3149597159793937883
0.3,0.5,3,7,338636661633401433
0.3,0.5,0,3,3485278336933768065
0.3,0.3,4,8,3168586305559974543
0.3,0.3,0,4,7265904571006149728
0.1,0.5,9,9,4447152696374961276
0.3,0.3,1,9,5765208999113221609
0.3,0.3,2,7,1934129156819255185
0.3,0.5,1,8,7302781236510500991
0.3,0.5,2,2,3800493252607284
0.3,0.3,2,3,4872014685905830057
0.3,0.3,8,4,6092756891248860003
0.3,0.3,7,9,3250715022470289110
0.3,0.3,8,8,5960429689381623359
0.3,0.3,4,4,4065667174855994874
0.3,0.5,4,3,5317995854362320591
0.3,0.3,9,4,1817097182821291823
0.3,0.5,0,8,2362014500716304527
0.3,0.5,3,3,8566832834046861294
0.3,0.3,7,4,547350380056716009
0.3,0.5,5,0,266316036767682667
0.1,0.5,9,3,5962446827918115868
0.3,0.5,4,7,7159303993916682722
0.3,0.3,5,4,2045822561475868583
0.3,0.3,6,4,2806493268210801194
0.3,0.3,3,9,1822327459973901944
0.1,0.5,8,9,6042198675342306051
0.3,0.5,3,8,2166370994713108888
0.3,0.3,9,9,2443010339643354221
0.3,0.5,5,5,5300897419277317808
0.3,0.3,1,4,3968265494505315134
0.1,0.5,8,4,5171758288011145705
0.3,0.3,6,9,2290549681254590142
0.3,0.5,2,8,4728548590124311345
0.3,0.5,1,9,1086092027091529590
0.3,0.5,0,9,6481947026005025444
0.3,0.5,0,4,1562214142301505011
0.3,0.5,6,5,2188756056191426728
0.3,0.3,2,4,4465010810961142270
0.3,0.5,7,5,3841633009160181663
0.3,0.5,8,0,8217660969242754333
0.3,0.3,8,9,4469779431342584089
0.3,0.5,6,0,7001685280781239657
0.3,0.5,8,5,2629461307842877168
0.3,0.5,1,3,9093140554733490975
0.3,0.3,4,9,8157935685365593928
0.3,0.3,0,9,7110211413413800804
0.3,0.5,7,0,383573949250739948
0.3,0.5,9,5,7827859099141228119
0.3,0.5,5,1,4327109515974728555
0.3,0.3,2,8,7442471275845250423
0.5,0.3,0,0,6902651765009782907
0.3,0.5,4,4,5033344058810416811
0.3,0.5,2,3,8679501094115491602
0.3,0.5,9,0,5498565075775117545
0.5,0.3,0,5,5999930017027491939
0.3,0.5,3,9,6454072334481958164
0.5,0.3,1,0,5050119532994111771
0.5,0.3,5,5,6145361362604536383
0.3,0.5,2,9,5005463564892554658
0.5,0.3,1,5,1785355562901881457
0.5,0.3,2,5,1662756464617827569
0.5,0.3,3,0,6313522785325907070
0.5,0.3,3,5,1888191962287410296
0.3,0.5,6,6,207241866780112815
0.5,0.3,4,5,3020715416286763800
0.3,0.5,4,8,6621645790683385804
0.3,0.5,8,1,8248938250975496951
0.3,0.5,8,6,936810890945688277
0.5,0.3,2,0,3037967149904309925
0.5,0.3,6,5,28573725542061341
0.3,0.5,5,6,1281433685630841388
0.1,0.5,9,4,7197166751188951032
0.3,0.5,7,1,3194042929164914895
0.5,0.3,5,0,3233494902112173869
0.3,0.5,3,4,2516045587700824402
0.3,0.5,1,4,5660256671978558483
0.5,0.3,4,0,9116514915821500529
0.5,0.3,8,0,8418147318167413729
0.5,0.3,7,0,4921953622270053948
0.3,0.5,9,6,6504073496667135931
0.5,0.3,6,0,5284364574570146388
0.3,0.5,5,2,5089838701999911509
0.5,0.3,0,1,1857164302154613594
0.5,0.3,7,5,1247165115015723076
0.3,0.5,9,1,4690625730652140591
0.5,0.3,5,6,7780957846612178479
0.3,0.5,6,1,5493003813287463478
0.5,0.3,9,0,4441711082989089162
0.5,0.3,2,6,8348580476459094803
0.5,0.3,0,6,4763671973142763075
0.5,0.3,3,6,8691954403665353862
0.3,0.5,7,6,1550499491861767676
0.5,0.3,1,1,6833741365498946489
0.3,0.3,2,9,8993870418449158531
0.3,0.5,4,9,8149512869395332035
0.3,0.5,2,4,3557392966649684716
0.3,0.5,8,7,5902155117188082807
0.5,0.3,2,1,1535679863464795738
0.5,0.3,6,6,6230044315179007673
0.3,0.5,6,7,2902693290015802277
0.5,0.3,4,6,2527416069510232077
0.5,0.3,5,1,6571409852024481668
0.5,0.3,8,5,5143210530154165164
0.5,0.3,9,5,7798648496205701513
0.5,0.3,8,1,1359134173580365374
0.5,0.3,4,1,8216205795678781539
0.5,0.5,0,0,1997759264206577526
0.3,0.5,7,2,6978531126106708178
0.3,0.5,8,2,9020537974067885822
0.5,0.3,7,6,8432792355225343059
0.5,0.3,3,1,6696162533175553010
0.5,0.3,9,1,1253191334921526605
0.5,0.3,2,7,217274135199104721
0.3,0.5,5,7,8200912121761328149
0.3,0.5,9,7,1271732263824735601
0.3,0.5,5,3,7736547123242436780
0.5,0.3,6,1,8244435565886607485
0.5,0.3,1,6,7549183337620338474
0.5,0.3,5,7,9003775808453910295
0.5,0.5,0,5,9153617621461002125
0.3,0.5,9,2,8770596008422179532
0.3,0.5,6,2,7747048148429361442
0.3,0.5,7,7,3500127959574614486
0.5,0.3,1,2,7951535196333311305
0.3,0.5,6,8,6229564646943754961
0.5,0.3,0,2,3316509748771673933
0.5,0.3,5,2,2934801363869976878
0.5,0.3,0,7,901080352556680412
0.5,0.3,9,6,5641786313061500101
0.5,0.3,7,1,1886375660830348667
0.5,0.3,8,2,3745477246757175681
0.5,0.3,6,7,3577558490484232015
0.3,0.5,7,3,2281678644194033580
0.5,0.5,1,0,3958425179672433757
0.5,0.3,4,7,2741008630987662142
0.5,0.3,2,2,1706241819229577357
0.5,0.3,3,2,3974364503343742109
0.5,0.3,8,6,4640853953278603368
0.5,0.3,3,7,2649520181261607060
0.5,0.3,9,2,295068401813346767
0.3,0.5,5,8,6163831024081516485
0.3,0.5,8,3,6779178538526503502
0.5,0.5,2,0,7451041190292231137
0.3,0.5,8,8,9201831390166577786
0.5,0.3,1,7,1601966900538963794
0.5,0.3,7,7,267450174293563648
0.3,0.5,5,4,3832004414763015918
0.3,0.5,7,8,2899698665616262912
0.3,0.5,9,8,1863151174410949697
0.5,0.3,1,3,8661032902596917303
0.5,0.3,6,2,1474852387050261386
0.3,0.5,6,9,5053140296389262065
0.5,0.3,5,8,8437912620327405627
0.5,0.5,0,6,3211552586614785079
0.3,0.5,9,3,1870419541242195969
0.5,0.5,1,5,3886505840556022101
0.5,0.3,0,3,4885978069161032081
0.5,0.3,5,3,8694925589811321426
0.5,0.3,2,8,2907192594694987835
0.3,0.5,6,3,1569907737705794701
0.5,0.3,0,8,565297943136424156
0.5,0.5,0,1,2522959416259860572
0.5,0.3,8,3,2802769495378004120
0.5,0.3,7,2,356792678077738465
0.5,0.3,2,3,178811765126093622
0.5,0.3,3,3,7897710591863806388
0.5,0.3,4,2,7047808108590343100
0.5,0.3,9,7,4056857581938942945
0.3,0.5,5,9,113463129207964546
0.5,0.5,1,1,2115180641015501010
0.3,0.5,8,9,5518260145720638834
0.5,0.3,1,8,5021154149981513219
0.5,0.3,6,8,268225610789188311
0.5,0.5,2,5,4485486332689388203
0.3,0.5,7,9,7015853825303786093
0.5,0.3,1,4,7715908076359402079
0.3,0.5,8,4,2128755839550218782
0.5,0.5,2,1,6226010988168345587
0.5,0.5,0,7,5500979659786670464
0.3,0.5,9,4,5441203163648167308
0.5,0.3,3,8,7657087887715096627
0.5,0.3,7,8,5696851331943586755
0.5,0.3,0,4,1913013409515526645
0.5,0.3,2,9,1477995216878809575
0.3,0.5,6,4,4195988994396226748
0.5,0.3,9,3,7235039718201669661
0.5,0.3,0,9,8587693834713409363
0.3,0.5,7,4,8184169766250715187
0.5,0.3,4,8,5902821943619093448
0.5,0.3,6,3,5408470417118374436
0.5,0.3,5,9,6626993612188715098
0.5,0.5,3,0,3243231736962392037
0.5,0.5,1,6,4993808239947793253
0.5,0.3,5,4,1642253129295056561
0.5,0.5,0,2,3070987480725003478
0.5,0.3,8,4,7612926036422129366
0.3,0.5,9,9,2872811223712241379
0.5,0.3,7,3,1530470284948817871
0.5,0.5,3,5,1732624588770144926
0.5,0.3,2,4,2047816303336416910
0.5,0.3,7,9,3251709852422331850
0.5,0.5,4,0,3766954541036891760
0.5,0.5,1,2,6978531468368917622
0.5,0.3,3,4,5272044804278977450
0.5,0.5,5,5,4926563908940991399
0.5,0.3,1,9,453643019995099093
0.5,0.3,4,3,3284777954545992975
0.5,0.5,6,0,8102371388552446879
0.5,0.5,6,5,9141883977253378580
0.5,0.3,6,9,2838521262083968960
0.5,0.5,2,6,4743781664301490907
0.5,0.5,7,0,3768253386860808018
0.5,0.5,8,0,6326833126735661743
0.5,0.5,2,2,8922380454621829211
0.5,0.3,6,4,557513169370629510
0.5,0.5,5,0,5527173744609607357
0.5,0.5,0,8,8861453844603678382
0.5,0.5,8,5,6308144399835160292
0.5,0.5,9,0,3246486061328957544
0.5,0.5,0,3,7313986263761624951
0.5,0.3,9,8,1157004079591392473
0.5,0.5,9,5,2998678344575262513
0.5,0.5,4,5,4727808719723729434
0.5,0.3,7,4,8839873480088147184
0.5,0.3,8,7,5064685748430321452
0.5,0.3,3,9,1552348623715603068
0.5,0.5,1,7,189628817418833953
0.5,0.3,9,4,8917175614871896730
0.5,0.3,4,9,1705858746315540809
0.5,0.5,7,5,3654201778914817649
0.5,0.5,1,3,500890371339078166
0.5,0.5,3,1,4638366482160481793
0.5,0.5,6,1,7030763208919603043
0.5,0.5,2,7,7141309718352097058
0.5,0.5,4,1,2065761351046414740
0.5,0.5,3,6,5776712935758106946
0.5,0.5,0,9,2114370730094990274
0.5,0.3,4,4,7813611357929534899
0.5,0.5,9,1,2894085500773540169
0.5,0.3,9,9,3286910997891015339
0.5,0.5,4,6,7076263050875787428
0.5,0.5,9,6,5358642754856815077
0.5,0.5,7,1,3720730163466437840
0.5,0.5,8,1,5436530827967391970
0.5,0.5,2,3,1020937341925117790
0.5,0.5,5,1,7232517545453621883
0.5,0.5,5,6,853767568599463560
0.5,0.3,8,8,8344202368009437762
0.5,0.5,6,6,3447211527805763512
0.5,0.5,8,6,196145818678144249
0.5,0.5,1,8,2063763513043742775
0.5,0.5,2,8,3581669719142934086
0.5,0.5,4,2,4849455140988746051
0.5,0.5,1,4,1445689311721949124
0.5,0.5,3,7,1135835060228202735
0.5,0.5,9,2,5999659527280287403
0.5,0.5,4,7,1432545469851114365
0.5,0.5,9,7,7374239777915058957
0.5,0.5,3,2,7678278187980156424
0.5,0.5,5,2,3419454164028067961
0.5,0.5,5,7,7572361328485316992
0.5,0.5,6,2,3824102369616055887
0.5,0.5,7,6,1704869375648354929
0.5,0.5,8,2,6971939509504501889
0.5,0.3,8,9,5360900978598001974
0.5,0.5,7,2,2898575714813902143
0.5,0.5,0,4,7413661485306827604
0.5,0.5,4,3,3488824854555151706
0.5,0.5,2,4,323533325927876359
0.5,0.5,3,3,5917156063313894169
0.5,0.5,1,9,5218773420538044996
0.5,0.5,6,7,3709166517451383948
0.5,0.5,2,9,606566337691993942
0.5,0.5,4,8,1481133291606872702
0.5,0.5,3,8,321503109490586005
0.5,0.5,9,3,4147671176310744682
0.5,0.5,6,3,978231668424324242
0.5,0.5,5,3,1844839824339281228
0.5,0.5,5,8,1577157633285491838
0.5,0.5,7,3,6798826340354391151
0.5,0.5,7,7,6010761942710773966
0.5,0.5,9,8,7636183305670042092
0.5,0.5,8,7,4996244607417542983
0.5,0.5,4,4,5643689482280787116
0.5,0.5,6,8,7262891665677171255
0.5,0.5,3,4,2286572001439582397
0.5,0.5,8,3,3968258540156720791
0.5,0.5,9,4,7767507711345945081
0.5,0.5,5,9,3752968169268339225
0.5,0.5,6,4,1219041813937189303
0.5,0.5,7,8,4064805581668190461
0.5,0.5,3,9,5752236273976976348
0.5,0.5,5,4,1344373002238563827
0.5,0.5,4,9,2835268266515531332
0.5,0.5,6,9,6482316893555928349
0.5,0.5,9,9,6098714333453916753
0.5,0.5,8,8,1887685554525159473
0.5,0.5,7,4,6804135661007929695
0.5,0.5,8,4,5083419935142010266
0.5,0.5,7,9,9071099072654550859
0.5,0.5,8,9,8306943974794893480
