d,mu,weight_set,opinion_set,sim_seed
0.1,0.3,0,0,7467168689839032817
0.1,0.3,1,0,8361294274093235811
0.1,0.3,2,0,5363893450331765864
0.1,0.3,3,0,7512062586702275024
0.1,0.3,4,0,137237536346169958
0.1,0.3,7,0,8905420079519229806
0.1,0.3,8,0,1703125876446964645
0.1,0.3,9,0,4843437733898756704
0.1,0.5,0,0,366011792636684486
0.1,0.5,3,5,376840926909938469
0.1,0.5,4,0,8292363749030979748
0.1,0.5,5,0,4732489148317273586
0.1,0.3,5,0,8620860639572647270
0.1,0.3,5,5,3198531522596293920
0.1,0.3,6,0,4836319777049929259
0.1,0.3,6,5,6953934503440804894
0.1,0.3,9,5,3769517728710626865
0.1,0.5,0,5,6410698849662761462
0.1,0.5,1,5,6151547473707364376
0.1,0.5,2,0,5706616739668561510
0.1,0.5,2,5,4464544036785398743
0.1,0.5,7,0,2771265761899899847
0.1,0.5,6,0,1133760214950035634
0.1,0.5,6,5,2457912170918675312
0.1,0.3,0,5,641173284492278495
0.1,0.3,1,5,1467748370965794077
0.1,0.3,2,5,2752471254871455187
0.1,0.3,3,5,8338148299026607946
0.1,0.3,4,5,4477531915916509843
0.1,0.3,7,5,2198554044323026977
0.1,0.3,8,5,6387317342783900591
0.1,0.5,1,0,370425201187845806
0.1,0.3,8,1,5330764656542702612
0.1,0.5,3,0,7510579486711635970
0.1,0.5,5,5,2444831770034991490
0.1,0.5,0,1,4806891877615744300
0.1,0.3,0,1,674988933754668067
0.1,0.3,2,1,287186849505337817
0.1,0.5,4,5,6433572624080503421
0.1,0.3,3,1,1935803622670894900
0.1,0.3,5,1,4136137760060757919
0.1,0.5,2,1,4373875419410868213
0.1,0.3,5,6,1547291782408957597
0.1,0.5,6,1,1849309208558664728
0.1,0.3,1,1,8589919463379215791
0.1,0.5,7,1,417454846048306484
0.1,0.3,7,1,5772100851981996182
0.1,0.5,0,6,4424073955655347158
0.1,0.3,3,6,6780302194818516768
0.1,0.3,2,6,3008622545370372469
0.1,0.3,4,6,9070412422441105123
0.1,0.3,4,1,5269798340215499828
0.1,0.3,6,6,8719645737748712730
0.1,0.5,2,6,1576167887645566113
0.1,0.3,0,6,2524083248443297729
0.1,0.3,9,1,1196338794068568503
0.1,0.3,8,6,8792789108331279078
0.1,0.3,8,2,9120030627263551477
0.1,0.5,3,6,6129064555491943404
0.1,0.5,1,6,1669249290778916443
0.1,0.5,5,1,9092629751517423266
0.1,0.3,2,2,1679501818211763395
0.1,0.5,6,6,7719941111793507147
0.1,0.3,6,1,5124525299424977176
0.1,0.5,4,1,3068682953793375134
0.1,0.3,7,6,1184164348560885160
0.1,0.5,0,2,4847262891345521664
0.1,0.5,4,6,9056985986362692983
0.1,0.5,2,2,2751247803052502166
0.1,0.5,7,2,3425605412014894140
0.1,0.5,0,7,6728920669839919228
0.1,0.3,0,2,3315010982873263282
0.1,0.3,7,2,2962929814952916235
0.1,0.3,3,2,405684845223645875
0.1,0.3,2,7,1784628428780700810
0.1,0.3,4,7,3950945931890347187
0.1,0.3,9,6,4432343161515397963
0.1,0.5,5,6,8464522545156708988
0.1,0.3,5,2,8091724721869246327
0.1,0.3,8,3,7944361519240714352
0.1,0.5,1,7,5366752965727419847
0.1,0.3,0,7,3188340151997794132
0.1,0.3,6,7,4082632171976205955
0.1,0.3,8,7,9062083358705835171
0.1,0.3,1,2,1388536489537883851
0.1,0.5,5,2,50283028704016413
0.1,0.5,6,2,4006108130853810137
0.1,0.3,5,7,3480743334966021066
0.1,0.5,1,1,5870232482179142198
0.1,0.3,1,6,7435422781905313525
0.1,0.5,3,7,9139943787219614393
0.1,0.5,2,7,4865686908575641131
0.1,0.5,3,1,9200847611271728456
0.1,0.5,4,7,254532757763261653
0.1,0.5,0,3,6005193691973276000
0.1,0.3,6,2,6999836061737256895
0.1,0.3,9,2,3964969364361802761
0.1,0.5,0,8,1346700585323216931
0.1,0.3,3,7,5423048727995623702
0.1,0.3,0,3,2755811789348128125
0.1,0.5,4,2,7977489983944082857
0.1,0.3,7,7,5164596162859773482
0.1,0.3,2,3,3463390734997111951
0.1,0.5,7,3,6554093124602719993
0.1,0.3,4,2,3441138139551840742
0.1,0.5,6,7,7872272511273240149
0.1,0.3,2,8,3564187142536300110
0.1,0.5,2,3,6087141422804330576
0.1,0.3,6,8,7018689128004297104
0.1,0.5,5,3,2742759934600705824
0.1,0.3,7,3,1743562994035568649
0.1,0.5,1,8,2472972626857053688
0.1,0.5,6,3,5453196241645725014
0.1,0.3,1,7,8451807635357505746
0.1,0.5,1,2,4484944372568515621
0.1,0.3,8,4,590335195805661793
0.1,0.3,3,3,8760498260187513076
0.1,0.5,3,8,30729787085129271
0.1,0.5,2,8,8622466600499447193
0.1,0.3,8,8,6677692682078448295
0.1,0.3,6,3,400119718669002542
0.1,0.3,4,8,1624417408647829247
0.1,0.5,4,8,167948845265703121
0.1,0.3,0,8,6194105617797570180
0.1,0.3,5,8,4223773333871200757
0.1,0.3,0,4,8166942342886084251
0.1,0.5,5,7,1731751753552452447
0.1,0.3,4,3,1902114209714079396
0.1,0.5,7,4,6595352284884836373
0.1,0.5,6,8,7849414826943867186
0.1,0.5,3,2,8254734181771761637
0.1,0.5,0,4,3625449315022290706
0.1,0.3,9,3,6564026430879968787
0.1,0.3,5,3,6837353584768188737
0.1,0.3,9,7,3904250454215422712
0.1,0.3,6,9,4918011695020875219
0.1,0.5,2,9,3788420058896926903
0.1,0.5,4,3,5801305734166578712
0.1,0.3,2,4,3292448568843935433
0.1,0.3,7,4,8567109899360464077
0.1,0.5,0,9,4248600977724267384
0.1,0.3,1,3,5410603975820695374
0.1,0.3,2,9,5782452476069548167
0.1,0.5,5,4,4859463269860008568
0.1,0.5,6,4,2722532899757432582
0.1,0.3,1,8,2689892466995029646
0.1,0.3,3,8,9019167327919590415
0.1,0.5,1,3,5559822508082885469
0.1,0.3,0,9,3496361998536042214
0.1,0.5,2,4,3132942237924789298
0.1,0.3,7,8,8165225478192108149
0.1,0.5,7,5,4252184993576424575
0.1,0.3,3,4,669783579975306092
0.1,0.5,1,9,4415530169156468119
0.1,0.5,8,0,684243596231834796
0.1,0.3,8,9,5579978840431070093
0.1,0.5,4,9,6982679498596721607
0.1,0.5,6,9,7687802321053202781
0.1,0.5,3,9,2367594371401126121
0.1,0.5,8,5,5616856513587925197
0.1,0.3,4,4,8990733155341599648
0.1,0.5,9,0,3123972844932329372
0.1,0.3,4,9,32130979653810242
0.1,0.3,1,4,2718673102012639269
0.3,0.3,0,0,5624677524246270078
0.3,0.3,2,0,5867504965325932745
0.1,0.5,9,5,5872863842761154214
0.1,0.5,5,8,8926401570959461411
0.1,0.5,3,3,6016412468525662676
0.3,0.3,0,5,7626623552501757373
0.3,0.3,1,0,6269121177357283272
0.1,0.5,1,4,8001191192178825498
0.1,0.3,6,4,1464362291875621727
0.3,0.3,1,5,7250785865698733899
0.1,0.3,5,9,2789967326839551415
0.1,0.3,3,9,5873662903520810539
0.1,0.3,9,4,456745023283984928
0.3,0.3,3,5,5200572679341772820
0.1,0.5,8,1,1348990978355864350
0.1,0.3,1,9,7737421055560308364
0.1,0.5,7,6,2670719273630159986
0.1,0.3,7,9,8147893223428190589
0.1,0.3,5,4,3791502885343223359
0.3,0.3,2,5,1527324230274976496
0.3,0.3,5,0,6191425899666645589
0.3,0.3,3,0,77313636828430063
0.3,0.3,4,5,1303009293106748220
0.3,0.3,7,0,5572391286123842899
0.3,0.3,4,0,1822009917456014393
0.3,0.3,7,5,4929825298729863730
0.1,0.3,9,8,2984693457120547652
0.1,0.5,8,6,750577756936622850
0.3,0.3,8,0,6080539225213339262
0.3,0.3,6,0,6631111134345542377
0.3,0.3,6,5,5711061431179949324
0.3,0.3,8,5,4244491997796021874
0.3,0.3,1,1,3056898323171374445
0.1,0.5,3,4,1518499880769128249
0.3,0.3,0,1,2206345054365330438
0.3,0.3,1,6,1103497630280111947
0.3,0.3,2,1,3698256389611170410
0.3,0.5,0,0,100415433944805499
0.1,0.5,4,4,733247364396907456
0.1,0.5,9,6,2268409803888993521
0.3,0.3,3,6,2306983185318067462
0.3,0.3,5,5,2686157663989743675
0.1,0.5,9,1,3259813890182327982
0.3,0.5,1,0,149634226318457077
0.3,0.3,9,0,700021545217475332
0.3,0.3,9,5,1425027771173834512
0.3,0.3,0,6,9105167461139999557
0.1,0.5,8,2,3207755040487714558
0.1,0.5,7,7,2963507137293506932
0.3,0.3,7,1,2408253831935942860
0.3,0.5,1,5,2198345928145885796
0.3,0.3,8,1,5188971070682362205
0.3,0.3,2,6,5237875615950284428
0.3,0.5,2,0,7376290348016998244
0.3,0.3,3,1,3008025996056168130
0.3,0.5,0,5,3149188636586299636
0.3,0.3,8,6,8497322933200156416
0.3,0.5,2,5,6854167775744343575
0.3,0.3,6,1,728408742018204207
0.1,0.5,8,7,8917846870495142084
0.1,0.5,5,9,6486172340713000289
0.3,0.3,5,1,7652158049208210941
0.3,0.3,6,6,7095261881507393233
0.3,0.3,4,1,1046739142461870685
0.3,0.5,0,1,7844305286898898701
0.3,0.3,5,6,7146140946705048227
0.1,0.3,9,9,7413538287006627124
0.3,0.3,3,7,3002241255575586649
0.3,0.3,4,6,7837851170715973742
0.3,0.3,9,1,9118082579113062670
0.3,0.3,0,2,2357783772753513545
0.3,0.3,1,7,9121562807243106890
0.3,0.3,7,6,7138536383488766754
0.3,0.5,1,6,8403847107741014451
0.1,0.5,9,2,7417263070227360230
0.3,0.3,8,2,4315702675934876009
0.3,0.3,2,2,3785654996643857017
0.3,0.5,3,5,1991061966438520888
0.3,0.5,2,1,1600033642644981593
0.3,0.5,3,0,211069550206189743
0.3,0.5,2,6,4684864763064392568
0.3,0.3,1,2,6680484953261352415
0.3,0.5,0,6,5201106776135375889
0.3,0.3,8,7,7754040256388578226
0.1,0.5,8,3,5982421753641070102
0.3,0.3,7,2,678457125734514204
0.1,0.5,9,7,2300308125366036480
0.3,0.3,0,7,2695354982205459861
0.3,0.3,6,7,111582328747499165
0.3,0.5,1,1,2952410263629008443
0.3,0.5,0,2,1501863719188321786
0.1,0.5,7,8,7115329446959903211
0.3,0.3,2,7,4586537757242819121
0.3,0.3,5,2,129759915212244245
0.3,0.3,6,2,5599365298762851231
0.1,0.5,8,8,918166409903642091
0.3,0.5,4,0,8704228173806561256
0.3,0.3,3,8,3178270973757574124
0.3,0.5,4,5,2438878076309148385
0.3,0.3,9,6,720265370441357368
0.3,0.3,4,2,2411539037236553321
0.3,0.5,3,1,1444365936164288371
0.3,0.3,0,3,4536203242383639175
0.3,0.3,1,3,4621223936515455713
0.3,0.3,3,2,879364264133927717
0.3,0.3,1,8,2207834932610503502
0.3,0.3,7,7,5567146423550612173
0.3,0.5,1,7,3825394982706255624
0.3,0.3,8,8,4562522337345233705
0.3,0.3,9,2,3972961682350465670
0.3,0.3,4,7,8852709613481336809
0.3,0.3,2,3,362863295809067812
0.3,0.3,0,8,5479759073655868170
0.3,0.5,2,2,6784107715352469484
0.1,0.5,9,3,6735417311967385616
0.3,0.3,5,7,2539886353201608103
0.3,0.3,7,3,4927324811311096883
0.3,0.3,8,3,5969312317878839695
0.3,0.3,6,8,1638600661427853448
0.3,0.5,0,3,363757360687385254
0.3,0.3,6,3,3650963935974495026
0.1,0.5,8,4,5530380541876842435
0.3,0.5,2,7,8065836725157123946
0.3,0.5,4,1,90012600789023869
0.1,0.5,9,8,7867507869979671011
0.1,0.5,8,9,8572183781629135620
0.3,0.5,3,6,6611854023843426078
0.3,0.3,4,3,7480362037508511957
0.3,0.3,9,7,4122247629476519332
0.3,0.3,1,9,6418380844491102945
0.3,0.3,8,9,180552098399783974
0.3,0.3,2,8,3549357370031287952
0.3,0.3,3,3,7045430428155157022
0.3,0.5,3,2,3687675716521094753
0.3,0.3,0,4,1978486957486070324
0.3,0.5,1,8,251988853338660503
0.3,0.3,4,8,1052314463239453981
0.3,0.5,1,2,450752493108976843
0.1,0.5,7,9,1319841692578314510
0.3,0.5,4,6,2850039705885025214
0.1,0.5,9,4,6850559444800263965
0.3,0.3,2,4,4216785987774674614
0.3,0.5,0,7,717397476852802833
0.3,0.5,0,4,2774321188091677565
0.3,0.3,7,8,189258335038979984
0.3,0.3,3,9,9013972954584343264
0.3,0.5,2,3,3568388264371821563
0.3,0.3,8,4,359872025727843756
0.3,0.3,5,8,8221127295926043380
0.3,0.3,6,4,1069461308290652657
0.3,0.5,2,8,3493716209722859436
0.3,0.3,0,9,2660074919857298150
0.3,0.5,5,5,787345763073929240
0.3,0.3,7,4,7481332111205104987
0.3,0.5,6,0,4676855276833944875
0.3,0.3,4,4,3229437781971099576
0.3,0.3,1,4,5353841167303965261
0.3,0.5,6,5,329453378163321973
0.3,0.5,1,9,4469232641249355598
0.3,0.5,4,2,3110369268301681874
0.3,0.5,3,7,5330756008129533713
0.3,0.5,7,0,4914607245447699346
0.1,0.5,9,9,6298737530981115169
0.3,0.3,2,9,4362101859894298594
0.3,0.3,3,4,214811894573567332
0.3,0.3,9,3,3228303945300538175
0.3,0.5,5,0,8749202599067148971
0.3,0.5,3,3,3827501557916886414
0.3,0.5,7,5,4804508197479945442
0.3,0.5,1,3,7595054199749407586
0.3,0.3,6,9,1707107272336794330
0.3,0.5,8,0,4848464063282686823
0.3,0.3,4,9,8145366915758796370
0.3,0.5,4,7,1520407064660739902
0.3,0.5,8,5,404898262006014972
0.3,0.5,9,0,1394066718056238082
0.3,0.5,6,6,3963453330752419216
0.3,0.5,9,5,298812152612756859
0.3,0.5,5,6,4842805542463703012
0.3,0.3,7,9,4947831425392019036
0.5,0.3,0,5,1294151683524945884
0.3,0.3,5,3,8443483608016748949
0.3,0.5,2,9,5888003456394730420
0.3,0.5,2,4,4985581813405277931
0.3,0.3,5,9,2805961983623441289
0.3,0.5,6,1,4749525877044491294
0.5,0.3,2,5,2497634892514183312
0.5,0.3,4,0,2296313635421436478
0.5,0.3,1,5,4865547542511908501
0.5,0.3,4,5,7568725382453544507
0.3,0.5,3,8,1316289629696826326
0.3,0.5,0,8,831949457619379783
0.3,0.5,7,1,9108540065505165295
0.5,0.3,2,0,8173605998038772811
0.3,0.5,8,1,2650066600261949318
0.3,0.3,9,8,7844295765595383278
0.5,0.3,3,0,8765642578062364481
0.5,0.3,0,0,8468426990784372765
0.5,0.3,1,0,5524968100416380727
0.3,0.5,4,8,8670260377306366164
0.3,0.5,1,4,1250541089789428794
0.5,0.3,0,6,3909461527967009148
0.3,0.5,4,3,6793761403597195114
0.5,0.3,5,0,6136354795008732678
0.3,0.5,3,4,2394429346291423120
0.3,0.3,9,4,6244634893009003512
0.3,0.5,8,6,5540653613970577451
0.3,0.5,5,1,739381560209228880
0.5,0.3,6,0,8923254574772362121
0.3,0.5,9,6,6180383456505831104
0.5,0.3,2,6,319017728006164725
0.5,0.3,1,6,7065888695646144881
0.3,0.5,6,7,5288212402832439512
0.5,0.3,6,5,7869094939065005295
0.5,0.3,3,5,7537981674048727027
0.3,0.5,6,2,1415867131239445187
0.3,0.5,5,7,5197353317146071506
0.3,0.3,5,4,9025311498170930298
0.5,0.3,4,1,3815853083261267082
0.3,0.5,9,1,4047368894598946058
0.5,0.3,0,1,4617253306697987508
0.5,0.3,7,0,7999741669618282631
0.3,0.5,7,6,4605165716024935826
0.3,0.5,8,2,3980146131818885834
0.5,0.3,5,5,5735778906331644910
0.5,0.3,1,1,8456359191227341043
0.5,0.3,8,0,293931993504689204
0.5,0.3,3,1,5562121851674441612
0.3,0.5,3,9,1607316439402087760
0.3,0.5,0,9,4351118434851252609
0.5,0.3,4,6,6661023485285709497
0.5,0.3,5,1,8253723883257397531
0.5,0.3,7,5,1076335901111984688
0.5,0.3,6,6,5378021556741525632
0.3,0.5,8,7,9127554335245214533
0.5,0.3,1,7,7624372997659004520
0.3,0.5,4,9,5066786816760706822
0.5,0.3,0,7,1460222941695116030
0.5,0.3,6,1,5413762324396889582
0.5,0.3,3,6,3590340048047756233
0.3,0.5,6,3,6879667730655797903
0.3,0.5,5,8,4213061168431894920
0.5,0.3,0,2,7315882893151741736
0.3,0.5,7,7,8288662321305884941
0.5,0.3,4,2,5037707369315855205
0.3,0.5,4,4,4273106408318788942
0.3,0.3,9,9,884475301294197519
0.5,0.3,2,1,8240063177594249523
0.5,0.3,5,2,2454032307666724671
0.5,0.3,8,5,1802006441843499040
0.5,0.3,5,6,1281359030120497433
0.3,0.5,9,7,1780735641356299185
0.5,0.3,9,0,8221442976840691577
0.5,0.3,2,7,2530726804819779450
0.3,0.5,5,2,6445904830363738298
0.3,0.5,6,8,5127975004159183140
0.3,0.5,9,2,6344943736389683453
0.3,0.5,7,2,8589959167496517327
0.5,0.3,7,6,8454912346270927507
0.5,0.3,8,1,9219337165267400163
0.5,0.5,0,0,988727377298668119
0.5,0.3,3,2,731179669304398322
0.5,0.3,9,5,6386177096304499061
0.5,0.3,7,1,1761081094094771276
0.5,0.3,4,7,2545310574538111793
0.5,0.3,1,2,100090780645100517
0.5,0.3,1,8,2635481483130277029
0.3,0.5,8,3,3837638285142392075
0.5,0.3,6,7,5753846907965095577
0.3,0.5,8,8,2966992426286712377
0.3,0.5,6,4,3059616088688658346
0.3,0.5,5,9,7200640884457641305
0.5,0.5,0,5,3526879398385327931
0.5,0.3,0,8,3355056367123458331
0.5,0.5,1,0,3722821012668764433
0.5,0.3,5,7,7188439181510140640
0.5,0.3,3,7,5119357010391963195
0.3,0.5,7,8,1774416014744441133
0.5,0.3,4,3,1671851465194924577
0.5,0.3,7,7,1941366309053171921
0.5,0.5,1,5,2822677436275201141
0.5,0.5,0,1,6198394540854466289
0.5,0.3,0,3,8670438027857661836
0.5,0.3,9,1,4577843651522677346
0.5,0.3,2,2,1906656583385153940
0.5,0.3,8,6,572300246978939351
0.5,0.3,1,3,371975279305088425
0.5,0.3,6,2,8092236190461199670
0.5,0.3,5,3,3246329057111636100
0.5,0.3,9,6,4611510170800557687
0.3,0.5,8,4,1624850266602510570
0.5,0.3,4,8,5160644665783686531
0.5,0.3,2,8,4191575117868129897
0.5,0.3,6,8,5690069212816980476
0.3,0.5,8,9,8580174591327609190
0.5,0.3,3,3,1672671954811826615
0.5,0.5,0,6,8407802352684375952
0.5,0.5,2,0,2260429318627390377
0.3,0.5,9,8,3063633438484202053
0.3,0.5,7,3,2518381513236219612
0.3,0.5,5,3,7343934917556972965
0.5,0.3,5,8,7734503500911300784
0.5,0.3,3,8,6204902474536483504
0.3,0.5,9,3,529508865931630324
0.5,0.3,0,9,9074119534609582985
0.5,0.3,4,4,8701873623245787712
0.3,0.5,6,9,6295778259830345405
0.5,0.3,7,8,1980948722708360975
0.5,0.3,1,9,4076937398473632406
0.5,0.3,2,3,7505254446977505474
0.5,0.3,8,2,8369670477395247729
0.5,0.3,9,2,322845315671457320
0.5,0.5,2,5,8595724115540159346
0.5,0.5,1,1,481801720495919139
0.5,0.3,7,2,4431574800731046364
0.5,0.5,0,2,652400594787605154
0.5,0.3,2,9,1737245561382012688
0.5,0.3,1,4,931484444345113725
0.5,0.3,9,7,2977866101184429891
0.5,0.3,6,3,8296643978356517276
0.3,0.5,7,4,5650653386486866902
0.5,0.3,0,4,3240346502786272609
0.5,0.5,3,0,277400501268709772
0.5,0.3,6,9,4941567571145922630
0.5,0.3,3,4,8135328620034796717
0.5,0.3,5,4,1010509749333756074
0.5,0.3,5,9,9129222181610538039
0.5,0.5,3,5,7377512718242958524
0.5,0.3,3,9,541164732258299540
0.3,0.5,5,4,806060980814925363
0.5,0.5,4,0,4515097256493792065
0.5,0.3,4,9,7689142235921712850
0.5,0.5,4,5,2923656567074855993
0.5,0.5,0,7,2820738119069951126
0.5,0.5,5,0,5566182223149186758
0.5,0.5,1,6,7178237865567547867
0.3,0.5,9,9,2280539642507528915
0.5,0.5,2,1,3837290368770363406
0.5,0.5,2,6,5715636358407035869
0.5,0.3,8,7,2161528816116046285
0.5,0.5,1,2,4473247177286429337
0.5,0.5,0,3,4547611428906856498
0.5,0.3,7,3,7330530080073112393
0.5,0.5,6,0,1097288102088407697
0.5,0.3,2,4,8678670116693100393
0.3,0.5,9,4,6381943752169084944
0.5,0.3,9,8,4068309602195059987
0.3,0.5,7,9,9017525139900783509
0.5,0.5,3,1,396083864374704664
0.5,0.5,7,0,7483946538210250905
0.5,0.5,7,5,3901881565380199908
0.5,0.5,8,0,1671642749929055341
0.5,0.5,3,6,8156409493405169186
0.5,0.5,8,5,1729692722063050399
0.5,0.3,6,4,8785225075497813214
0.5,0.5,9,0,8478786072546295755
0.5,0.5,9,5,3522205234902866552
0.5,0.5,5,5,7420512655082684724
0.5,0.3,8,3,3720753700315401042
0.5,0.5,0,8,6725288464437870004
0.5,0.3,7,9,201988403702363253
0.5,0.5,2,2,6143099479191903952
0.5,0.5,1,3,1680029509239654273
0.5,0.3,8,8,6934610436155093854
0.5,0.3,9,3,4986750080959197473
0.5,0.5,5,1,7544293252356398388
0.5,0.5,1,7,5958751183108881371
0.5,0.3,7,4,4458734844822774428
0.5,0.5,6,5,4676102343879700382
0.5,0.5,4,1,2654276768805588799
0.5,0.5,4,6,5257827426512631391
0.5,0.5,7,1,6376272020065242782
0.5,0.5,8,1,5621999038179997732
0.5,0.5,2,7,1407049734478681096
0.5,0.5,3,7,198254840991864137
0.5,0.5,0,4,2035740028317664041
0.5,0.5,8,6,5378915772445233559
0.5,0.5,9,6,7184637250162431698
0.5,0.5,5,6,2405984629711985052
0.5,0.5,3,2,2323826257084700791
0.5,0.5,9,1,1513816494415148531
0.5,0.5,6,1,2033409765881352150
0.5,0.5,2,3,6629259737501377861
0.5,0.3,9,9,208757264694107600
0.5,0.5,0,9,4882945964565597967
0.5,0.3,8,4,6725096245245792046
0.5,0.5,7,6,7470848414625278127
0.5,0.5,5,2,1977255498629719979
0.5,0.5,1,8,4665835874497585569
0.5,0.5,6,6,5656475877084282781
0.5,0.3,9,4,1403771437660315106
0.5,0.5,2,8,3852877050198269068
0.5,0.5,7,2,1149459627902415787
0.5,0.3,8,9,3879311006576218869
0.5,0.5,9,7,7787555926636458361
0.5,0.5,4,2,511412848656750813
0.5,0.5,4,7,7933792886790198382
0.5,0.5,5,7,5234989139055156879
0.5,0.5,1,4,8770140174957680406
0.5,0.5,6,2,4094830571878587888
0.5,0.5,9,2,1325315465010597815
0.5,0.5,8,2,4888754678977416362
0.5,0.5,3,3,1124516571629932530
0.5,0.5,8,7,8326201739318080513
0.5,0.5,1,9,5876470012189387747
0.5,0.5,3,8,4323287241886385175
0.5,0.5,7,7,1353422444264574982
0.5,0.5,5,3,7155839922133517880
0.5,0.5,6,7,3041160713310812712
0.5,0.5,4,3,5513320221710647947
0.5,0.5,2,9,4004225636378966784
0.5,0.5,4,8,3547834957626730733
0.5,0.5,2,4,7381641044876277200
0.5,0.5,5,8,5634747764339513693
0.5,0.5,9,8,1901908660964980762
0.5,0.5,7,3,1188644775816149065
0.5,0.5,6,3,3787097656419555943
0.5,0.5,8,8,3002233333109464416
0.5,0.5,8,3,8673193585060579790
0.5,0.5,3,9,8918366842823836140
0.5,0.5,9,3,3822818042029382007
0.5,0.5,3,4,6360953579188614747
0.5,0.5,7,8,2552768590991661660
0.5,0.5,6,8,6588217542447511615
0.5,0.5,4,9,6226249155235920061
0.5,0.5,7,4,4436004597881454511
0.5,0.5,4,4,6289548759551873232
0.5,0.5,5,9,3788881878477967117
0.5,0.5,5,4,2149830490961136220
0.5,0.5,9,9,5292101349181989519
0.5,0.5,8,9,8418740507478633900
0.5,0.5,8,4,2820227519416883895
0.5,0.5,6,4,3065122254701944521
0.5,0.5,9,4,6374851991208007328
0.5,0.5,7,9,342326813239597116
0.5,0.5,6,9,4473435324714058386
