d,mu,weight_set,opinion_set,sim_seed
0.1,0.1,0,6,2981958019573478262
0.1,0.1,2,4,4149504201011554662
0.1,0.1,3,0,8074423758706403779
0.1,0.1,4,8,4773794849400812463
0.1,0.1,6,6,4229475654966236999
0.1,0.1,7,2,4207232576834144223
0.1,0.1,9,6,506262262540488627
0.1,0.3,0,8,8841569928537539163
0.1,0.3,3,2,1249098437363769683
0.1,0.3,5,6,972830221795285130
0.1,0.3,6,8,799094542731343749
0.1,0.3,7,4,5721726150338440991
0.1,0.3,8,0,1577981373460203425
0.1,0.1,4,2,741169253832723813
0.1,0.1,5,4,2593013950266209609
0.1,0.1,7,8,7336899475379897086
0.1,0.1,8,4,1215584008714211154
0.1,0.3,2,6,4424694021728297630
0.1,0.3,4,4,750761331215709107
0.1,0.3,5,0,3340122407670471029
0.1,0.3,8,6,2706330255238622682
0.1,0.1,1,2,3615127496549918876
0.1,0.3,9,8,4898173223103914687
0.1,0.5,1,0,1584740354724474997
0.1,0.5,0,4,6293378686085525318
0.1,0.5,3,4,3713279307486682930
0.1,0.5,1,6,7434443904097584713
0.1,0.1,1,8,4427064000051637134
0.1,0.5,2,8,425844384927101922
0.1,0.1,0,0,3485684038578123539
0.1,0.1,6,0,1514904435530999948
0.1,0.3,2,0,859135337144795192
0.1,0.1,3,6,4358804330731535276
0.1,0.3,0,2,8596115445295546428
0.1,0.1,9,0,4678503851238712698
0.1,0.3,1,4,2708783792161889061
0.1,0.3,3,8,4002719250831720320
0.1,0.3,6,2,8483697028020157717
0.1,0.3,9,2,7954208428733400922
0.1,0.5,2,2,1397948228134308020
0.1,0.5,2,9,5788459307998774350
0.1,0.3,2,1,7695984950360876927
0.1,0.5,2,3,4050741948738196569
0.1,0.3,6,3,3693665072726069452
0.1,0.3,1,5,8587073366390697619
0.1,0.3,2,7,996140752635249634
0.1,0.3,0,3,3673399636006572942
0.1,0.3,8,1,6658932980850853608
0.1,0.5,3,5,6427790200556215726
0.1,0.3,5,1,8885157774800578376
0.1,0.3,0,9,8255545008178280615
0.1,0.5,3,0,8352110524077338240
0.1,0.3,2,2,3820243497727145226
0.1,0.3,6,4,2086376354733929500
0.1,0.1,8,5,1761546055484554399
0.1,0.3,3,3,1549199231943154097
0.1,0.1,1,3,7520286602711824977
0.1,0.5,2,4,7233328878249398983
0.1,0.3,2,8,4475282708150966786
0.1,0.1,9,7,7191381909023633874
0.1,0.3,8,7,7319624961132057092
0.1,0.3,1,6,7909219303330832992
0.1,0.3,4,5,3066759121743590691
0.1,0.3,5,7,3879490154061929621
0.1,0.1,6,1,201776654112040902
0.1,0.5,1,1,1012969626659509751
0.1,0.5,1,7,144680076697001784
0.1,0.1,6,7,3796197038280811634
0.1,0.5,0,5,6306414311775860065
0.1,0.1,3,1,2800132697291730100
0.1,0.3,5,2,4730580885219855387
0.1,0.1,9,1,2610969386002311425
0.1,0.1,3,7,1450485923789214939
0.1,0.3,1,0,3037941389373204010
0.1,0.1,7,3,1851691983578308371
0.1,0.5,3,1,948873999621417314
0.1,0.3,9,3,3606061443576927800
0.1,0.3,2,9,441282447740997459
0.1,0.1,4,9,2320355537569693944
0.1,0.3,3,4,3059575601238865613
0.1,0.5,3,6,8677280391482388982
0.1,0.5,1,8,5523796825251947889
0.1,0.3,6,9,3668121371817110864
0.1,0.3,0,4,6989764918221522198
0.1,0.3,2,3,6918145773977175311
0.1,0.3,4,6,8641076673363670486
0.1,0.1,4,3,6364171098912963726
0.1,0.1,2,5,8591206972573521915
0.1,0.5,3,2,2128631625880646270
0.1,0.5,3,7,8873811896929402328
0.1,0.3,8,2,6158900663244940934
0.1,0.3,7,0,7135640803974076694
0.1,0.1,1,4,8829223043269673517
0.1,0.3,6,5,5155524742578586389
0.1,0.3,3,9,8802799775785077103
0.1,0.1,8,6,5311171616348688905
0.1,0.3,4,7,5697684362590305239
0.1,0.3,5,8,8838258643576980076
0.1,0.5,0,6,58369615121205623
0.1,0.3,2,4,7183327068095394108
0.1,0.3,5,3,5718381706943450737
0.1,0.5,1,9,7452358585022974200
0.1,0.5,3,3,7721598256573571192
0.1,0.5,2,5,6303307486374896973
0.1,0.3,9,9,9015426322649361923
0.1,0.1,6,2,1133168971594336468
0.1,0.1,3,2,1531949253560469510
0.1,0.1,5,0,8673658517085863673
0.1,0.5,0,7,6034478296454550440
0.1,0.3,3,5,6759719734345846931
0.1,0.3,6,6,7605957927606737633
0.1,0.5,4,0,8478304171243564093
0.1,0.1,9,2,2000067623118733875
0.1,0.1,6,8,7720368855940905326
0.1,0.5,2,6,5138396125888197135
0.1,0.1,2,6,8334416294009574571
0.1,0.5,0,0,4691062409151189400
0.1,0.5,3,8,3082961209409740467
0.1,0.3,5,4,1906897789390774553
0.1,0.3,2,5,1213676698803496137
0.1,0.3,8,3,6514743084145713758
0.1,0.5,0,8,3006711604314320104
0.1,0.1,4,4,704284362841709268
0.1,0.5,4,1,8248004605560757653
0.1,0.1,1,9,8832162855706707467
0.1,0.1,3,8,7570166006450473260
0.1,0.3,7,5,2033590697503032580
0.1,0.5,2,7,529611743806604883
0.1,0.3,3,0,1795286149406963991
0.1,0.3,8,8,6023762715087623093
0.1,0.3,0,5,6211954641110488907
0.1,0.1,0,1,3373831820770216005
0.1,0.3,4,8,8470584782222979081
0.1,0.3,3,6,7931180360767351640
0.1,0.5,3,9,739350821127201348
0.1,0.5,0,1,5962405768257610447
0.1,0.5,4,2,210741867749648556
0.1,0.5,0,9,3176702372402605503
0.1,0.1,6,3,744926344326402552
0.1,0.3,3,1,2758793571863375989
0.1,0.3,8,4,4396452412337417349
0.1,0.5,2,0,7909471502516156771
0.1,0.1,9,3,1959075191336294331
0.1,0.3,7,1,3668201753709512884
0.1,0.1,2,7,4532229448321251113
0.1,0.5,0,2,7807410440532586377
0.1,0.3,5,9,1903150919202484098
0.1,0.3,3,7,2532845153842423501
0.1,0.5,1,2,2435752479925885460
0.1,0.3,1,7,4537373123363662974
0.1,0.1,5,1,1563399152167701147
0.1,0.1,3,3,7264048918600543458
0.1,0.1,0,7,7427507188209213471
0.1,0.3,8,9,2211662945654874997
0.1,0.3,8,5,995611227815633532
0.1,0.5,0,3,2982871760287128112
0.1,0.5,4,3,4865439663376522246
0.1,0.3,6,7,4459169010778351907
0.1,0.1,0,2,3267389331253205153
0.1,0.1,3,9,7338210379797776641
0.1,0.5,1,3,3663571275955715296
0.1,0.3,7,2,477497745828650705
0.1,0.3,1,8,1753308663660405295
0.1,0.5,2,1,2126614106060518102
0.1,0.5,4,6,6974042069798915358
0.1,0.3,4,0,3666072525366217669
0.1,0.1,2,0,4061945233724699607
0.1,0.5,5,2,6011605090889459959
0.1,0.1,5,5,4932907631601879802
0.1,0.5,5,8,44447118967560594
0.1,0.3,9,0,7854896305332789350
0.1,0.1,7,4,4088528405216695926
0.1,0.5,1,4,2544894341115402244
0.1,0.3,0,6,2625089884452392207
0.1,0.5,4,7,6770246116645714589
0.1,0.1,9,4,369604264846358907
0.1,0.3,4,1,2277385760823243402
0.1,0.5,6,4,5463187683004522054
0.1,0.5,5,9,3159542052244970065
0.1,0.1,5,2,5404070194657729221
0.1,0.5,7,0,7780019017162794048
0.1,0.5,7,6,7590927328031174481
0.1,0.5,8,2,1963233656070384980
0.1,0.3,7,3,8782361465925376025
0.1,0.1,0,3,2089605052470005078
0.1,0.5,1,5,7466758590712500920
0.1,0.1,2,8,5303137402775546791
0.1,0.1,8,7,375484214394872946
0.1,0.5,5,3,1927868101623284266
0.1,0.1,4,0,2818990576439905323
0.1,0.3,4,2,1816556442908530207
0.1,0.3,9,1,4789696248204659347
0.1,0.5,7,7,2884871909249849100
0.1,0.3,1,9,4222255899918316812
0.1,0.5,4,4,3410657107661682255
0.1,0.5,4,8,1439011636519257860
0.1,0.3,1,1,6949690518964236555
0.1,0.5,8,8,8203579360562320943
0.1,0.5,9,4,6000571300403389268
0.1,0.1,6,9,2678262088875505756
0.1,0.3,4,9,3712598419008255993
0.1,0.3,0,7,1991708435456475568
0.1,0.1,2,1,8398826123869989024
0.1,0.1,5,6,8210741793509074945
0.1,0.5,5,4,7251186645524346647
0.1,0.5,4,9,3320597905142488361
0.1,0.5,8,9,2709678535288829113
0.3,0.1,0,0,5258162233228487071
0.1,0.5,7,8,8736583385797609429
0.1,0.5,6,5,5373990536735378325
0.1,0.1,9,8,4652553513609027449
0.1,0.1,5,3,8839773087585314131
0.1,0.5,9,5,221389714814153794
0.3,0.1,0,6,1121754722570907176
0.1,0.1,0,4,8578947693843108260
0.1,0.3,4,3,8938069082061427466
0.1,0.1,2,9,1312289547363650156
0.3,0.1,1,2,9060437809298656119
0.1,0.5,5,5,6150872380421358086
0.1,0.5,9,0,1741533332622403701
0.1,0.5,5,0,2001353818123848792
0.1,0.3,5,5,4269997263089657021
0.1,0.1,6,4,7828122021605857213
0.1,0.1,4,1,9092461165287059554
0.1,0.5,8,3,6572837374445609109
0.1,0.1,7,9,8581269974207385520
0.1,0.3,9,4,4663568531361311389
0.1,0.5,5,6,1706858969842098940
0.1,0.5,9,6,712646444599034409
0.1,0.3,1,2,3233329607706665492
0.1,0.3,6,0,518254833600972155
0.1,0.5,7,9,7074024852659156447
0.1,0.1,7,5,768918428859052026
0.3,0.1,1,8,2994880016680772450
0.1,0.5,8,4,6829972409311893840
0.1,0.1,0,8,642556886079416048
0.1,0.1,9,9,4144503677141403329
0.3,0.1,2,4,8070757330915801789
0.1,0.1,0,5,1026903517129178067
0.3,0.1,3,0,1636368364283217625
0.1,0.5,8,0,8752737549802084661
0.1,0.5,5,7,3590200687449643947
0.1,0.3,6,1,5004830139492067590
0.1,0.5,6,0,7566684277536374283
0.1,0.3,1,3,2807867033280013178
0.3,0.1,1,3,9208928761473681634
0.1,0.5,8,5,7807483378126384780
0.1,0.5,6,6,4440815501199388146
0.1,0.1,4,5,5955236721259172797
0.3,0.1,3,6,1703471263698723694
0.3,0.1,4,2,5310341904331584366
0.1,0.5,8,1,9190976207124988788
0.1,0.5,6,7,7198322300379326032
0.1,0.5,6,1,6192846599921023705
0.3,0.1,4,8,3760506225645227119
0.1,0.1,8,0,6056405737974523524
0.1,0.5,7,1,3834869106437235274
0.1,0.1,9,5,2024293865412915922
0.1,0.3,7,6,6146433857096734906
0.3,0.1,5,4,3411795380335210758
0.1,0.5,9,1,4949022500076024225
0.3,0.1,6,0,5649193932642164054
0.1,0.1,8,8,7519624746079017329
0.1,0.3,0,0,7289598073877201080
0.3,0.1,1,9,5198334158621989227
0.1,0.5,6,2,7180292895864282470
0.1,0.3,9,5,6544849601889858438
0.1,0.1,2,2,4303771495092582823
0.3,0.1,2,5,7080375950190201251
0.3,0.1,3,1,6413616539407711379
0.1,0.1,7,0,3585923212409429403
0.3,0.1,6,6,7809820946400964747
0.3,0.1,1,4,5055200780953074894
0.1,0.5,6,8,5545687212628116056
0.1,0.5,5,1,2855674278298651004
0.1,0.5,7,2,3746701364803719549
0.1,0.1,5,7,6783628698823215192
0.1,0.1,4,6,8781867589134118591
0.1,0.5,6,3,7024616488010738465
0.3,0.1,3,7,4344512425874233395
0.1,0.5,8,6,6027412412675275927
0.3,0.1,7,2,722050460523796814
0.3,0.1,4,9,4688138830014714748
0.3,0.1,7,8,4769463091293544145
0.3,0.1,8,4,2082013166538357454
0.1,0.3,9,6,9117648920506452401
0.3,0.1,9,0,7671065524936482106
0.3,0.1,9,6,3958100732897017300
0.3,0.3,0,2,2745460818177306808
0.1,0.1,0,9,143889237526816980
0.3,0.1,5,5,2146770627908681464
0.3,0.3,0,8,6033023412453511917
0.1,0.3,0,1,5308088239107877157
0.1,0.1,8,9,3237837711815539327
0.3,0.1,6,1,2852976137420299558
0.3,0.1,2,0,2474202095446243596
0.1,0.1,1,5,9121063319953279862
0.1,0.3,7,7,2059358522315566748
0.3,0.1,2,6,8409134311554127082
0.3,0.1,3,2,2962907829437071152
0.1,0.5,8,7,8605686433897027184
0.1,0.5,9,2,7180669605438004321
0.3,0.1,6,7,5485954215071456278
0.3,0.3,1,4,4970055970831727300
0.3,0.1,1,5,4440631517869725069
0.3,0.3,0,3,5546903962749858632
0.1,0.1,4,7,4041021944595670575
0.1,0.5,6,9,1770826595682409421
0.1,0.1,8,1,2686898227173689188
0.1,0.3,9,7,6760404340348691136
0.3,0.1,7,3,3542953042529845801
0.3,0.3,2,0,542014178477437218
0.3,0.1,3,8,3646456669579872848
0.3,0.1,5,0,4674652168805222295
0.1,0.5,9,7,650124308458740634
0.3,0.1,8,5,7733693659921670149
0.3,0.1,9,1,424811446870437894
0.1,0.1,1,0,2740190441929456153
0.3,0.1,7,9,2269490544973715965
0.1,0.5,7,3,6371064924213516803
0.3,0.1,9,7,9191889680036245697
0.3,0.3,0,4,1655908531534887424
0.3,0.3,2,6,4944101839713572580
0.3,0.1,5,6,797018072045754990
0.3,0.3,3,2,2747208835390321065
0.3,0.1,6,2,7561080337732114699
0.1,0.3,7,8,3166061737906754021
0.1,0.5,4,5,3156417140098151002
0.1,0.1,7,1,7941001487424388991
0.3,0.1,2,1,2776476914442583899
0.3,0.1,3,3,2199015104338623689
0.3,0.1,2,7,6678687738947998456
0.3,0.3,3,8,6999714588576791875
0.3,0.1,6,8,6960739975397180732
0.3,0.1,1,6,5305412723013333877
0.3,0.3,0,5,5711633994060654479
0.1,0.1,1,6,3714840666098122698
0.1,0.5,9,8,194763589100304835
0.3,0.3,4,4,327833315421095984
0.3,0.3,2,7,1298223967541266552
0.1,0.5,9,3,5570823853075934669
0.3,0.1,7,4,1099143631939708339
0.3,0.3,3,9,653049384300584576
0.1,0.5,7,4,3014614049634435861
0.1,0.1,1,1,4866119888349501095
0.3,0.1,5,1,3043638070332662777
0.3,0.1,9,2,2333430790431508233
0.3,0.1,8,6,7083841563109803342
0.1,0.1,6,5,6970488319408368013
0.3,0.1,8,0,1249287629674249811
0.3,0.3,0,6,2054981367806626861
0.3,0.1,9,8,8597566048530500486
0.3,0.3,5,0,8659891191569868168
0.3,0.1,5,7,3163443992688336616
0.1,0.5,9,9,1348490035836788415
0.3,0.3,2,8,3884730987386515861
0.1,0.1,5,8,1996658165538496924
0.3,0.1,6,3,132820525069172847
0.3,0.1,2,8,1871618337042133084
0.3,0.1,3,4,3342549818707949270
0.3,0.3,4,0,1235336014319690060
0.1,0.3,7,9,5671267598389320646
0.3,0.1,6,9,2443343772391280775
0.3,0.3,5,6,2532230622664183910
0.3,0.1,1,7,705457647462434455
0.3,0.3,0,7,9181849671517111015
0.1,0.1,1,7,8539307708624471318
0.3,0.1,7,5,3444862402335905683
0.1,0.1,2,3,3569772402787631472
0.3,0.3,1,5,5669399984814137479
0.3,0.3,4,1,5916655785519824927
0.3,0.3,6,2,3089924746609140307
0.3,0.1,8,7,1173380774907545162
0.3,0.1,5,2,2051569733152137130
0.3,0.1,9,3,5034433907929717949
0.3,0.3,5,7,6045804501405889665
0.3,0.1,8,1,3826938974849553694
0.1,0.1,3,4,7460680617437276578
0.3,0.1,5,8,6097016168625459972
0.1,0.1,7,6,334794287591260179
0.3,0.3,6,8,7155457333071624380
0.3,0.1,6,4,8475334841964886792
0.3,0.1,3,5,1672833830211488648
0.3,0.1,7,0,3147536567054314250
0.3,0.3,5,8,3965966180459548715
0.3,0.3,7,4,6291651778633195621
0.3,0.3,8,0,8734426476016118018
0.1,0.1,5,9,6308494134126142775
0.3,0.3,8,6,1030107206487078605
0.3,0.3,9,2,4917791211308587967
0.3,0.1,7,6,4946726517243098045
0.3,0.1,5,3,6108191748271274632
0.3,0.1,8,8,1106144293817728391
0.3,0.1,9,4,1672718136937284782
0.3,0.3,7,5,2399075730414780979
0.3,0.3,8,1,387313437969275668
0.3,0.1,8,2,1050082829390650043
0.3,0.3,9,8,792000297939325529
0.3,0.3,9,3,7139610575713052204
0.3,0.1,5,9,2569078828569172144
0.3,0.3,8,7,2619303733729929350
0.3,0.1,6,5,368402960297235962
0.3,0.5,0,4,1103122487301232026
0.3,0.1,7,1,6752604510417483738
0.1,0.1,7,7,4966902620027765435
0.3,0.3,8,2,1030783560165954471
0.3,0.3,9,4,1602801967349826203
0.3,0.1,7,7,766890397027029174
0.3,0.5,1,0,3389662030092402660
0.3,0.1,8,9,8188132614608553632
0.3,0.1,9,5,3979590663997844435
0.3,0.1,8,3,8508178946681872522
0.3,0.3,8,3,3979577568160252011
0.3,0.5,1,6,272469278172946262
0.3,0.5,2,2,1663308920203164342
0.3,0.5,2,8,6505927430820922242
0.3,0.5,1,7,7822120264546474223
0.3,0.5,3,4,7475111326997588870
0.3,0.5,4,0,3952148111344341408
0.1,0.5,7,5,69575440844928578
0.3,0.5,4,6,6230225658386311742
0.3,0.5,5,2,5058077521575391301
0.3,0.5,5,8,872901924025303466
0.3,0.5,5,9,6503862462776417420
0.3,0.3,5,1,5306481236907427158
0.3,0.5,6,4,667429458888717908
0.3,0.3,5,2,3414182721175816048
0.1,0.1,3,5,3842546294550905277
0.3,0.5,1,1,6252986038106961446
0.3,0.5,7,0,894380326652670880
0.1,0.1,8,2,2533717977465017267
0.3,0.5,7,6,1375877626373064352
0.3,0.3,0,9,156637675975571093
0.3,0.5,7,7,5453689448302317749
0.3,0.5,1,8,8488825170673549456
0.3,0.3,1,0,6481225659352182463
0.3,0.3,9,5,3099941185993912247
0.3,0.3,9,6,2592165801700559945
0.3,0.5,8,2,2255794948341021155
0.3,0.5,2,3,2149062773218571998
0.3,0.5,4,1,9105924884401249493
0.3,0.5,2,4,1762708784649106872
0.1,0.1,8,3,2583885402815439112
0.3,0.5,4,7,4921354872224225470
0.3,0.5,1,2,7794060808905982823
0.3,0.5,4,8,295541521197398262
0.3,0.3,8,4,7011524353815228298
0.3,0.5,8,8,6505394317717504334
0.3,0.3,4,5,3432217326621882336
0.3,0.5,9,4,6266846580332247553
0.3,0.3,5,9,6968527017564085230
0.3,0.3,4,6,222926859634771461
0.3,0.5,1,3,1446164566556093062
0.3,0.3,7,6,6211389818593350082
0.3,0.3,6,0,3239687842238159020
0.3,0.3,4,2,2267302397928226901
0.3,0.3,6,1,5496143082969533929
0.5,0.1,0,0,5994162506717140411
0.3,0.3,6,9,3395377872781439429
0.3,0.1,2,2,2500821359897487699
0.3,0.5,3,5,6393608998819368741
0.5,0.1,0,1,8441089062183346484
0.3,0.3,7,0,3387482094894857040
0.3,0.5,3,6,5077970074990141370
0.3,0.3,2,9,4894943005152744900
0.3,0.1,2,3,1696571850418293921
0.3,0.5,5,3,2375532232141771225
0.5,0.1,0,2,292946887708396094
0.3,0.3,3,0,7407972625116859701
0.3,0.5,4,2,8602893980197316825
0.3,0.3,1,1,2699747421043252791
0.5,0.1,0,6,7839885484610409154
0.3,0.3,9,9,553774238755790204
0.3,0.3,1,2,3059663954904299461
0.5,0.1,0,3,7896813850190172647
0.3,0.3,6,3,1541418441589815363
0.3,0.5,0,0,946338761570423817
0.3,0.5,9,5,1349628924414745654
0.3,0.5,1,9,4770132442242822605
0.5,0.1,0,7,3857551755577838230
0.5,0.1,0,4,326783319845321976
0.3,0.3,6,4,798010914248431327
0.3,0.3,3,3,2348531270083261694
0.5,0.1,0,8,4235728367841164423
0.5,0.1,0,5,3325290372526243805
0.3,0.3,7,7,8766370347973253070
0.3,0.5,6,0,891854408435727565
0.3,0.3,9,7,5953208875915879835
0.3,0.5,6,1,7266060944063758228
0.3,0.3,7,8,5283655979674693175
0.5,0.1,0,9,8880893722480032729
0.5,0.1,1,2,8811723702331907285
0.5,0.1,1,0,7629057744896005869
0.5,0.1,1,3,3665189404859621053
0.3,0.3,8,5,7724747058427452781
0.3,0.5,6,2,3812702808591561413
0.5,0.1,1,1,7875328433637549752
0.5,0.1,1,8,1279838332642111549
0.3,0.5,6,3,2756492034460976115
0.5,0.1,1,4,2329280907889314237
0.3,0.3,4,3,8901621652013349566
0.3,0.3,1,3,8036767701783898802
0.3,0.3,1,6,4709388229254635223
0.3,0.5,3,7,6107942112292867690
0.5,0.1,2,4,5169694366198009084
0.3,0.3,1,7,3391203336357693946
0.5,0.1,3,0,5943134043597125800
0.5,0.1,1,9,5742739387950207894
0.5,0.1,1,5,2386115466750480391
0.3,0.3,7,1,2285896157195730903
0.3,0.5,4,9,3296043921743740825
0.3,0.3,1,8,2097688533746848567
0.3,0.5,7,8,7819152328604292528
0.5,0.1,2,5,3895406679157882111
0.5,0.1,3,1,8867458179024348419
0.3,0.3,7,2,1170671253801117392
0.5,0.1,2,0,584532514920178516
0.5,0.1,1,6,3394137989474162116
0.3,0.5,7,1,5571038159382045747
0.3,0.5,2,9,1972317731591948778
0.3,0.5,4,3,3937911375937914051
0.5,0.1,2,6,3737790432028358115
0.5,0.1,1,7,3661429478590263155
0.5,0.1,3,2,588415267577789478
0.5,0.1,2,1,4781673720306002211
0.5,0.1,2,7,2232601125568474221
0.5,0.1,3,3,245875283120484689
0.5,0.1,3,6,799131912371716105
0.5,0.1,2,2,7662222850507112307
0.3,0.5,5,4,3266573797332848489
0.3,0.5,3,8,8494323624665283872
0.3,0.3,3,1,9030271492318092702
0.3,0.5,5,5,2058612275741994013
0.5,0.1,2,8,6854393758972291405
0.3,0.1,0,7,334723275387747617
0.5,0.1,3,7,409499570724426451
0.5,0.1,3,4,1635702776864292307
0.5,0.1,2,3,5879811066900438247
0.5,0.1,2,9,1520548996860467513
0.5,0.1,3,8,3203977320116132431
0.5,0.1,3,5,6057535230271466436
0.5,0.1,4,2,224608156875773986
0.3,0.1,0,8,6301625990959831210
0.3,0.5,7,2,433394136090220781
0.5,0.1,4,8,2785578278184281756
0.5,0.1,5,4,685862230052826774
0.5,0.1,3,9,3737720370559541576
0.5,0.1,4,3,5000028233569100153
0.3,0.5,8,9,6313357789888108645
0.3,0.1,0,9,77721032719927671
0.3,0.3,7,3,5234862600166446589
0.5,0.1,4,9,107512269968256442
0.5,0.1,5,5,2655473121069837499
0.5,0.1,4,0,1524091520403341184
0.5,0.1,4,4,5419401799354348533
0.5,0.1,6,0,5047065532292110007
0.3,0.5,0,5,585957138457317076
0.3,0.1,1,0,498262173582969563
0.5,0.1,5,0,8919082795553408406
0.5,0.1,5,6,3101971003159177037
0.3,0.3,2,1,1454611156152531652
0.3,0.5,0,6,2305078259089494984
0.5,0.1,4,1,650569301860672566
0.5,0.1,4,5,8321722913296841705
0.5,0.1,6,1,5316680383794018383
0.3,0.5,8,3,4509634877023352742
0.3,0.5,2,0,1937994607858239013
0.3,0.5,6,5,1307329475915500747
0.3,0.1,1,1,8923516102382789257
0.5,0.1,5,1,920355868376637057
0.5,0.1,5,7,6212114990988217016
0.5,0.1,4,6,8890266030465695626
0.5,0.1,6,6,575931614867690423
0.3,0.3,5,3,6694156129398511982
0.5,0.1,6,2,2070099700516186875
0.5,0.1,5,2,5775094685428503713
0.3,0.3,5,4,2705333719723886554
0.5,0.1,5,8,5253236175715901133
0.3,0.3,4,7,3507877357009130517
0.5,0.1,7,2,4257838369588574389
0.5,0.1,4,7,38052241036132659
0.5,0.1,6,7,3896029809518940262
0.5,0.1,6,3,7523007503445491723
0.3,0.3,3,4,433894686835844115
0.3,0.3,4,8,1591160011307599262
0.5,0.1,5,9,1197868386354742198
0.5,0.1,5,3,5422400793041103382
0.3,0.5,7,9,1904577995080048415
0.5,0.1,7,3,4181642411127647412
0.5,0.1,7,8,643085454962896821
0.5,0.1,6,8,1824817711937896685
0.5,0.1,6,4,1815748925927248689
0.3,0.5,8,0,5030320671849560654
0.3,0.3,7,9,6452579148565060851
0.5,0.1,8,4,5713796005844171434
0.5,0.1,9,0,2942982573084250274
0.3,0.5,0,7,588603143471833070
0.3,0.5,8,1,2904454061075641606
0.5,0.1,7,4,45199730324351877
0.5,0.1,7,9,1283453524311817770
0.5,0.1,6,9,618373719023179270
0.5,0.1,6,5,8930697001474272432
0.3,0.5,3,9,9048093948856011577
0.5,0.1,9,6,4571125548028011161
0.5,0.1,8,5,7635232829406311270
0.5,0.1,9,1,3771525015810868020
0.5,0.1,7,5,4721108601577011850
0.5,0.1,8,0,4993873555478608519
0.5,0.1,7,0,4488189832624343920
0.5,0.3,0,2,712791947254625746
0.5,0.3,0,3,1932541050240591056
0.5,0.1,9,7,8038869139634580985
0.5,0.1,8,6,3446343682842421952
0.5,0.1,9,2,8997514840659012653
0.3,0.5,6,6,5376581575913456049
0.5,0.1,7,6,4546508646336796294
0.3,0.3,1,9,549003710127126923
0.5,0.3,0,8,2007236493164008121
0.5,0.1,7,1,1575741266780484240
0.5,0.1,8,1,3682731244804583983
0.5,0.3,0,4,2738149278850514550
0.3,0.5,5,6,6677799486647507697
0.5,0.3,1,4,3305721571310133894
0.5,0.3,0,9,8807503164084078259
0.5,0.3,2,0,8084303260968796337
0.5,0.1,8,7,2065573927392069053
0.5,0.1,9,8,1947620636665580229
0.5,0.3,0,5,8778352602008030731
0.5,0.1,9,3,7399506380831315314
0.5,0.1,7,7,4342298170145760608
0.5,0.3,1,5,4850064379597812508
0.3,0.5,9,6,6848692785638284757
0.5,0.3,1,0,6116289959578474871
0.5,0.3,2,6,8953387945882101065
0.3,0.5,9,0,3567596908183350254
0.5,0.1,8,2,1725665778656976383
0.5,0.3,2,1,2994828634766539713
0.5,0.3,0,6,8626456426580856914
0.5,0.3,1,6,6396035505378961882
0.5,0.3,1,1,6216328654589250524
0.5,0.3,2,7,8609373326784813670
0.5,0.1,9,9,6782818382593415077
0.5,0.1,8,8,4292804878027005782
0.5,0.3,2,2,7145191858259680149
0.5,0.3,0,7,2614280377545160585
0.5,0.1,9,4,7998344791559681826
0.5,0.3,3,2,7496846906262013763
0.5,0.3,1,7,4645240757947267138
0.5,0.3,1,2,8294274147580810423
0.5,0.1,8,3,2601393152646438455
0.5,0.3,2,8,174872873015889745
0.5,0.3,3,8,8288184072994077106
0.5,0.3,2,3,1487108240562763871
0.5,0.3,4,4,3271602011015429528
0.5,0.3,3,3,3278683078053824268
0.5,0.3,1,8,6882278824875491396
0.5,0.3,0,0,4812256485988350438
0.5,0.3,2,9,6713336179058390577
0.5,0.3,1,3,400761973198326973
0.5,0.1,8,9,1429357561147851008
0.5,0.3,3,9,3807497236404635694
0.5,0.1,9,5,1238691001430576712
0.5,0.3,4,5,6955448349438787908
0.5,0.3,2,4,3360343436793774412
0.5,0.3,3,4,1221371261708519480
0.5,0.3,5,0,5084985274915391795
0.5,0.3,1,9,2000204471725488475
0.5,0.3,0,1,8738755862041597703
0.5,0.3,5,6,7992145862500049127
0.5,0.3,3,0,5561929210475694667
0.5,0.3,4,0,4839145240980636118
0.5,0.3,4,6,710630880917075606
0.5,0.3,2,5,6068675511400733934
0.5,0.3,3,5,2889424173169323885
0.5,0.3,5,1,4959665587391348977
0.5,0.3,6,2,2233387159325889720
0.5,0.3,6,8,633504243617548792
0.5,0.3,5,7,1292549875954522384
0.5,0.3,3,1,5541077468529364848
0.5,0.3,7,4,4533767239537506479
0.5,0.3,4,1,25408482908598436
0.5,0.3,8,0,5359109355583381899
0.3,0.5,4,4,8652323925624308668
0.5,0.3,8,6,8332263297010298521
0.5,0.3,4,7,6971661535261793328
0.5,0.3,3,6,5792032038941985134
0.3,0.5,3,0,2971764077772705823
0.5,0.3,6,3,2217289982792132596
0.5,0.3,5,2,6209984973561150034
0.5,0.3,6,9,2067715822831629587
0.5,0.3,5,8,2062209349845343109
0.5,0.3,9,2,6881696737796481883
0.5,0.3,7,5,7323343611163968315
0.5,0.3,4,2,3981416884596185561
0.5,0.3,8,1,7098527357644900295
0.3,0.5,4,5,5129640606959128420
0.5,0.3,4,8,4793654453727148796
0.5,0.3,8,7,8322976926499107084
0.3,0.5,3,1,5408438379903627534
0.5,0.3,3,7,8484732512596454416
0.5,0.3,6,4,7168908855749467254
0.5,0.3,5,3,2684425266532658449
0.5,0.3,7,0,4892067670023142165
0.5,0.3,5,9,5407242432460512662
0.5,0.3,9,3,6297248782143795676
0.5,0.3,7,6,2290365064473948386
0.5,0.3,8,2,6139118534917855226
0.5,0.3,4,3,5703235603876659454
0.5,0.3,4,9,2307073560932515991
0.5,0.3,8,8,4233799926831537094
0.3,0.5,8,4,1088248533215407878
0.3,0.5,3,2,4545913347324351235
0.5,0.3,9,8,5778790899460431510
0.5,0.3,6,5,1903686117372947330
0.5,0.3,5,4,4295676487193377076
0.5,0.3,7,1,1442045637981235450
0.5,0.3,6,0,8010145187656595340
0.5,0.3,9,4,7199810989993514957
0.5,0.3,7,7,6787284616720511448
0.5,0.5,0,4,4402289660544579336
0.3,0.5,1,4,3227151142629205653
0.5,0.3,8,3,1896487222111745908
0.3,0.5,2,5,8587096108900548001
0.5,0.3,8,9,7165877909978694276
0.5,0.5,1,0,5863022233133194552
0.5,0.3,9,9,2101462423149077706
0.5,0.3,5,5,434449105965845486
0.5,0.3,6,6,763142569753118255
0.5,0.3,7,2,4341529812133539820
0.5,0.3,6,1,7569515723973431662
0.5,0.3,9,5,1784255138891383104
0.5,0.5,1,6,1780195186072049180
0.5,0.5,0,5,9153814337761984302
0.5,0.3,7,8,7120373829101024693
0.5,0.3,8,4,4659005996630761283
0.5,0.5,1,1,6674919255736431622
0.3,0.3,5,5,5944047126716657751
0.5,0.3,9,0,376806412727077920
0.5,0.5,0,0,386511941667576996
0.5,0.3,6,7,5031879009144288042
0.5,0.3,7,3,994215022508538129
0.5,0.5,1,7,4381293958256861719
0.5,0.5,0,6,7729696379820321134
0.5,0.5,2,2,8689893366391956019
0.5,0.5,2,8,5948535569270588592
0.5,0.3,9,6,3679634715701325565
0.3,0.5,6,7,9042307499406038037
0.5,0.3,7,9,4842918630288750707
0.5,0.3,8,5,3820577770099802439
0.5,0.5,1,2,5191566078143890967
0.5,0.5,0,1,373635801649958721
0.5,0.3,9,1,191363289952065461
0.5,0.5,3,4,1603215815791573687
0.5,0.5,4,0,9159630852450853449
0.5,0.5,1,8,6474084853511988154
0.5,0.5,0,7,3403212386297625799
0.5,0.5,2,3,1183574458712244061
0.5,0.5,2,9,6236079276978342990
0.5,0.5,4,6,3154953668092652306
0.5,0.3,9,7,8089098712877857899
0.5,0.5,5,2,926726306493983554
0.5,0.5,1,3,3677357757366505340
0.5,0.5,5,8,456212669296802682
0.5,0.5,0,2,7340043012584768874
0.5,0.5,3,5,8612068936314583752
0.5,0.5,4,1,2505349363985390387
0.5,0.5,0,8,4196520406867139438
0.5,0.5,1,9,7875909270620475011
0.3,0.1,4,3,1159030349034216887
0.5,0.5,6,4,2132884515697085756
0.5,0.5,2,4,1350734813759558083
0.5,0.5,3,0,5425302889965620850
0.5,0.5,4,7,7769591084528672615
0.5,0.5,5,3,161183858770801578
0.5,0.5,1,4,1615091110790132567
0.5,0.5,7,0,7584110622870587002
0.5,0.5,5,9,2332673483150292740
0.5,0.5,0,3,5285544829586081388
0.5,0.5,4,2,8570234577717470869
0.5,0.5,3,6,3434252538071957224
0.5,0.5,0,9,6891046580687698543
0.5,0.5,2,0,2505520463560028519
0.5,0.5,6,5,2051654397080095620
0.5,0.5,2,5,2962943474835441595
0.5,0.5,3,1,6602007953203738858
0.5,0.5,4,8,5764424158377698456
0.5,0.5,1,5,3828315167422897978
0.5,0.5,7,1,2711516346709671713
0.5,0.5,5,4,9179153435651381097
0.5,0.5,6,0,5991554427159616482
0.5,0.5,7,6,8348030303277140159
0.5,0.5,4,3,7001555839873489838
0.5,0.5,3,7,2614044177052400296
0.5,0.5,8,2,4074884853227530470
0.5,0.5,2,1,3013206385804197739
0.5,0.5,2,6,9114861287120986932
0.5,0.5,6,6,4312234855194908669
0.5,0.5,4,9,4604925539590779888
0.5,0.5,3,2,7553886651761310700
0.5,0.5,8,8,5486926771572504051
0.5,0.5,9,4,1775080625322171041
0.5,0.5,5,5,7599571253082852943
0.3,0.1,4,4,1949312361973586216
0.5,0.5,7,2,8926516385284986855
0.5,0.5,6,1,6850968259353921144
0.5,0.5,7,7,5729415476905418095
0.5,0.5,4,4,8771576088374999946
0.5,0.5,3,8,1652993958980527145
0.5,0.5,8,3,5126607555471518844
0.5,0.5,6,7,8714719174147530028
0.5,0.5,2,7,5571903104217868395
0.5,0.5,5,0,74473497263999003
0.5,0.5,3,3,727746218960713666
0.5,0.5,8,9,3366871517557762454
0.5,0.5,9,5,1181224972476407904
0.5,0.5,5,6,7337130553614645197
0.5,0.5,6,2,6639736928290241243
0.5,0.5,7,3,1116027752624562530
0.5,0.5,7,8,2191554830805662255
0.3,0.3,6,5,404989904192171711
0.5,0.5,3,9,7403174893872250280
0.5,0.5,8,4,6607803218508500986
0.5,0.5,4,5,789968243760334390
0.5,0.5,6,8,3000652922715246088
0.5,0.5,5,1,9164409147233540483
0.5,0.5,9,0,6226834624378031576
0.5,0.5,9,6,739446157493278462
0.5,0.5,5,7,7313910755802451329
0.5,0.5,6,3,242199292018764132
0.5,0.5,7,4,490045671392421194
0.5,0.5,7,9,6670037789011848608
0.5,0.5,6,9,1590675438916473196
0.5,0.5,8,5,1327920895206244867
0.3,0.1,4,5,5590547578591711815
0.3,0.3,3,5,502793300769810076
0.5,0.5,9,1,2669978286901427394
0.5,0.5,9,7,7072770009275838335
0.5,0.5,7,5,6686714571003403987
0.5,0.5,8,0,1898577624528241891
0.5,0.5,8,6,3512007242121006954
0.3,0.3,3,6,5734842456409224963
0.3,0.5,9,1,680543596875713070
0.5,0.5,9,2,5234059281406117563
0.5,0.5,9,8,5867719847129496817
0.5,0.5,8,1,7512944747010110948
0.5,0.5,8,7,270480088834208811
0.3,0.3,3,7,8572159640169617305
0.3,0.1,4,6,2320174119110210411
0.5,0.5,9,3,3384824221977430383
0.5,0.5,9,9,3964287104940408143
0.3,0.3,8,8,8424127530908013651
0.3,0.1,4,7,2957121094360689971
0.3,0.5,9,7,3512910567165723199
0.3,0.5,7,3,2842328437189697816
0.3,0.5,7,4,3599230088950708461
0.3,0.5,1,5,5410252779462173845
0.3,0.5,9,2,2693198524710985082
0.3,0.5,7,5,3972809775340078723
0.3,0.5,9,3,4798856405933746558
0.3,0.5,3,3,5570390312619141312
0.3,0.5,5,7,2903438845424219194
0.3,0.3,2,2,4104673477583368196
0.3,0.3,2,3,29182600125111492
0.3,0.5,2,1,2818905981957696509
0.3,0.3,8,9,4322818968486336860
0.3,0.1,3,9,225345975944558454
0.3,0.3,6,6,4731449618565849726
0.3,0.1,4,0,7670674554396206090
0.3,0.3,6,7,5659629729506029002
0.3,0.1,4,1,8395866287259382598
0.3,0.5,5,0,7622316534099809645
0.3,0.5,0,8,4865693529826653972
0.3,0.5,9,8,7008241214459025608
0.3,0.3,4,9,5577650222096284666
0.3,0.3,2,4,7066184490140698991
0.3,0.5,6,8,4214552362338319490
0.3,0.5,8,5,8843326691125310176
0.3,0.5,8,6,8942503360757872170
0.3,0.3,9,0,8762212763195006978
0.3,0.5,0,9,1248395465322030755
0.3,0.5,5,1,9058352604960599228
0.3,0.5,2,6,2509894273269643745
0.3,0.5,9,9,1975626378222403892
0.3,0.5,6,9,3356274169699080615
0.3,0.1,2,9,7855038343142363660
0.3,0.5,8,7,2474565225355616429
0.3,0.3,2,5,8812756933389348363
0.3,0.3,9,1,2438388030115432814
0.3,0.1,0,1,6713225572056160054
0.3,0.5,0,1,4245324641423785422
0.3,0.5,0,2,3931604319776043108
0.3,0.1,0,2,3336626141957999784
0.3,0.1,0,3,6513255292696733996
0.3,0.1,0,4,1080658370735930827
0.3,0.1,0,5,9193786727330275056
0.3,0.5,2,7,8334670558702415374
0.3,0.5,0,3,8861886411683537659
0.3,0.1,9,9,5501223694384841510
0.3,0.3,0,0,123090112095175200
0.3,0.3,0,1,628992443090111902
