d,mu,weight_set,opinion_set,sim_seed
0.1,0.3,0,0,8467497690786803457
0.1,0.3,1,0,5539488564525082817
0.1,0.3,2,5,2974333130057864403
0.1,0.3,4,0,5767133697077238238
0.1,0.3,5,0,1188888438645201893
0.1,0.3,6,0,5584823988422862155
0.1,0.3,7,0,4432209553518710844
0.1,0.5,0,0,3322691759537131984
0.1,0.5,1,0,2277773695406186733
0.1,0.5,3,0,6776619947608715132
0.1,0.5,4,0,1476851242786978339
0.1,0.5,7,0,833353360144543506
0.1,0.5,6,0,6938419463442982645
0.1,0.3,1,5,4138508560576687489
0.1,0.3,3,0,8190152922295247419
0.1,0.3,3,5,8166185045401379803
0.1,0.3,4,5,7991479297936489667
0.1,0.3,6,5,7186657218914603331
0.1,0.3,8,0,932344201405151133
0.1,0.3,8,5,4679760861864084756
0.1,0.3,9,0,6780907025154888413
0.1,0.3,9,5,4305380920177766163
0.1,0.5,2,5,8092284869610873110
0.1,0.5,2,0,4929833679863036585
0.1,0.5,5,0,7587481084110458963
0.1,0.5,5,5,6556935367782159897
0.1,0.5,6,5,1863272686965450958
0.1,0.3,5,5,2506452906937464789
0.1,0.3,7,5,5142234592117006987
0.1,0.5,1,5,7002315186479984673
0.1,0.5,3,5,3620589554657154322
0.1,0.5,4,5,1118059035908086896
0.1,0.3,0,5,6137357802387216880
0.1,0.3,2,0,408782705386177483
0.1,0.3,0,1,2536533290455244298
0.1,0.3,5,1,9052689172674165607
0.1,0.5,0,5,7414628990710141052
0.1,0.3,7,1,5862556676825608840
0.1,0.3,2,6,3929103686762630746
0.1,0.3,1,1,7060674303256510865
0.1,0.3,6,1,1363468803289422322
0.1,0.3,8,1,5271597485707623928
0.1,0.5,0,1,584059445096299433
0.1,0.5,2,6,6267421831967279885
0.1,0.5,4,1,988153499493577301
0.1,0.3,9,6,8016360355421620051
0.1,0.5,5,1,6351936983448410792
0.1,0.5,7,1,296278027888884299
0.1,0.5,6,6,928265427797301060
0.1,0.3,3,1,1502952036694141360
0.1,0.3,4,1,1017459069782401068
0.1,0.3,3,6,8490194246192202965
0.1,0.3,4,6,7111814442003549304
0.1,0.3,6,6,2522364837818745011
0.1,0.3,8,6,3088040224557034340
0.1,0.3,7,6,6507643211395375224
0.1,0.5,1,1,6838257484936413518
0.1,0.5,1,6,13131262211487163
0.1,0.5,3,1,2199507216958891247
0.1,0.5,3,6,4337675412095104758
0.1,0.5,6,1,2458333605534098544
0.1,0.3,1,6,6285110717241620755
0.1,0.3,0,2,2980693955589081577
0.1,0.3,5,6,8331088188701707650
0.1,0.3,5,2,7370062871395060942
0.1,0.3,2,1,8412605289497933934
0.1,0.5,2,1,8421564013600520366
0.1,0.3,0,6,4365540437205158167
0.1,0.3,4,2,3285296230657748693
0.1,0.3,9,1,6903372127798134951
0.1,0.5,0,6,9031399692173623019
0.1,0.3,7,2,2310207108993376461
0.1,0.5,5,6,2147513889885462076
0.1,0.5,7,2,963096077692582769
0.1,0.5,6,7,6471306080966164955
0.1,0.3,1,2,4057461576936942163
0.1,0.3,6,2,5691317911470160666
0.1,0.3,6,7,8373129343081552541
0.1,0.5,4,6,5082582863850896817
0.1,0.3,8,2,2769386028318516888
0.1,0.3,7,7,6864663156928846026
0.1,0.5,2,7,7828229787922724934
0.1,0.5,3,2,3728441632626151680
0.1,0.5,4,2,1071845939748949794
0.1,0.5,3,7,7624041327832412784
0.1,0.5,5,2,2456534425175674696
0.1,0.3,9,7,793160905213869168
0.1,0.3,3,2,87652572469802372
0.1,0.3,2,7,8686350928711190477
0.1,0.3,0,3,509203850979581186
0.1,0.3,4,7,3573696983677335778
0.1,0.5,0,2,7636438236472207958
0.1,0.3,3,7,4012284711663254948
0.1,0.3,4,3,8923375552334498980
0.1,0.3,5,3,6262322982860932509
0.1,0.5,0,7,3745300054171292134
0.1,0.5,1,2,5376218113207578775
0.1,0.5,2,2,9117005624840826519
0.1,0.3,7,3,6583365620740180910
0.1,0.5,5,7,6326801618204781097
0.1,0.5,6,2,6677718869676487305
0.1,0.3,5,7,2132099114344533199
0.1,0.5,6,8,7724239294558510553
0.1,0.3,0,4,3478762848000679577
0.1,0.3,6,8,2856846915062131376
0.1,0.3,7,8,5658715832932444014
0.1,0.5,3,3,3308710254361661175
0.1,0.3,0,7,5736974914022946584
0.1,0.3,1,7,56763074499062207
0.1,0.5,3,8,4416566956411925024
0.1,0.3,9,8,5067408283301762295
0.1,0.3,8,7,1829728818851282225
0.1,0.3,9,2,7912197116203540638
0.1,0.3,6,3,8548977911748759526
0.1,0.5,4,7,6721873715255865776
0.1,0.3,8,3,2117826612134191476
0.1,0.5,4,3,6564781180909607026
0.1,0.5,5,8,5014597528270182233
0.1,0.5,7,3,1787816285111052849
0.1,0.3,3,3,4680919773100278918
0.1,0.3,4,8,1692753125681941219
0.1,0.3,1,3,4321536628984788264
0.1,0.5,1,7,3390885178123706697
0.1,0.3,5,4,1007205466335378104
0.1,0.5,0,8,2310833810608643868
0.1,0.5,2,3,7693813156651378043
0.1,0.3,3,8,7542316840016015323
0.1,0.5,0,3,6829901289462697217
0.1,0.5,7,5,6317991362741570219
0.1,0.5,1,3,8257660897195112881
0.1,0.3,2,2,3796347590840149897
0.1,0.5,2,8,4527326308503644792
0.1,0.3,7,9,4330727845746394806
0.1,0.3,7,4,3987277801869223466
0.1,0.3,1,8,3338009847259990188
0.1,0.3,2,8,2972975005937551572
0.1,0.5,6,3,1431029255227062927
0.1,0.5,6,9,4931705936439915383
0.1,0.5,4,8,5814624841859693413
0.1,0.5,3,4,8570605124326284033
0.1,0.5,4,4,7192702970549018248
0.1,0.3,5,8,6004889264828646002
0.1,0.5,7,4,6371837635919713467
0.1,0.3,4,4,3588830575020521129
0.1,0.3,3,4,38407049442688410
0.1,0.3,4,9,6047954718203198961
0.1,0.3,6,4,392943296170808351
0.1,0.3,9,3,8210427058761931462
0.1,0.5,8,0,3694415009827334653
0.1,0.3,6,9,1093993078051983558
0.1,0.3,8,4,3500332674230679678
0.1,0.3,2,3,4538090091392643290
0.1,0.5,3,9,6356691995719755164
0.1,0.5,5,9,6376110530894603635
0.1,0.5,1,8,2270226745923412145
0.1,0.3,1,4,4290958983875735793
0.1,0.5,5,3,858176405081659503
0.1,0.5,1,4,5343761872210034545
0.1,0.3,8,8,5198192016227808386
0.1,0.5,2,9,8276689160140701692
0.1,0.5,2,4,2121732671992127490
0.1,0.3,9,9,8283974654177914142
0.1,0.5,0,4,571196341950688725
0.1,0.5,7,6,8334929949160069414
0.1,0.3,0,8,7528226619774487496
0.1,0.3,2,9,2767993128746896276
0.1,0.5,8,5,5694023921186548919
0.1,0.5,9,5,678329700335988686
0.1,0.3,1,9,6939808033473726474
0.1,0.3,5,9,3253637989633940016
0.3,0.3,0,0,3686460496958594891
0.1,0.3,3,9,6266575112960340819
0.3,0.3,2,5,6312118802778913953
0.1,0.5,0,9,6477911717494734817
0.1,0.5,4,9,6522625751022472295
0.3,0.3,3,0,8644537445582558966
0.1,0.5,9,0,2851791188994842999
0.3,0.3,4,0,7910354460408657660
0.1,0.5,6,4,7355423670956057037
0.3,0.3,4,5,3115507497048035630
0.3,0.3,0,5,312082635661040363
0.3,0.3,1,5,4498579870139600359
0.3,0.3,2,0,398161074037359523
0.3,0.3,6,0,8690151202840085194
0.1,0.5,5,4,2473705318637688542
0.3,0.3,3,5,7366479077872683080
0.3,0.3,1,0,4753082575917397441
0.1,0.3,8,9,5419647373817080153
0.1,0.3,2,4,1200014280373122849
0.3,0.3,5,5,6537344899259654447
0.3,0.3,5,0,8638205936527055714
0.1,0.5,1,9,884027057196424471
0.3,0.3,7,0,3305163535793006597
0.1,0.5,8,6,1159694235595826079
0.3,0.3,0,1,6473006756607299648
0.1,0.5,8,1,4788032337261222959
0.3,0.3,8,5,5779769707387375389
0.1,0.5,7,7,8068057085338898934
0.3,0.5,0,0,8422834141227498027
0.3,0.3,4,1,7057467533054634183
0.3,0.3,4,6,6422353719813392397
0.3,0.3,8,0,6099074131186779927
0.3,0.5,1,0,6370219010760515211
0.3,0.5,1,5,5178799282823299651
0.1,0.5,9,1,7793822353795177819
0.3,0.3,1,6,8172796617235545920
0.3,0.3,2,6,7067942938642140785
0.1,0.5,9,6,6983073830087952682
0.3,0.3,9,0,7856311883871653185
0.3,0.3,9,5,8351624713789321033
0.3,0.3,7,5,3726252279839427159
0.3,0.3,3,6,3377145577806904838
0.3,0.3,1,1,3521502693336059187
0.3,0.3,5,6,8736310715995261635
0.3,0.3,6,5,6125658943935595210
0.1,0.3,0,9,4671122287078298729
0.3,0.5,2,0,5041062355752706427
0.3,0.3,6,1,6737070257228874341
0.3,0.3,3,1,3311974636659917578
0.1,0.5,8,7,8912384250124924659
0.3,0.5,2,5,2837394693046118859
0.3,0.5,3,5,3680131038734466605
0.3,0.5,3,0,4804364401639667875
0.1,0.5,8,2,3863408720529055589
0.1,0.5,7,8,3962953630598021741
0.3,0.3,7,1,8671090617817600111
0.1,0.3,9,4,5481215048537123210
0.3,0.5,0,1,4748545377976912948
0.3,0.3,0,2,5114177494318201505
0.3,0.3,5,1,7885397249999283465
0.3,0.3,8,6,1877712953416677227
0.1,0.5,9,7,6675306331405892104
0.3,0.3,9,1,5162699559073668803
0.3,0.3,4,2,1618111536621104243
0.3,0.5,1,1,1763119520194602580
0.3,0.3,3,7,8720171685757997710
0.3,0.5,1,6,8781519117294227409
0.3,0.3,2,7,9199645618214155009
0.3,0.5,4,0,1172793784330322620
0.1,0.5,9,2,7204288714197863101
0.3,0.3,0,6,4338723243601276920
0.3,0.3,4,7,2839441307651614815
0.3,0.3,3,2,3536729050525406634
0.3,0.3,8,1,5318967322541967606
0.1,0.5,8,8,8702743961407301112
0.3,0.3,2,1,3448662611304120472
0.3,0.3,1,7,3361846352795265242
0.3,0.3,5,7,604019462171839211
0.3,0.3,9,6,8854365501359015056
0.3,0.3,6,2,4582054303267981409
0.3,0.3,7,6,757214481265552378
0.3,0.3,7,2,1968682011250402652
0.3,0.5,0,2,833826024789980739
0.3,0.3,1,2,8107240247618590576
0.3,0.3,0,3,2519890876824369564
0.3,0.3,5,2,235929463417040252
0.3,0.5,3,1,8595044075895471609
0.3,0.5,2,1,8094334534728978676
0.3,0.3,6,6,9213192390509845345
0.3,0.5,0,5,3149156519635531258
0.3,0.3,8,7,8398819983465812131
0.1,0.5,9,8,7733338361448842833
0.3,0.5,4,5,2159027511200246178
0.3,0.5,3,6,9138090139452098866
0.3,0.5,1,7,406366372041293145
0.1,0.5,7,9,8889586259621387721
0.3,0.5,4,1,5350996774321126750
0.3,0.3,2,8,6065709084690329843
0.3,0.3,4,3,6504257068824511307
0.3,0.3,8,2,9078662380411302623
0.3,0.3,3,3,7202217241801578520
0.3,0.3,3,8,8071087329572848094
0.3,0.3,1,8,8574318886331501567
0.3,0.3,9,2,8310465517557169106
0.1,0.5,9,3,4170838924574130549
0.3,0.3,0,7,743762160690566318
0.3,0.3,4,8,313251808035928916
0.3,0.5,2,6,4821598607170393353
0.1,0.5,8,9,4830780301588114044
0.3,0.5,1,2,2223783466275678241
0.3,0.3,7,7,4243909999113631082
0.3,0.3,0,4,215731459263109145
0.3,0.3,5,8,426312669135691978
0.1,0.5,8,3,1293182862914845887
0.3,0.3,6,7,4326194945521550792
0.3,0.5,0,6,4036360901954182964
0.3,0.3,9,7,3798167251697117699
0.3,0.3,1,3,7949892143204160126
0.3,0.3,7,3,3048713847927715494
0.3,0.5,3,2,836485687012104002
0.3,0.3,5,3,7638283193561843999
0.3,0.3,8,8,3414481548349071391
0.1,0.5,9,9,3146037703381692807
0.3,0.5,2,2,4947976513537529803
0.3,0.3,4,4,9193425184631135594
0.3,0.3,3,4,943846557807473942
0.3,0.5,4,6,3257508584821235324
0.3,0.3,3,9,7469945417541241284
0.3,0.3,2,2,7185533836601570970
0.3,0.5,5,0,8895702400174017264
0.3,0.3,6,3,1018047358655711256
0.3,0.5,2,7,5881641117749194837
0.3,0.5,0,3,4574075366646786985
0.3,0.3,2,9,8333060070882321573
0.3,0.5,1,8,195556468329752960
0.3,0.5,6,0,5097919947115743839
0.3,0.5,0,7,4532870478234379198
0.3,0.3,0,8,4119884181349293400
0.3,0.3,8,3,7658159516640507157
0.3,0.5,3,7,2928100173605624873
0.3,0.3,1,4,6208790596686725680
0.3,0.3,7,8,4960680655635714166
0.3,0.5,3,3,7196863430796008052
0.3,0.3,1,9,7993322768515829270
0.3,0.3,9,3,3009255295101696792
0.1,0.5,8,4,7871515513939545040
0.3,0.5,4,2,7382266636362009967
0.3,0.3,5,4,8005218640986374488
0.3,0.3,4,9,9118252946752062587
0.3,0.5,2,3,8863451339800371163
0.3,0.5,1,3,771134518764775206
0.3,0.5,6,5,3340126780035143043
0.3,0.5,7,5,3628840275778541935
0.3,0.3,7,4,332273848053279394
0.3,0.5,8,0,5769185033979498472
0.3,0.3,9,8,4046526627084517384
0.1,0.5,9,4,466484252012454114
0.3,0.3,2,3,5252230011441238308
0.3,0.5,5,5,9023077719956399072
0.3,0.3,6,4,1445047820060490499
0.3,0.5,7,0,3908538403136136046
0.3,0.3,5,9,2155118019657668356
0.3,0.5,6,1,5940887373471458948
0.3,0.3,6,8,482697435688111238
0.3,0.5,5,1,4557214540308066958
0.3,0.3,8,9,8004326065132075460
0.3,0.5,0,8,5809742039961610207
0.3,0.3,0,9,3068659288853750293
0.3,0.5,0,4,7720040287422198827
0.3,0.5,4,7,2821035706055997956
0.3,0.5,3,4,6147162981150406101
0.3,0.3,7,9,1442146522476635198
0.3,0.5,4,3,4189484043806098306
0.3,0.5,9,5,6796764693545099176
0.3,0.5,2,4,6855008673343589588
0.5,0.3,0,0,6529690090669227582
0.3,0.5,7,6,1367610358901934499
0.3,0.5,9,0,3861625245540244917
0.5,0.3,1,0,8744391227664701479
0.3,0.3,6,9,8029207656730782364
0.3,0.3,2,4,4848778105137197837
0.5,0.3,2,0,7448490718032871206
0.3,0.5,1,4,5254664555181495375
0.3,0.5,8,5,34528541717010447
0.3,0.5,1,9,1983081108672863487
0.5,0.3,2,5,8619913732985404455
0.5,0.3,3,0,3839793565423199114
0.3,0.5,8,1,8167867930240549544
0.3,0.3,9,4,4401964937437580261
0.5,0.3,1,5,8999326566037200696
0.3,0.3,8,4,1652337151321305192
0.3,0.5,5,6,6120586874301648781
0.3,0.5,2,8,2958155480442816996
0.3,0.5,3,8,1259413851732015098
0.3,0.5,6,6,1783478855297988197
0.5,0.3,4,0,4086539735222982105
0.3,0.5,4,8,6485468115319221996
0.3,0.5,6,2,5790290654629137569
0.3,0.5,5,2,8982928601230450288
0.3,0.5,4,4,3714745968455185635
0.3,0.5,0,9,5844502207168424259
0.5,0.3,3,5,6300447940699025523
0.3,0.5,7,1,108365859056317277
0.5,0.3,6,5,4148886072276181990
0.5,0.3,5,5,3544472601844195138
0.3,0.5,7,7,6536110201229382271
0.5,0.3,4,5,4849393972377858096
0.3,0.5,9,1,3772084277058524960
0.5,0.3,1,1,2510477475097125466
0.5,0.3,6,0,5256971721888114749
0.5,0.3,0,1,7868102249966406504
0.5,0.3,0,5,7556563642953468620
0.5,0.3,5,0,3790645402235822974
0.5,0.3,1,6,9027702874980629995
0.3,0.3,9,9,5456999537342786472
0.3,0.5,2,9,6509821862038573997
0.3,0.5,8,6,1763792442789618065
0.5,0.3,8,0,6695531794009235639
0.5,0.3,7,0,3614821035255794517
0.5,0.3,7,5,884061017008526670
0.5,0.3,2,6,6192334191675553103
0.3,0.5,4,9,8564953009355995656
0.3,0.5,8,2,6999677275657150615
0.3,0.5,6,3,6654890794305575863
0.5,0.3,8,5,4504358749138209443
0.5,0.3,9,0,7360171879540711534
0.5,0.3,9,5,8222700542663335723
0.3,0.5,3,9,7436747492846914237
0.5,0.3,2,1,1396518270540813345
0.5,0.3,5,6,5947138941325139853
0.3,0.5,7,8,8014846731606930453
0.3,0.5,9,6,707687467612599417
0.3,0.5,5,3,1963209233675491639
0.3,0.5,5,7,2838138198816818033
0.3,0.5,6,7,1559206741356984828
0.5,0.3,1,2,6641928019510117462
0.5,0.3,4,1,1016384705913849810
0.5,0.3,3,6,7145743960929743643
0.5,0.3,0,2,6615718706057997153
0.5,0.3,6,6,1454504887759143988
0.5,0.3,3,1,4144741620200895531
0.5,0.3,5,1,547394334442304196
0.5,0.5,0,0,8399986959138469464
0.5,0.3,6,1,4665955763354566762
0.3,0.5,7,2,1576135657279383414
0.3,0.5,8,7,5881167574079232813
0.5,0.5,0,5,4119892957751747386
0.5,0.3,7,1,7727369921600208837
0.3,0.5,8,3,3146909474894506716
0.5,0.3,8,6,4555204132863387895
0.5,0.5,1,5,5906808878001122764
0.5,0.3,0,6,1521417308887546659
0.5,0.3,7,6,5578767599386693294
0.5,0.3,2,2,6728287569800089092
0.5,0.5,1,0,8591915448061880971
0.5,0.3,4,6,1819866663015034768
0.5,0.3,1,7,7246152559615704759
0.3,0.5,6,4,3282845728307385903
0.5,0.3,9,1,3851393518700971287
0.5,0.3,4,2,8374098547767513325
0.5,0.3,8,1,5940342483366819234
0.5,0.3,3,7,8620357112562569976
0.3,0.5,7,9,4776445836820856379
0.5,0.3,5,7,9048402178950327977
0.3,0.5,5,4,7830271597449765215
0.3,0.5,9,7,1725327646266787071
0.5,0.5,0,1,4596537948891361412
0.3,0.5,6,8,8563466386170868924
0.5,0.3,1,3,25017073609153151
0.5,0.3,0,7,5497849512387598078
0.5,0.3,0,3,5443283282784021733
0.5,0.3,6,7,2168153517831815879
0.5,0.3,2,7,7617774895958982351
0.5,0.3,3,2,3948637936727668455
0.3,0.5,7,3,7536734118614939334
0.3,0.5,5,8,86108378972203805
0.3,0.5,9,2,7495482707069404081
0.5,0.3,5,2,4315187426889083781
0.5,0.5,1,6,1131553972024806556
0.3,0.5,8,8,210092022827301693
0.5,0.5,2,0,5301151664435349430
0.5,0.5,0,6,2935213473289490448
0.5,0.3,7,2,6900943788883717792
0.5,0.5,1,1,8455547970739329794
0.3,0.5,8,4,5523285600508934180
0.5,0.3,4,7,2771241706993822874
0.5,0.3,9,6,4247312636719254611
0.5,0.3,8,7,3507311439860259261
0.5,0.3,1,8,6298845782494696410
0.5,0.5,2,5,5346747330997551747
0.5,0.5,3,0,8045182897594489749
0.3,0.5,6,9,6405831678104311624
0.5,0.3,6,2,7114724180530833934
0.3,0.5,9,8,4546948094470400458
0.5,0.3,4,3,2436839094676178460
0.5,0.3,8,2,7294550907028268941
0.5,0.3,3,8,4647581376136634174
0.5,0.3,0,4,6865745823691003478
0.5,0.3,2,3,3890770267413230662
0.5,0.3,1,4,6205820668385467524
0.5,0.5,1,7,7606304337336327725
0.5,0.3,0,8,9163979953303682832
0.5,0.3,6,8,6907077675580454435
0.5,0.5,0,7,1475921449700167256
0.5,0.3,2,8,4808454950225848641
0.5,0.3,3,3,2672679353303819198
0.5,0.5,3,5,716331818061676171
0.5,0.3,5,8,7752455034072742038
0.5,0.5,1,2,1467169410217469118
0.5,0.3,4,8,9030759771177688013
0.5,0.5,0,2,5481608275110432626
0.5,0.3,9,2,1392562799461145406
0.5,0.3,7,3,8352895752810903123
0.3,0.5,9,3,6694982884646868676
0.5,0.5,4,0,4028477851759267282
0.3,0.5,5,9,2358384915037912026
0.3,0.5,7,4,7588295949795752994
0.5,0.3,5,3,1238410071707811254
0.5,0.3,8,8,2578295172489530336
0.5,0.5,3,1,6465939322456229440
0.5,0.3,9,7,650268828413578307
0.3,0.5,8,9,9197029677467354367
0.5,0.3,4,4,1148314619143892226
0.5,0.3,3,9,7322481127924703545
0.5,0.3,1,9,1760886540769273243
0.5,0.5,4,5,3810404061999699837
0.5,0.3,6,3,6737156627213003385
0.5,0.5,1,8,4770545645879973555
0.5,0.3,8,3,7200809431281023656
0.5,0.5,5,0,303640141535571483
0.5,0.5,0,8,524445698726026833
0.5,0.5,3,6,310632325903692330
0.5,0.3,5,9,2812598735057348686
0.5,0.5,1,3,5484055532280091816
0.5,0.3,2,9,1118539481739249772
0.5,0.3,7,7,2308245658856166601
0.5,0.5,5,5,9108878778467062659
0.5,0.5,2,1,2128564550612012055
0.5,0.3,0,9,7729693800188309012
0.5,0.3,6,9,2618930550252852266
0.5,0.3,2,4,6754659059925574946
0.5,0.3,3,4,8182528297873750739
0.3,0.5,9,9,2341346840506230570
0.5,0.5,4,1,9145509648681593791
0.5,0.5,6,0,3392906196641284788
0.5,0.5,0,3,583890621225226166
0.5,0.3,8,9,6284773897882653464
0.5,0.3,9,8,6949155254429164410
0.5,0.5,6,5,5319249289430437124
0.3,0.5,9,4,3821008662070751220
0.5,0.5,9,0,8681315925039538183
0.5,0.3,5,4,4110205542676318293
0.5,0.5,3,2,5017478870334806399
0.5,0.5,5,1,7704016290716751505
0.5,0.3,9,3,8200348207374014917
0.5,0.3,7,4,6755716927291165085
0.5,0.5,8,0,4182971251482299062
0.5,0.5,2,6,279909464380296588
0.5,0.5,3,7,4435847652651004728
0.5,0.5,4,6,5735927158630411508
0.5,0.5,9,5,5815598360794103693
0.5,0.3,6,4,2422379752069847183
0.5,0.3,7,8,5678552565062722809
0.5,0.5,5,6,8051311678242091521
0.5,0.5,2,2,8099409000392841062
0.5,0.5,7,5,7162570873924559091
0.5,0.3,8,4,1587951156201652158
0.5,0.5,1,9,2684432013367092937
0.5,0.3,4,9,8399016065406195299
0.5,0.5,8,5,8058469375788294248
0.5,0.5,6,1,170118128379906367
0.5,0.5,7,0,1658998275257735205
0.5,0.5,0,9,8385392162518094620
0.5,0.5,6,6,544558110868130641
0.5,0.5,1,4,3934316838218112990
0.5,0.5,4,2,5571992425222097076
0.5,0.5,8,1,5818371229872600709
0.5,0.5,5,2,4616305721834903809
0.5,0.5,3,8,2745558994181242360
0.5,0.3,9,9,8020472274307789923
0.5,0.5,2,7,6814669483665072547
0.5,0.5,9,1,7979518581040004127
0.5,0.5,8,6,2800135641119168632
0.5,0.5,3,3,8890071176457928730
0.5,0.5,9,6,1107950916089536039
0.5,0.5,7,6,9197490451766675230
0.5,0.5,6,2,8564046444820779077
0.5,0.3,7,9,2600724035465379710
0.5,0.5,2,3,4467869458611445307
0.5,0.3,9,4,1182765196822869742
0.5,0.5,7,1,925977903405794812
0.5,0.5,6,7,4137570036766618887
0.5,0.5,4,7,2272815049556562887
0.5,0.5,4,3,7932484951955266898
0.5,0.5,0,4,3126409564262463894
0.5,0.5,5,7,8242940403902928877
0.5,0.5,5,3,5026782281924678779
0.5,0.5,3,9,1185716066463239444
0.5,0.5,8,2,7153153987619015869
0.5,0.5,9,2,7832575705336211577
0.5,0.5,7,7,4172243797317071251
0.5,0.5,2,4,3743876083216727749
0.5,0.5,2,8,9153230364190255452
0.5,0.5,4,8,4589429348942699112
0.5,0.5,4,4,8040600397341544371
0.5,0.5,3,4,6210187329774748208
0.5,0.5,8,7,1791700960271990218
0.5,0.5,6,8,4631711270824678977
0.5,0.5,5,8,6656108313494741870
0.5,0.5,6,3,9107456509516222445
0.5,0.5,5,4,6722594655541569892
0.5,0.5,8,3,3623124745618102103
0.5,0.5,7,2,306072620733109493
0.5,0.5,9,3,1664622189052532853
0.5,0.5,7,8,1181848632875259012
0.5,0.5,2,9,2837498077915640086
0.5,0.5,4,9,7264561239798230639
0.5,0.5,9,7,3264396424085348103
0.5,0.5,6,4,538785009282332008
0.5,0.5,8,4,8572533372992014057
0.5,0.5,6,9,7522648387795149590
0.5,0.5,7,9,7726498620328884602
0.5,0.5,5,9,740249155204868658
0.5,0.5,9,8,8515066373166535385
0.5,0.5,8,8,2045928778267696784
0.5,0.5,7,3,6015584328659074478
0.5,0.5,9,4,2555065275087688711
0.5,0.5,9,9,157639447446421147
0.5,0.5,8,9,3204951301371536841
0.5,0.5,7,4,6228814759018639820
